33
Coordinates from ORCA-job p-NO2-Ph-N2-H-OTs-B3LYPG-6-31G_dp-scan-d09-49-n400
  C   2.09459067688624      0.67604734949160     -1.82007979188316
  C   2.43688670832278      0.40079047876082     -3.26310631872462
  C   1.45763306413033      1.11385085219131     -4.18369264500234
  C   0.99160829215781      2.47309969209993     -3.85028909734441
  C   0.24500569022848      2.29953163029689     -2.39304900575090
  C   1.11255991471467      1.50208638886525     -1.46146095288884
  H   2.68194850138980      0.17970950608223     -1.05647512661143
  H   2.31154806484749     -0.68033128461579     -3.40901127927054
  H   0.28931496635658      2.89378285419047     -4.56401691884937
  H   -0.53876450636034      1.62410243235793     -2.77297929654372
  N   0.81853121709264      1.63557445010236     -0.02085195169606
  O   -0.19331435349186      2.27356691268906      0.28145140425130
  O   1.56373762356700      1.08699227847713      0.78534187556438
  N   1.34387024061476      0.69133818662488     -5.41254918176934
  N   1.20674499703652      0.27578909098578     -6.46874858427121
  C   5.85454954024301      2.10200572701752     -3.98702228346574
  C   6.66467459937191      0.97767699053627     -4.13207264980180
  C   6.13269805088488     -0.30609282578376     -3.99185240981501
  C   4.76332317728765     -0.42089587001032     -3.71599777725937
  C   3.92363487224134      0.68584809023848     -3.55701943368076
  C   4.49668970659195      1.96683643995991     -3.69408861317771
  H   6.26412377855751      3.09790703697605     -4.11026590319378
  H   7.71780495047191      1.10547908731740     -4.36547544302476
  H   4.33169316079311     -1.41588189728921     -3.62614271929628
  H   -0.39741685972966      2.98433932474035     -1.72798953362414
  S   3.60612715946698      3.52681524679627     -3.46677213313429
  O   2.32874483892263      3.37812671094372     -4.44274558553435
  O   4.42833834982394      4.58171124386519     -4.04941313876812
  O   3.15813847914771      3.61470374062327     -2.07656983199600
  C   6.99910312441632     -1.53492635136493     -4.11867254123314
  H   7.87754438433470     -1.34158562281084     -4.74007255165340
  H   7.35848299805086     -1.86115468945586     -3.13539536018294
  H   6.44804459163005     -2.37214320089946     -4.55711522036791
