35
Coordinates from ORCA-job p-CH3O-Ph-N2-X-OTs-B3LYPG-6-31G_dp-scan-d09-49-n400
  C   0.00536942885668      0.97341672192882     -2.72828353253221
  C   0.80350412017945      2.22561698396727     -2.90765191302606
  C   0.72758510138206      3.09587904497389     -1.68174124080379
  C   0.33859158515459      2.58025769010838     -0.39139013090989
  C   -0.19068864751779      1.33995826585803     -0.30251669336906
  C   -0.39323386993225      0.54810444888769     -1.50546937846963
  H   -0.12834559099596      0.37837989324852     -3.62207577893317
  H   0.47284516895438      2.78396660161492     -3.79500739393194
  H   0.46639538036572      3.21037455588357      0.48290559713154
  H   -0.49828373832571      0.91450147477514      0.64532117025656
  N   1.05769724122685      4.35900236564150     -1.79167209738363
  N   1.32685894338808      5.46665281342080     -1.88187325070877
  C   4.60038773429640     -0.20206391316040     -4.35211839398469
  C   5.89969286020963     -0.63647260255426     -4.10528919804668
  C   6.93826444003325      0.29116173216468     -3.93720851892872
  C   6.64414854220105      1.65665611738993     -4.02158981004455
  C   5.34046302660121      2.10007827836604     -4.26417646007902
  C   4.31434882733007      1.15954316947231     -4.41923540431703
  H   3.78340095831313     -0.90063113864808     -4.50646494585234
  H   6.11322232669951     -1.70003383884588     -4.04451166974548
  H   7.43985708307221      2.38956814547343     -3.89507943592999
  H   5.81446337662320      3.95493532314927     -4.23819285597293
  S   2.61312718828069      1.66578401248525     -4.77780013226744
  O   2.23708701709835      1.88647200258362     -3.13565073644218
  O   1.92957719753534      0.43156490789886     -5.28240896563860
  O   5.02064459212393      3.42018886923677     -4.36741805597097
  C   8.35745929885824     -0.17047467764008     -3.70682047897828
  H   8.38255855777603     -1.12086146805631     -3.16605858119781
  H   8.87953048982578     -0.32337546306590     -4.65935988524862
  H   8.93267445533299      0.56323039406804     -3.13387047396835
  O   -1.03953260779835     -0.62367359849282     -1.24894689900620
  C   -1.27958302956827     -1.49467450782539     -2.34503362533473
  H   -1.77580257764297     -2.37366431921124     -1.93118017243182
  H   -0.34255021704659     -1.79360221317160     -2.82985192015305
  H   -1.93143466289091     -1.02416607192483     -3.09257873778044
