14
Coordinates from ORCA-job 2-NO2-C6H3-N2-B3LYPG-aug-cc-pVDZ-scan-d09-49-n400
  C   -2.45121196970808     -0.08195820328097     -0.90488015760648
  C   -1.15299922101825     -0.26429232937086     -0.47896648808015
  C   -0.43663672262017      0.36017681801577      0.33810253736385
  C   -0.94202384750758      1.46651258743126      1.00004941170204
  C   -2.27361919605953      1.80355461492115      0.68383241019086
  C   -3.00476804319097      1.04609949576315     -0.24608693675380
  H   -3.00656901611261     -0.67647035657234     -1.62616142763729
  N   3.69101987444262      1.79977529359626     -0.63707759957501
  N   4.43625391826148      1.06842696405921     -0.27720168126024
  H   -4.03363806325375      1.32966911910629     -0.47348622551835
  H   -2.72646839846009      2.66339305484441      1.17453271438958
  N   -0.16670424366760      2.25373762755067      1.97483618148201
  O   0.99221976354084      1.91174043280150      2.17567713748786
  O   -0.73595483464637      3.19803488113448      2.51923012381511
