18
Coordinates from ORCA-job Ph-N2-BF4-B3LYPG-aug-cc-pVDZ-scan-d09-49-n400
  C   -1.31592970074792     -0.09869483270759      0.04453787639655
  C   -0.00858245055493      0.00009397118938      0.53319382525388
  C   0.46542025001667      1.26185880778424      0.86805911610028
  C   -0.28831721624949      2.41985872856398      0.73455723252550
  C   -1.59324556805708      2.29945851316575      0.24390567276609
  C   -2.10841877562932      1.04512436943269     -0.09952222683281
  H   -1.71358359202299     -1.07738353531992     -0.22471513829277
  H   0.63125941479592     -0.87281802383442      0.64895723631062
  H   0.14016683135250      3.38304142188577      1.00659490088174
  H   -2.20711912088017      3.19323697864403      0.13047050039253
  N   2.91818343590780      1.54443437922996     -2.56454924651879
  N   2.86625566822913      1.50429294227758     -3.66694967015337
  B   3.79344417023362     -0.20130008574719      1.61943378159470
  F   3.50468667611469     -0.89819687679406      0.52374084068205
  F   4.60832234004165      0.84231776799086      1.54658846092449
  F   1.74653109591053      1.37652657549442      1.34684558275909
  F   3.32712476182891     -0.60506517969754      2.79555909809562
  H   -3.12569822028959      0.95921407844200     -0.48080784288546
