18
Coordinates from ORCA-job Ph-N2-BF4-B3LYPG-aug-cc-pVDZ-scan-d09-49-n400
  C   -1.32701054121980     -0.09960251630099      0.05669290221950
  C   -0.01713015475996      0.00093184634129      0.53811248444644
  C   0.45699480910176      1.26312950464392      0.87372994089062
  C   -0.30280361583147      2.42019981476841      0.75024393056634
  C   -1.61006314227745      2.29771892934877      0.26677677423509
  C   -2.12324646650772      1.04285951142271     -0.07872337319914
  H   -1.72391876930306     -1.07832409876049     -0.21338237690405
  H   0.62464528857026     -0.87145869957592      0.64840587433942
  H   0.12295184353673      3.38399085106243      1.02503726725059
  H   -2.22755380827003      3.18988329287387      0.16085809721456
  N   3.00190691325417      1.54164513723726     -2.65382606255208
  N   2.97346265249740      1.50097759402339     -3.75708407323743
  B   3.78421064310361     -0.19842974081885      1.62212626956718
  F   3.50072878402859     -0.88952652618363      0.52132870835770
  F   4.59879540566133      0.84625072436104      1.55936221972940
  F   1.73872127944549      1.37951681789120      1.34722751066530
  F   3.31236979991651     -0.60914502342963      2.79326099872933
  H   -3.14256092094641      0.95538258109520     -0.45424709231881
