14
Coordinates from ORCA-job 3-NO2-C6H3-N2-v1-B3LYPG-aug-cc-pVDZ-scan-d09-49-n400
  C   -2.43019506417853      0.16304876862366     -1.35323644345116
  C   -1.13986862328131     -0.17818570409232     -0.96438831504966
  C   -0.43907974577529      0.39046269997304     -0.09668887462139
  C   -0.76666940182521      1.48297673898854      0.68058906225627
  C   -2.07843386582334      1.90074966254505      0.34730261751752
  C   -2.88897634232823      1.27878014045061     -0.62553279043859
  H   -3.03909289253708     -0.33098787696069     -2.10711280647666
  H   -0.17529830236836      1.99013012532538      1.43664058353730
  N   2.67189159137998      0.59709721267350      1.73643511616270
  N   3.54505598645414     -0.06773997164199      1.61572068571473
  H   -3.88419279364859      1.67987728042278     -0.80518047161579
  N   -2.62764322409205      3.06818958636455      1.07255856730078
  O   -3.75632889367817      3.45163269635083      0.77707649939611
  O   -1.90246842829796      3.61216864097706      1.90111656976784
