14
Coordinates from ORCA-job 3-NO2-C6H3-N2-v1-B3LYPG-aug-cc-pVDZ-scan-d09-49-n400
  C   -2.73693929839975      0.21218840694522     -1.47050011557592
  C   -1.46218416882180     -0.27885642380143     -1.21705490476859
  C   -0.62704018297306      0.15990732184266     -0.39399783863946
  C   -0.76918871416754      1.23660234486926      0.46068717618618
  C   -2.05215534713653      1.80491307446791      0.26957171494408
  C   -3.00727428254117      1.32621033799081     -0.65173031277935
  H   -3.45816738052848     -0.17373984332131     -2.18737751355765
  H   -0.06398042932180      1.63786441192386      1.18228273214728
  N   2.86297660939456      0.93980071969969      2.13276576108279
  N   3.86251071975250      0.49246630358844      2.27384564108281
  H   -3.96508918579030      1.83766469105890     -0.71907824884330
  N   -2.40733013765587      2.98038268488255      1.09623340923128
  O   -3.51914896224207      3.47899877368334      0.94250707472982
  O   -1.56828923956872      3.38379719617014      1.89714542476001
