14
Coordinates from ORCA-job 3-NO2-C6H3-N2-v1-B3LYPG-aug-cc-pVDZ-scan-d09-49-n400
  C   -2.41965999518028      0.16083850400265     -1.34723278399819
  C   -1.12979976460173     -0.17589919322298     -0.95304815419017
  C   -0.43216808360731      0.39755698332175     -0.08586182823990
  C   -0.76519173145913      1.49296724393820      0.68518251119245
  C   -2.07660361373400      1.90685705193894      0.34631745670733
  C   -2.88302878775333      1.27878483217793     -0.62593885278165
  H   -3.02519253979374     -0.33785282005593     -2.10075574703751
  H   -0.17591216377134      2.00366743166224      1.44042815777898
  N   2.66040870979241      0.58641976546708      1.72102413479282
  N   3.52713112971343     -0.08571188822591      1.59442254859955
  H   -3.87850796465579      1.67700758260781     -0.81044019230008
  N   -2.63000863617555      3.07660117243820      1.06453945316469
  O   -3.76652566327439      3.44399553170204      0.77883541250575
  O   -1.91624089549925      3.61296780224801      1.90782788380592
