14
Coordinates from ORCA-job 3-NO2-C6H3-N2-v1-B3LYPG-aug-cc-pVDZ-scan-d09-49-n400
  C   -2.50192614104967      0.17151476771327     -1.38167288400386
  C   -1.21296886814755     -0.20257792590903     -1.01996287503594
  C   -0.48200036293030      0.34085508231294     -0.16093707403272
  C   -0.77039557545501      1.43392319103459      0.63172474520484
  C   -2.07784104624328      1.88490062467961      0.32675456832455
  C   -2.92086970173513      1.29079744859588     -0.63572744197477
  H   -3.13600209984659     -0.30146796573894     -2.12824250380832
  H   -0.15185038556453      1.91900608644263      1.38050804401676
  N   2.74487832710100      0.66421971411160      1.83355028416316
  N   3.65241162959697      0.03888702605749      1.76755161427524
  H   -3.90957089222585      1.71665877431599     -0.79295476728388
  N   -2.58588823042867      3.05833051788809      1.07213032706682
  O   -3.71841193865941      3.45828440880294      0.81581993415339
  O   -1.84086471441201      3.56486824969298      1.90675802893473
