14
Coordinates from ORCA-job 3-NO2-C6H3-N2-v1-B3LYPG-aug-cc-pVDZ-scan-d09-49-n400
  C   -2.54774549408887      0.17813135472458     -1.40027193071568
  C   -1.26005608089898     -0.21767273170454     -1.05781868163407
  C   -0.51002245014242      0.30784876730017     -0.20407468373240
  C   -0.77227476135604      1.39884210125414      0.60062906087884
  C   -2.07659680485086      1.87144311801921      0.31580118078905
  C   -2.94049223839981      1.29753064642631     -0.64040613225023
  H   -3.19814179154106     -0.27954173117668     -2.14232636343364
  H   -0.13737935639834      1.86901547720251      1.34529155873085
  N   2.78405159370980      0.71237220073360      1.89621922999275
  N   3.71177766837829      0.11461938519423      1.86390137764781
  H   -3.92465073013670      1.73920465330621     -0.78168222128861
  N   -2.55770391380704      3.04630266652453      1.07662311299258
  O   -3.68724221995350      3.46504224130945      0.83772567785538
  O   -1.79482342051449      3.53506185088630      1.90568881416738
