14
Coordinates from ORCA-job 3-NO2-C6H3-N2-v1-B3LYPG-aug-cc-pVDZ-scan-d09-49-n400
  C   -2.81334826459478      0.23034542961725     -1.49575406227988
  C   -1.54741452062756     -0.30115402770920     -1.28268564342661
  C   -0.67971732900493      0.10025617345288     -0.47425454896883
  C   -0.76968228378695      1.16617194073149      0.40008180911516
  C   -2.03980996864509      1.77430436032828      0.25110435466445
  C   -3.03097805865385      1.33815494028842     -0.65304588063375
  H   -3.56309562819385     -0.12308737446284     -2.20002132866361
  H   -0.03490658724746      1.53489333992859      1.10961113423959
  N   2.88587391772659      1.03380619189586      2.22618699507963
  N   3.90350761965760      0.66585307654246      2.44560216757441
  H   -3.97499581916242      1.87770183791839     -0.68803894661265
  N   -2.33993669758481      2.94562240750375      1.10494001455305
  O   -3.43864223864731      3.48103466114808      0.98418258771259
  O   -1.46815414123522      3.31429704281662      1.88739134764643
