14
Coordinates from ORCA-job 4-NO2-C6H3-N2-B3LYPG-aug-cc-pVDZ-scan-d09-49-n400
  C   -2.78633340263599     -0.44375094719766     -0.73497264382983
  C   -1.43254485067910     -0.63005331525405     -0.94395578068519
  C   -0.50300536310167      0.12777782277750     -0.58450287568870
  C   -0.59530904266603      1.32989456052949      0.10507947890632
  C   -1.94511613221700      1.62958113899041      0.37807725933875
  C   -2.98477436779391      0.76857246929959     -0.03160033457559
  H   -3.61508986927123     -1.07913162303450     -1.03258519794748
  H   0.21974390265511      1.98077422598826      0.41252511156822
  H   -2.20668635155945      2.53930894337819      0.91450413195255
  N   -4.37743178503787      1.15093560991484      0.29150224472737
  O   -5.27154776121722      0.38924468970923     -0.06745533278457
  O   -4.56045881392301      2.19883203414435      0.90525991488373
  N   3.35792433348339      2.18135400951524      0.28602077639955
  N   4.42012950396392      1.96006038123911      0.08150324773487
