14
Coordinates from ORCA-job 4-NO2-C6H3-N2-B3LYPG-aug-cc-pVDZ-scan-d09-49-n400
  C   -2.56414438740010     -0.37773780171851     -0.71434540079366
  C   -1.18746674330638     -0.41754176820218     -0.84158981323880
  C   -0.37353399149037      0.43482111311814     -0.41916042002118
  C   -0.63311043367396      1.61137056272411      0.26905765004232
  C   -2.02180233540344      1.76116710474947      0.45969296054716
  C   -2.93497153446316      0.79787149211958     -0.01825327065981
  H   -3.30039664278871     -1.09447777345920     -1.06563436349793
  H   0.08872738861858      2.34053936170350      0.62849680845621
  H   -2.41267640656329      2.63095699037936      0.98357432699025
  N   -4.37789341293247      1.02441499667386      0.22005716914504
  O   -5.16106073684458      0.17640561628953     -0.19945063565672
  O   -4.71039547136647      2.04026870917410      0.82488180986711
  N   3.18047611511484      1.81602306574107      0.09419813278092
  N   4.12774859249949      1.35931833070717     -0.24212495396091
