14
Coordinates from ORCA-job 4-NO2-C6H3-N2-B3LYPG-aug-cc-pVDZ-scan-d09-49-n400
  C   -2.74959845663650     -0.43371979027934     -0.73230838703210
  C   -1.39028033639470     -0.59369146558913     -0.92649339514673
  C   -0.47945489055697      0.18130465718990     -0.55586335595341
  C   -0.60246111985946      1.38038382860412      0.13409072609819
  C   -1.96071417228449      1.65380198929328      0.39251696609540
  C   -2.97904445214097      0.77359548617500     -0.02972438272045
  H   -3.56266830415853     -1.08444405272082     -1.03986205571450
  H   0.19668165111503      2.04612098594153      0.45120666458923
  H   -2.24562675348824      2.55757792380382      0.92711371799198
  N   -4.38229531695455      1.12869539905671      0.27832792659001
  O   -5.25741752943132      0.34947311656847     -0.08969521007428
  O   -4.59206715721350      2.17096556590965      0.89309895639408
  N   3.33914275296621      2.12072533223494      0.25330894887420
  N   4.38530408503793      1.85261102381187      0.02368288000839
