14
Coordinates from ORCA-job 4-NO2-C6H3-N2-B3LYPG-aug-cc-pVDZ-scan-d09-49-n400
  C   -2.51768490842686     -0.36280827628019     -0.70914333735309
  C   -1.13916381810377     -0.37576473732465     -0.82153134438044
  C   -0.34638225338523      0.49146903299721     -0.38905907307242
  C   -0.63709667969744      1.66120989893553      0.29790778518970
  C   -2.03021205480028      1.78424501763023      0.47396267331761
  C   -2.91904313721993      0.80411075934915     -0.01534805316523
  H   -3.23596484983607     -1.09318190480408     -1.06948654668894
  H   0.06753591118770      2.40287359082597      0.66575348517996
  H   -2.44338687790661      2.64543588000011      0.99488565844802
  N   -4.36859391175548      1.00185426864999      0.20748845383341
  O   -5.13048280610220      0.14048912013910     -0.22382171293669
  O   -4.72765759614870      2.01102143322504      0.80829315051089
  N   3.11386639323022      1.74391135335268      0.05820629826091
  N   4.03376658896464      1.24853456330390     -0.29870743714367
