14
Coordinates from ORCA-job 4-NO2-C6H3-N2-B3LYPG-aug-cc-pVDZ-scan-d09-49-n400
  C   -2.56771280474303     -0.37862807666933     -0.71427632823860
  C   -1.19121471551119     -0.42057414171078     -0.84297168504504
  C   -0.37466250149767      0.43009847211053     -0.42172503056432
  C   -0.63353128099685      1.60654682827577      0.26657940231386
  C   -2.02139821047658      1.75938727805916      0.45915097853228
  C   -2.93636765491995      0.79745463860852     -0.01782961900663
  H   -3.30531331682327     -1.09434284621837     -1.06484695704177
  H   0.09092144306812      2.33368135574811      0.62463242024314
  H   -2.41000040448522      2.62989944489485      0.98345810126044
  N   -4.37872773058858      1.02584460161906      0.22179823402126
  O   -5.16351734991371      0.17987749416619     -0.19879427932686
  O   -4.70941315733105      2.04313789178718      0.82516097037979
  N   3.18531960800939      1.82193685297469      0.09673188146178
  N   4.13511807620958      1.36908020635442     -0.23766808898930
