14
Coordinates from ORCA-job 4-NO2-C6H3-N2-B3LYPG-aug-cc-pVDZ-scan-d09-49-n400
  C   -2.68860565161662     -0.41611715966685     -0.72630586363453
  C   -1.32170172931803     -0.53329196347931     -0.89726079768807
  C   -0.44276082389344      0.26923697041352     -0.50833277544838
  C   -0.61595174368426      1.46100160779879      0.18207977440006
  C   -1.98608729295905      1.69180402634941      0.41783873108892
  C   -2.96842658342334      0.78115806376126     -0.02460547988155
  H   -3.47535024925260     -1.09105385237071     -1.04976357601207
  H   0.15800971047780      2.14889999538863      0.51385512792744
  H   -2.30830512340854      2.58454104037832      0.94972427595587
  N   -4.38736326123459      1.09064284544358      0.25962269928460
  O   -5.23120395469419      0.28852265492940     -0.13152674124328
  O   -4.64119709969059      2.12687334075671      0.86792863088423
  N   3.30674549708528      2.02039368696525      0.19871636697674
  N   4.32169830561214      1.68078874333201     -0.07257037260998
