14
Coordinates from ORCA-job 4-NO2-C6H3-N2-B3LYPG-aug-cc-pVDZ-scan-d09-49-n400
  C   -2.82156490293922     -0.45275561180955     -0.73701144070514
  C   -1.47380204071407     -0.66452641607855     -0.96053537212733
  C   -0.52665554232979      0.07652855303837     -0.61189951707333
  C   -0.58986447043179      1.28019672810585      0.07692143585770
  C   -1.93047441893609      1.60588268920002      0.36460380237604
  C   -2.99012391603597      0.76375591730202     -0.03281883289309
  H   -3.66507960875156     -1.07302552683729     -1.02489540006547
  H   0.24109723408744      1.91554855503779      0.37435536306805
  H   -2.16897597033265      2.52085428358942      0.90280624128783
  N   -4.37188631608061      1.17186797665658      0.30490464059871
  O   -5.28394696081766      0.42854426416867     -0.04735448017959
  O   -4.52926404641894      2.22562828406644      0.91570683518522
  N   3.37743205618982      2.23993624617825      0.31739924374400
  N   4.45260890351104      2.06496405738199      0.13721748092639
