<?xml version="1.0" encoding="utf-8"  standalone="no"?>
<!DOCTYPE svg PUBLIC "-//W3C//DTD SVG 1.1//EN"
 "http://www.w3.org/Graphics/SVG/1.1/DTD/svg11.dtd">
<svg 
 width="1600" height="900"
 viewBox="0 0 1600 900"
 xmlns="http://www.w3.org/2000/svg"
 xmlns:xlink="http://www.w3.org/1999/xlink"
>

<title>Gnuplot</title>
<desc>Produced by GNUPLOT 5.0 patchlevel 5 </desc>

<g id="gnuplot_canvas">

<rect x="0" y="0" width="1600" height="900" fill="none"/>
<defs>

	<circle id='gpDot' r='0.5' stroke-width='0.5'/>
	<path id='gpPt0' stroke-width='0.111' stroke='currentColor' d='M-1,0 h2 M0,-1 v2'/>
	<path id='gpPt1' stroke-width='0.111' stroke='currentColor' d='M-1,-1 L1,1 M1,-1 L-1,1'/>
	<path id='gpPt2' stroke-width='0.111' stroke='currentColor' d='M-1,0 L1,0 M0,-1 L0,1 M-1,-1 L1,1 M-1,1 L1,-1'/>
	<rect id='gpPt3' stroke-width='0.111' stroke='currentColor' x='-1' y='-1' width='2' height='2'/>
	<rect id='gpPt4' stroke-width='0.111' stroke='currentColor' fill='currentColor' x='-1' y='-1' width='2' height='2'/>
	<circle id='gpPt5' stroke-width='0.111' stroke='currentColor' cx='0' cy='0' r='1'/>
	<use xlink:href='#gpPt5' id='gpPt6' fill='currentColor' stroke='none'/>
	<path id='gpPt7' stroke-width='0.111' stroke='currentColor' d='M0,-1.33 L-1.33,0.67 L1.33,0.67 z'/>
	<use xlink:href='#gpPt7' id='gpPt8' fill='currentColor' stroke='none'/>
	<use xlink:href='#gpPt7' id='gpPt9' stroke='currentColor' transform='rotate(180)'/>
	<use xlink:href='#gpPt9' id='gpPt10' fill='currentColor' stroke='none'/>
	<use xlink:href='#gpPt3' id='gpPt11' stroke='currentColor' transform='rotate(45)'/>
	<use xlink:href='#gpPt11' id='gpPt12' fill='currentColor' stroke='none'/>
	<path id='gpPt13' stroke-width='0.111' stroke='currentColor' d='M0,1.330 L1.265,0.411 L0.782,-1.067 L-0.782,-1.076 L-1.265,0.411 z'/>
	<use xlink:href='#gpPt13' id='gpPt14' fill='currentColor' stroke='none'/>
	<filter id='textbox' filterUnits='objectBoundingBox' x='0' y='0' height='1' width='1'>
	  <feFlood flood-color='white' flood-opacity='1' result='bgnd'/>
	  <feComposite in='SourceGraphic' in2='bgnd' operator='atop'/>
	</filter>
	<filter id='greybox' filterUnits='objectBoundingBox' x='0' y='0' height='1' width='1'>
	  <feFlood flood-color='lightgrey' flood-opacity='1' result='grey'/>
	  <feComposite in='SourceGraphic' in2='grey' operator='atop'/>
	</filter>
</defs>
<g fill="none" color="white" stroke="currentColor" stroke-width="1.00" stroke-linecap="butt" stroke-linejoin="miter">
</g>
<g fill="none" color="black" stroke="currentColor" stroke-width="1.00" stroke-linecap="butt" stroke-linejoin="miter">
	<path stroke='black'  d='M144.5,784.8 L162.5,784.8 M1549.8,784.8 L1531.8,784.8  '/>	<g transform="translate(127.8,792.6)" stroke="none" fill="black" font-family="Helvetica" font-size="24.00"  text-anchor="end">
		<text><tspan font-family="Helvetica" > 0</tspan></text>
	</g>
</g>
<g fill="none" color="black" stroke="currentColor" stroke-width="1.00" stroke-linecap="butt" stroke-linejoin="miter">
	<path stroke='black'  d='M144.5,661.8 L162.5,661.8 M1549.8,661.8 L1531.8,661.8  '/>	<g transform="translate(127.8,669.6)" stroke="none" fill="black" font-family="Helvetica" font-size="24.00"  text-anchor="end">
		<text><tspan font-family="Helvetica" > 20</tspan></text>
	</g>
</g>
<g fill="none" color="black" stroke="currentColor" stroke-width="1.00" stroke-linecap="butt" stroke-linejoin="miter">
	<path stroke='black'  d='M144.5,538.7 L162.5,538.7 M1549.8,538.7 L1531.8,538.7  '/>	<g transform="translate(127.8,546.5)" stroke="none" fill="black" font-family="Helvetica" font-size="24.00"  text-anchor="end">
		<text><tspan font-family="Helvetica" > 40</tspan></text>
	</g>
</g>
<g fill="none" color="black" stroke="currentColor" stroke-width="1.00" stroke-linecap="butt" stroke-linejoin="miter">
	<path stroke='black'  d='M144.5,415.7 L162.5,415.7 M1549.8,415.7 L1531.8,415.7  '/>	<g transform="translate(127.8,423.5)" stroke="none" fill="black" font-family="Helvetica" font-size="24.00"  text-anchor="end">
		<text><tspan font-family="Helvetica" > 60</tspan></text>
	</g>
</g>
<g fill="none" color="black" stroke="currentColor" stroke-width="1.00" stroke-linecap="butt" stroke-linejoin="miter">
	<path stroke='black'  d='M144.5,292.7 L162.5,292.7 M1549.8,292.7 L1531.8,292.7  '/>	<g transform="translate(127.8,300.5)" stroke="none" fill="black" font-family="Helvetica" font-size="24.00"  text-anchor="end">
		<text><tspan font-family="Helvetica" > 80</tspan></text>
	</g>
</g>
<g fill="none" color="black" stroke="currentColor" stroke-width="1.00" stroke-linecap="butt" stroke-linejoin="miter">
	<path stroke='black'  d='M144.5,169.6 L162.5,169.6 M1549.8,169.6 L1531.8,169.6  '/>	<g transform="translate(127.8,177.4)" stroke="none" fill="black" font-family="Helvetica" font-size="24.00"  text-anchor="end">
		<text><tspan font-family="Helvetica" > 100</tspan></text>
	</g>
</g>
<g fill="none" color="black" stroke="currentColor" stroke-width="1.00" stroke-linecap="butt" stroke-linejoin="miter">
	<path stroke='black'  d='M144.5,784.8 L144.5,766.8  '/>	<g transform="translate(144.5,828.6)" stroke="none" fill="black" font-family="Helvetica" font-size="24.00"  text-anchor="middle">
		<text><tspan font-family="Helvetica" > 0</tspan></text>
	</g>
</g>
<g fill="none" color="black" stroke="currentColor" stroke-width="1.00" stroke-linecap="butt" stroke-linejoin="miter">
	<path stroke='black'  d='M378.7,784.8 L378.7,766.8  '/>	<g transform="translate(378.7,828.6)" stroke="none" fill="black" font-family="Helvetica" font-size="24.00"  text-anchor="middle">
		<text><tspan font-family="Helvetica" > 500</tspan></text>
	</g>
</g>
<g fill="none" color="black" stroke="currentColor" stroke-width="1.00" stroke-linecap="butt" stroke-linejoin="miter">
	<path stroke='black'  d='M612.9,784.8 L612.9,766.8  '/>	<g transform="translate(612.9,828.6)" stroke="none" fill="black" font-family="Helvetica" font-size="24.00"  text-anchor="middle">
		<text><tspan font-family="Helvetica" > 1000</tspan></text>
	</g>
</g>
<g fill="none" color="black" stroke="currentColor" stroke-width="1.00" stroke-linecap="butt" stroke-linejoin="miter">
	<path stroke='black'  d='M847.2,784.8 L847.2,766.8  '/>	<g transform="translate(847.2,828.6)" stroke="none" fill="black" font-family="Helvetica" font-size="24.00"  text-anchor="middle">
		<text><tspan font-family="Helvetica" > 1500</tspan></text>
	</g>
</g>
<g fill="none" color="black" stroke="currentColor" stroke-width="1.00" stroke-linecap="butt" stroke-linejoin="miter">
	<path stroke='black'  d='M1081.4,784.8 L1081.4,766.8  '/>	<g transform="translate(1081.4,828.6)" stroke="none" fill="black" font-family="Helvetica" font-size="24.00"  text-anchor="middle">
		<text><tspan font-family="Helvetica" > 2000</tspan></text>
	</g>
</g>
<g fill="none" color="black" stroke="currentColor" stroke-width="1.00" stroke-linecap="butt" stroke-linejoin="miter">
	<path stroke='black'  d='M1315.6,784.8 L1315.6,766.8  '/>	<g transform="translate(1315.6,828.6)" stroke="none" fill="black" font-family="Helvetica" font-size="24.00"  text-anchor="middle">
		<text><tspan font-family="Helvetica" > 2500</tspan></text>
	</g>
</g>
<g fill="none" color="black" stroke="currentColor" stroke-width="1.00" stroke-linecap="butt" stroke-linejoin="miter">
	<path stroke='black'  d='M1549.8,784.8 L1549.8,766.8  '/>	<g transform="translate(1549.8,828.6)" stroke="none" fill="black" font-family="Helvetica" font-size="24.00"  text-anchor="middle">
		<text><tspan font-family="Helvetica" > 3000</tspan></text>
	</g>
</g>
<g fill="none" color="black" stroke="currentColor" stroke-width="1.00" stroke-linecap="butt" stroke-linejoin="miter">
</g>
<g fill="none" color="black" stroke="currentColor" stroke-width="1.00" stroke-linecap="butt" stroke-linejoin="miter">
	<path stroke='black'  d='M144.5,108.1 L144.5,784.8 L1549.8,784.8 L1549.8,108.1 L144.5,108.1 Z  '/>	<g transform="translate(214.3,162.9)" stroke="none" fill="rgb(255,0,0)" font-family="Helvetica" font-size="17.00"  text-anchor="middle">
		<text><tspan font-family="Helvetica" >A</tspan></text>
	</g>
	<g transform="translate(371.7,525.9)" stroke="none" fill="rgb(0,0,0)" font-family="Helvetica" font-size="17.00"  text-anchor="middle">
		<text><tspan font-family="Helvetica" >+[M]</tspan></text>
	</g>
	<g transform="translate(686.4,525.9)" stroke="none" fill="rgb(0,0,0)" font-family="Helvetica" font-size="17.00"  text-anchor="middle">
		<text><tspan font-family="Helvetica" >+[M]</tspan></text>
	</g>
	<g transform="translate(1001.2,525.9)" stroke="none" fill="rgb(0,0,0)" font-family="Helvetica" font-size="17.00"  text-anchor="middle">
		<text><tspan font-family="Helvetica" >+[M]</tspan></text>
	</g>
	<g transform="translate(1316.0,525.9)" stroke="none" fill="rgb(0,0,0)" font-family="Helvetica" font-size="17.00"  text-anchor="middle">
		<text><tspan font-family="Helvetica" >+[M]</tspan></text>
	</g>
</g>
<g fill="none" color="black" stroke="rgb(  0,   0,   0)" stroke-width="0.80" stroke-linecap="butt" stroke-linejoin="miter">
</g>
<g fill="none" color="black" stroke="currentColor" stroke-width="0.80" stroke-linecap="butt" stroke-linejoin="miter">
	<path stroke='black' stroke-dasharray='2.0,3.2'  d='M214.3,784.8 L214.3,108.1  '/></g>
<g fill="none" color="black" stroke="currentColor" stroke-width="0.80" stroke-linecap="butt" stroke-linejoin="miter">
	<path stroke='black' stroke-dasharray='2.0,3.2'  d='M529.0,784.8 L529.0,108.1  '/></g>
<g fill="none" color="black" stroke="black" stroke-width="0.50" stroke-linecap="butt" stroke-linejoin="miter">
</g>
<g fill="none" color="black" stroke="currentColor" stroke-width="0.50" stroke-linecap="butt" stroke-linejoin="miter">
	<g stroke='none' shape-rendering='crispEdges'>
		<polygon fill = 'black' points = '524.6,538.7 517.1,534.4 529.0,538.7 517.1,543.0 524.6,538.7 '/>
	</g>
	<path stroke='black'  d='M524.6,538.7 L517.1,534.4 L529.0,538.7 L517.1,543.0 L524.6,538.7 M214.3,538.7 L524.6,538.7  '/></g>
<g fill="none" color="black" stroke="currentColor" stroke-width="0.50" stroke-linecap="butt" stroke-linejoin="miter">
	<g stroke='none' shape-rendering='crispEdges'>
		<polygon fill = 'black' points = '524.6,538.7 517.1,534.4 529.0,538.7 517.1,543.0 524.6,538.7 '/>
	</g>
	<path stroke='black'  d='M524.6,538.7 L517.1,534.4 L529.0,538.7 L517.1,543.0 L524.6,538.7 M214.3,538.7 L524.6,538.7  '/></g>
<g fill="none" color="black" stroke="black" stroke-width="0.80" stroke-linecap="butt" stroke-linejoin="miter">
</g>
<g fill="none" color="black" stroke="currentColor" stroke-width="0.80" stroke-linecap="butt" stroke-linejoin="miter">
	<path stroke='black' stroke-dasharray='2.0,3.2'  d='M843.8,784.8 L843.8,108.1  '/></g>
<g fill="none" color="black" stroke="black" stroke-width="0.50" stroke-linecap="butt" stroke-linejoin="miter">
</g>
<g fill="none" color="black" stroke="currentColor" stroke-width="0.50" stroke-linecap="butt" stroke-linejoin="miter">
	<g stroke='none' shape-rendering='crispEdges'>
		<polygon fill = 'black' points = '839.4,538.7 831.9,534.4 843.8,538.7 831.9,543.0 839.4,538.7 '/>
	</g>
	<path stroke='black'  d='M839.4,538.7 L831.9,534.4 L843.8,538.7 L831.9,543.0 L839.4,538.7 M529.0,538.7 L839.4,538.7  '/></g>
<g fill="none" color="black" stroke="currentColor" stroke-width="0.50" stroke-linecap="butt" stroke-linejoin="miter">
	<g stroke='none' shape-rendering='crispEdges'>
		<polygon fill = 'black' points = '839.4,538.7 831.9,534.4 843.8,538.7 831.9,543.0 839.4,538.7 '/>
	</g>
	<path stroke='black'  d='M839.4,538.7 L831.9,534.4 L843.8,538.7 L831.9,543.0 L839.4,538.7 M529.0,538.7 L839.4,538.7  '/></g>
<g fill="none" color="black" stroke="black" stroke-width="0.80" stroke-linecap="butt" stroke-linejoin="miter">
</g>
<g fill="none" color="black" stroke="currentColor" stroke-width="0.80" stroke-linecap="butt" stroke-linejoin="miter">
	<path stroke='black' stroke-dasharray='2.0,3.2'  d='M1158.6,784.8 L1158.6,108.1  '/></g>
<g fill="none" color="black" stroke="black" stroke-width="0.50" stroke-linecap="butt" stroke-linejoin="miter">
</g>
<g fill="none" color="black" stroke="currentColor" stroke-width="0.50" stroke-linecap="butt" stroke-linejoin="miter">
	<g stroke='none' shape-rendering='crispEdges'>
		<polygon fill = 'black' points = '1154.2,538.7 1146.7,534.4 1158.6,538.7 1146.7,543.0 1154.2,538.7 '/>
	</g>
	<path stroke='black'  d='M1154.2,538.7 L1146.7,534.4 L1158.6,538.7 L1146.7,543.0 L1154.2,538.7 M843.8,538.7 L1154.2,538.7  '/></g>
<g fill="none" color="black" stroke="currentColor" stroke-width="0.50" stroke-linecap="butt" stroke-linejoin="miter">
	<g stroke='none' shape-rendering='crispEdges'>
		<polygon fill = 'black' points = '1154.2,538.7 1146.7,534.4 1158.6,538.7 1146.7,543.0 1154.2,538.7 '/>
	</g>
	<path stroke='black'  d='M1154.2,538.7 L1146.7,534.4 L1158.6,538.7 L1146.7,543.0 L1154.2,538.7 M843.8,538.7 L1154.2,538.7  '/></g>
<g fill="none" color="black" stroke="black" stroke-width="0.80" stroke-linecap="butt" stroke-linejoin="miter">
</g>
<g fill="none" color="black" stroke="currentColor" stroke-width="0.80" stroke-linecap="butt" stroke-linejoin="miter">
	<path stroke='black' stroke-dasharray='2.0,3.2'  d='M1473.4,784.8 L1473.4,108.1  '/></g>
<g fill="none" color="black" stroke="black" stroke-width="0.50" stroke-linecap="butt" stroke-linejoin="miter">
</g>
<g fill="none" color="black" stroke="currentColor" stroke-width="0.50" stroke-linecap="butt" stroke-linejoin="miter">
	<g stroke='none' shape-rendering='crispEdges'>
		<polygon fill = 'black' points = '1469.0,538.7 1461.5,534.4 1473.4,538.7 1461.5,543.0 1469.0,538.7 '/>
	</g>
	<path stroke='black'  d='M1469.0,538.7 L1461.5,534.4 L1473.4,538.7 L1461.5,543.0 L1469.0,538.7 M1158.6,538.7 L1469.0,538.7  '/></g>
<g fill="none" color="black" stroke="currentColor" stroke-width="0.50" stroke-linecap="butt" stroke-linejoin="miter">
	<g stroke='none' shape-rendering='crispEdges'>
		<polygon fill = 'black' points = '1469.0,538.7 1461.5,534.4 1473.4,538.7 1461.5,543.0 1469.0,538.7 '/>
	</g>
	<path stroke='black'  d='M1469.0,538.7 L1461.5,534.4 L1473.4,538.7 L1461.5,543.0 L1469.0,538.7 M1158.6,538.7 L1469.0,538.7  '/></g>
<g fill="none" color="black" stroke="black" stroke-width="1.00" stroke-linecap="butt" stroke-linejoin="miter">
</g>
<g fill="none" color="black" stroke="currentColor" stroke-width="1.00" stroke-linecap="butt" stroke-linejoin="miter">
	<g transform="translate(34.1,446.5) rotate(270)" stroke="none" fill="black" font-family="Helvetica-Bold" font-size="24.00"  text-anchor="middle">
		<text><tspan font-family="Helvetica-Bold" >Ambulanse, %</tspan></text>
	</g>
</g>
<g fill="none" color="black" stroke="currentColor" stroke-width="1.00" stroke-linecap="butt" stroke-linejoin="miter">
	<g transform="translate(847.1,882.6)" stroke="none" fill="black" font-family="Helvetica-Bold" font-size="24.00"  text-anchor="middle">
		<text><tspan font-family="Helvetica-Bold" >M/Z, a.e.m.</tspan></text>
	</g>
</g>
<g fill="none" color="black" stroke="currentColor" stroke-width="1.00" stroke-linecap="butt" stroke-linejoin="miter">
	<g transform="translate(847.1,61.9)" stroke="none" fill="black" font-family="Helvetica" font-size="24.00"  text-anchor="middle">
		<text><tspan font-family="Helvetica" >MS Spectr</tspan></text>
	</g>
</g>
	<g id="gnuplot_plot_1" ><title>'GR-N9-neg.dat' using 2:4</title>
<g fill="none" color="white" stroke="black" stroke-width="5.00" stroke-linecap="butt" stroke-linejoin="miter">
</g>
<g fill="none" color="black" stroke="currentColor" stroke-width="5.00" stroke-linecap="butt" stroke-linejoin="miter">
	<path stroke='black'  d='M184.8,784.8 L184.8,780.5 M185.3,784.8 L185.3,768.2 M197.4,784.8 L197.4,783.0 M200.3,784.8 L200.3,779.9
		M214.3,784.8 L214.3,169.6 M214.8,784.8 L214.8,773.1 M215.2,784.8 L215.2,753.4 M284.5,784.8 L284.5,731.9
		M285.0,784.8 L285.0,782.3 M285.5,784.8 L285.5,779.9 M473.3,784.8 L473.3,783.0 M522.1,784.8 L522.1,720.8
		M522.5,784.8 L522.5,774.3 M523.0,784.8 L523.0,782.3 M529.1,784.8 L529.1,618.7 M529.5,784.8 L529.5,752.8
		M530.0,784.8 L530.0,762.0 M530.5,784.8 L530.5,781.1 M530.9,784.8 L530.9,783.0 M592.3,784.8 L592.3,739.9
		M592.8,784.8 L592.8,775.6 M593.2,784.8 L593.2,768.2 M593.7,784.8 L593.7,781.1 M597.0,784.8 L597.0,782.3
		M605.0,784.8 L605.0,717.7 M605.4,784.8 L605.4,771.9 M605.9,784.8 L605.9,782.3 M612.9,784.8 L612.9,782.3
		M613.8,784.8 L613.8,779.9 M616.2,784.8 L616.2,615.6 M617.2,784.8 L617.2,752.8 M628.9,784.8 L628.9,778.6
		M843.8,784.8 L843.8,758.3 M844.7,784.8 L844.7,779.9 M953.5,784.8 L953.5,782.3 M1158.5,784.8 L1158.5,773.7
		M1473.3,784.8 L1473.3,775.0  '/></g>
	</g>
<g fill="none" color="white" stroke="black" stroke-width="2.00" stroke-linecap="butt" stroke-linejoin="miter">
</g>
<g fill="none" color="black" stroke="currentColor" stroke-width="2.00" stroke-linecap="butt" stroke-linejoin="miter">
</g>
<g fill="none" color="black" stroke="black" stroke-width="1.00" stroke-linecap="butt" stroke-linejoin="miter">
</g>
<g fill="none" color="black" stroke="currentColor" stroke-width="1.00" stroke-linecap="butt" stroke-linejoin="miter">
	<path stroke='black'  d='M144.5,108.1 L144.5,784.8 L1549.8,784.8 L1549.8,108.1 L144.5,108.1 Z  '/></g>
<g fill="none" color="black" stroke="currentColor" stroke-width="1.00" stroke-linecap="butt" stroke-linejoin="miter">
</g>
</g>
</svg>

