<?xml version="1.0" encoding="utf-8"  standalone="no"?>
<!DOCTYPE svg PUBLIC "-//W3C//DTD SVG 1.1//EN"
 "http://www.w3.org/Graphics/SVG/1.1/DTD/svg11.dtd">
<svg 
 width="1600" height="900"
 viewBox="0 0 1600 900"
 xmlns="http://www.w3.org/2000/svg"
 xmlns:xlink="http://www.w3.org/1999/xlink"
>

<title>Gnuplot</title>
<desc>Produced by GNUPLOT 5.0 patchlevel 5 </desc>

<g id="gnuplot_canvas">

<rect x="0" y="0" width="1600" height="900" fill="none"/>
<defs>

	<circle id='gpDot' r='0.5' stroke-width='0.5'/>
	<path id='gpPt0' stroke-width='0.111' stroke='currentColor' d='M-1,0 h2 M0,-1 v2'/>
	<path id='gpPt1' stroke-width='0.111' stroke='currentColor' d='M-1,-1 L1,1 M1,-1 L-1,1'/>
	<path id='gpPt2' stroke-width='0.111' stroke='currentColor' d='M-1,0 L1,0 M0,-1 L0,1 M-1,-1 L1,1 M-1,1 L1,-1'/>
	<rect id='gpPt3' stroke-width='0.111' stroke='currentColor' x='-1' y='-1' width='2' height='2'/>
	<rect id='gpPt4' stroke-width='0.111' stroke='currentColor' fill='currentColor' x='-1' y='-1' width='2' height='2'/>
	<circle id='gpPt5' stroke-width='0.111' stroke='currentColor' cx='0' cy='0' r='1'/>
	<use xlink:href='#gpPt5' id='gpPt6' fill='currentColor' stroke='none'/>
	<path id='gpPt7' stroke-width='0.111' stroke='currentColor' d='M0,-1.33 L-1.33,0.67 L1.33,0.67 z'/>
	<use xlink:href='#gpPt7' id='gpPt8' fill='currentColor' stroke='none'/>
	<use xlink:href='#gpPt7' id='gpPt9' stroke='currentColor' transform='rotate(180)'/>
	<use xlink:href='#gpPt9' id='gpPt10' fill='currentColor' stroke='none'/>
	<use xlink:href='#gpPt3' id='gpPt11' stroke='currentColor' transform='rotate(45)'/>
	<use xlink:href='#gpPt11' id='gpPt12' fill='currentColor' stroke='none'/>
	<path id='gpPt13' stroke-width='0.111' stroke='currentColor' d='M0,1.330 L1.265,0.411 L0.782,-1.067 L-0.782,-1.076 L-1.265,0.411 z'/>
	<use xlink:href='#gpPt13' id='gpPt14' fill='currentColor' stroke='none'/>
	<filter id='textbox' filterUnits='objectBoundingBox' x='0' y='0' height='1' width='1'>
	  <feFlood flood-color='white' flood-opacity='1' result='bgnd'/>
	  <feComposite in='SourceGraphic' in2='bgnd' operator='atop'/>
	</filter>
	<filter id='greybox' filterUnits='objectBoundingBox' x='0' y='0' height='1' width='1'>
	  <feFlood flood-color='lightgrey' flood-opacity='1' result='grey'/>
	  <feComposite in='SourceGraphic' in2='grey' operator='atop'/>
	</filter>
</defs>
<g fill="none" color="white" stroke="currentColor" stroke-width="1.00" stroke-linecap="butt" stroke-linejoin="miter">
</g>
<g fill="none" color="black" stroke="currentColor" stroke-width="1.00" stroke-linecap="butt" stroke-linejoin="miter">
	<path stroke='black'  d='M144.5,784.8 L162.5,784.8 M1549.8,784.8 L1531.8,784.8  '/>	<g transform="translate(127.8,792.6)" stroke="none" fill="black" font-family="Helvetica" font-size="24.00"  text-anchor="end">
		<text><tspan font-family="Helvetica" > 0</tspan></text>
	</g>
</g>
<g fill="none" color="black" stroke="currentColor" stroke-width="1.00" stroke-linecap="butt" stroke-linejoin="miter">
	<path stroke='black'  d='M144.5,661.8 L162.5,661.8 M1549.8,661.8 L1531.8,661.8  '/>	<g transform="translate(127.8,669.6)" stroke="none" fill="black" font-family="Helvetica" font-size="24.00"  text-anchor="end">
		<text><tspan font-family="Helvetica" > 20</tspan></text>
	</g>
</g>
<g fill="none" color="black" stroke="currentColor" stroke-width="1.00" stroke-linecap="butt" stroke-linejoin="miter">
	<path stroke='black'  d='M144.5,538.7 L162.5,538.7 M1549.8,538.7 L1531.8,538.7  '/>	<g transform="translate(127.8,546.5)" stroke="none" fill="black" font-family="Helvetica" font-size="24.00"  text-anchor="end">
		<text><tspan font-family="Helvetica" > 40</tspan></text>
	</g>
</g>
<g fill="none" color="black" stroke="currentColor" stroke-width="1.00" stroke-linecap="butt" stroke-linejoin="miter">
	<path stroke='black'  d='M144.5,415.7 L162.5,415.7 M1549.8,415.7 L1531.8,415.7  '/>	<g transform="translate(127.8,423.5)" stroke="none" fill="black" font-family="Helvetica" font-size="24.00"  text-anchor="end">
		<text><tspan font-family="Helvetica" > 60</tspan></text>
	</g>
</g>
<g fill="none" color="black" stroke="currentColor" stroke-width="1.00" stroke-linecap="butt" stroke-linejoin="miter">
	<path stroke='black'  d='M144.5,292.7 L162.5,292.7 M1549.8,292.7 L1531.8,292.7  '/>	<g transform="translate(127.8,300.5)" stroke="none" fill="black" font-family="Helvetica" font-size="24.00"  text-anchor="end">
		<text><tspan font-family="Helvetica" > 80</tspan></text>
	</g>
</g>
<g fill="none" color="black" stroke="currentColor" stroke-width="1.00" stroke-linecap="butt" stroke-linejoin="miter">
	<path stroke='black'  d='M144.5,169.6 L162.5,169.6 M1549.8,169.6 L1531.8,169.6  '/>	<g transform="translate(127.8,177.4)" stroke="none" fill="black" font-family="Helvetica" font-size="24.00"  text-anchor="end">
		<text><tspan font-family="Helvetica" > 100</tspan></text>
	</g>
</g>
<g fill="none" color="black" stroke="currentColor" stroke-width="1.00" stroke-linecap="butt" stroke-linejoin="miter">
	<path stroke='black'  d='M144.5,784.8 L144.5,766.8  '/>	<g transform="translate(144.5,828.6)" stroke="none" fill="black" font-family="Helvetica" font-size="24.00"  text-anchor="middle">
		<text><tspan font-family="Helvetica" > 0</tspan></text>
	</g>
</g>
<g fill="none" color="black" stroke="currentColor" stroke-width="1.00" stroke-linecap="butt" stroke-linejoin="miter">
	<path stroke='black'  d='M285.0,784.8 L285.0,766.8  '/>	<g transform="translate(285.0,828.6)" stroke="none" fill="black" font-family="Helvetica" font-size="24.00"  text-anchor="middle">
		<text><tspan font-family="Helvetica" > 50</tspan></text>
	</g>
</g>
<g fill="none" color="black" stroke="currentColor" stroke-width="1.00" stroke-linecap="butt" stroke-linejoin="miter">
	<path stroke='black'  d='M425.6,784.8 L425.6,766.8  '/>	<g transform="translate(425.6,828.6)" stroke="none" fill="black" font-family="Helvetica" font-size="24.00"  text-anchor="middle">
		<text><tspan font-family="Helvetica" > 100</tspan></text>
	</g>
</g>
<g fill="none" color="black" stroke="currentColor" stroke-width="1.00" stroke-linecap="butt" stroke-linejoin="miter">
	<path stroke='black'  d='M566.1,784.8 L566.1,766.8  '/>	<g transform="translate(566.1,828.6)" stroke="none" fill="black" font-family="Helvetica" font-size="24.00"  text-anchor="middle">
		<text><tspan font-family="Helvetica" > 150</tspan></text>
	</g>
</g>
<g fill="none" color="black" stroke="currentColor" stroke-width="1.00" stroke-linecap="butt" stroke-linejoin="miter">
	<path stroke='black'  d='M706.6,784.8 L706.6,766.8  '/>	<g transform="translate(706.6,828.6)" stroke="none" fill="black" font-family="Helvetica" font-size="24.00"  text-anchor="middle">
		<text><tspan font-family="Helvetica" > 200</tspan></text>
	</g>
</g>
<g fill="none" color="black" stroke="currentColor" stroke-width="1.00" stroke-linecap="butt" stroke-linejoin="miter">
	<path stroke='black'  d='M847.2,784.8 L847.2,766.8  '/>	<g transform="translate(847.2,828.6)" stroke="none" fill="black" font-family="Helvetica" font-size="24.00"  text-anchor="middle">
		<text><tspan font-family="Helvetica" > 250</tspan></text>
	</g>
</g>
<g fill="none" color="black" stroke="currentColor" stroke-width="1.00" stroke-linecap="butt" stroke-linejoin="miter">
	<path stroke='black'  d='M987.7,784.8 L987.7,766.8  '/>	<g transform="translate(987.7,828.6)" stroke="none" fill="black" font-family="Helvetica" font-size="24.00"  text-anchor="middle">
		<text><tspan font-family="Helvetica" > 300</tspan></text>
	</g>
</g>
<g fill="none" color="black" stroke="currentColor" stroke-width="1.00" stroke-linecap="butt" stroke-linejoin="miter">
	<path stroke='black'  d='M1128.2,784.8 L1128.2,766.8  '/>	<g transform="translate(1128.2,828.6)" stroke="none" fill="black" font-family="Helvetica" font-size="24.00"  text-anchor="middle">
		<text><tspan font-family="Helvetica" > 350</tspan></text>
	</g>
</g>
<g fill="none" color="black" stroke="currentColor" stroke-width="1.00" stroke-linecap="butt" stroke-linejoin="miter">
	<path stroke='black'  d='M1268.7,784.8 L1268.7,766.8  '/>	<g transform="translate(1268.7,828.6)" stroke="none" fill="black" font-family="Helvetica" font-size="24.00"  text-anchor="middle">
		<text><tspan font-family="Helvetica" > 400</tspan></text>
	</g>
</g>
<g fill="none" color="black" stroke="currentColor" stroke-width="1.00" stroke-linecap="butt" stroke-linejoin="miter">
	<path stroke='black'  d='M1409.3,784.8 L1409.3,766.8  '/>	<g transform="translate(1409.3,828.6)" stroke="none" fill="black" font-family="Helvetica" font-size="24.00"  text-anchor="middle">
		<text><tspan font-family="Helvetica" > 450</tspan></text>
	</g>
</g>
<g fill="none" color="black" stroke="currentColor" stroke-width="1.00" stroke-linecap="butt" stroke-linejoin="miter">
	<path stroke='black'  d='M1549.8,784.8 L1549.8,766.8  '/>	<g transform="translate(1549.8,828.6)" stroke="none" fill="black" font-family="Helvetica" font-size="24.00"  text-anchor="middle">
		<text><tspan font-family="Helvetica" > 500</tspan></text>
	</g>
</g>
<g fill="none" color="black" stroke="currentColor" stroke-width="1.00" stroke-linecap="butt" stroke-linejoin="miter">
</g>
<g fill="none" color="black" stroke="currentColor" stroke-width="1.00" stroke-linecap="butt" stroke-linejoin="miter">
	<path stroke='black'  d='M144.5,108.1 L144.5,784.8 L1549.8,784.8 L1549.8,108.1 L144.5,108.1 Z  '/>	<g transform="translate(484.7,197.4)" stroke="none" fill="rgb(255,0,0)" font-family="Helvetica" font-size="17.00"  text-anchor="start">
		<text><tspan font-family="Helvetica" >DC</tspan></text>
	</g>
	<g transform="translate(406.0,162.9)" stroke="none" fill="rgb(255,0,0)" font-family="Helvetica" font-size="17.00"  text-anchor="end">
		<text><tspan font-family="Helvetica" >AC</tspan></text>
	</g>
	<g transform="translate(445.3,519.7)" stroke="none" fill="rgb(0,0,0)" font-family="Helvetica" font-size="17.00"  text-anchor="middle">
		<text><tspan font-family="Helvetica" >-[N</tspan><tspan font-family="Helvetica"  font-size="13.6" dy="5.10px">2</tspan><tspan font-family="Helvetica"  font-size="17.0" dy="-5.10px">]</tspan></text>
	</g>
	<g transform="translate(327.3,754.7)" stroke="none" fill="rgb(255,0,0)" font-family="Helvetica" font-size="17.00"  text-anchor="middle">
		<text><tspan font-family="Helvetica" >65.0</tspan></text>
	</g>
	<g transform="translate(450.9,752.9)" stroke="none" fill="rgb(255,0,0)" font-family="Helvetica" font-size="17.00"  text-anchor="middle">
		<text><tspan font-family="Helvetica" >109.0</tspan></text>
	</g>
	<g transform="translate(521.3,751.6)" stroke="none" fill="rgb(255,0,0)" font-family="Helvetica" font-size="17.00"  text-anchor="middle">
		<text><tspan font-family="Helvetica" >134.1</tspan></text>
	</g>
	<g transform="translate(822.1,760.9)" stroke="none" fill="rgb(255,0,0)" font-family="Helvetica" font-size="17.00"  text-anchor="middle">
		<text><tspan font-family="Helvetica" >241.1</tspan></text>
	</g>
</g>
<g fill="none" color="black" stroke="rgb(255,   0,   0)" stroke-width="0.80" stroke-linecap="butt" stroke-linejoin="miter">
</g>
<g fill="none" color="black" stroke="currentColor" stroke-width="0.80" stroke-linecap="butt" stroke-linejoin="miter">
	<path stroke='black' stroke-dasharray='2.0,3.2'  d='M484.7,784.8 L484.7,108.1  '/></g>
<g fill="none" color="black" stroke="currentColor" stroke-width="0.80" stroke-linecap="butt" stroke-linejoin="miter">
	<path stroke='black' stroke-dasharray='2.0,3.2'  d='M406.0,784.8 L406.0,108.1  '/></g>
<g fill="none" color="black" stroke="black" stroke-width="0.50" stroke-linecap="butt" stroke-linejoin="miter">
</g>
<g fill="none" color="black" stroke="currentColor" stroke-width="0.50" stroke-linecap="butt" stroke-linejoin="miter">
	<g stroke='none' shape-rendering='crispEdges'>
		<polygon fill = 'black' points = '410.4,538.7 417.9,543.0 406.0,538.7 417.9,534.4 410.4,538.7 '/>
	</g>
	<path stroke='black'  d='M410.4,538.7 L417.9,543.0 L406.0,538.7 L417.9,534.4 L410.4,538.7 M484.7,538.7 L410.4,538.7  '/></g>
<g fill="none" color="black" stroke="black" stroke-width="1.00" stroke-linecap="butt" stroke-linejoin="miter">
</g>
<g fill="none" color="black" stroke="currentColor" stroke-width="1.00" stroke-linecap="butt" stroke-linejoin="miter">
	<g transform="translate(34.1,446.5) rotate(270)" stroke="none" fill="black" font-family="Helvetica-Bold" font-size="24.00"  text-anchor="middle">
		<text><tspan font-family="Helvetica-Bold" >Ambulanse, %</tspan></text>
	</g>
</g>
<g fill="none" color="black" stroke="currentColor" stroke-width="1.00" stroke-linecap="butt" stroke-linejoin="miter">
	<g transform="translate(847.1,882.6)" stroke="none" fill="black" font-family="Helvetica-Bold" font-size="24.00"  text-anchor="middle">
		<text><tspan font-family="Helvetica-Bold" >M/Z, a.e.m.</tspan></text>
	</g>
</g>
<g fill="none" color="black" stroke="currentColor" stroke-width="1.00" stroke-linecap="butt" stroke-linejoin="miter">
	<g transform="translate(847.1,61.9)" stroke="none" fill="black" font-family="Helvetica" font-size="24.00"  text-anchor="middle">
		<text><tspan font-family="Helvetica" >MS Spectr</tspan></text>
	</g>
</g>
	<g id="gnuplot_plot_1" ><title>'GR-N4-pos.dat' using 2:4</title>
<g fill="none" color="white" stroke="black" stroke-width="5.00" stroke-linecap="butt" stroke-linejoin="miter">
</g>
<g fill="none" color="black" stroke="currentColor" stroke-width="5.00" stroke-linecap="butt" stroke-linejoin="miter">
	<path stroke='black'  d='M254.2,784.8 L254.2,784.2 M327.3,784.8 L327.3,761.4 M330.1,784.8 L330.1,783.0 M372.3,784.8 L372.3,783.6
		M406.0,784.8 L406.0,169.6 M408.8,784.8 L408.8,744.8 M411.6,784.8 L411.6,782.3 M417.2,784.8 L417.2,772.5
		M420.0,784.8 L420.0,784.2 M445.4,784.8 L445.4,784.2 M448.1,784.8 L448.1,784.2 M451.0,784.8 L451.0,759.6
		M453.8,784.8 L453.8,783.0 M467.8,784.8 L467.8,784.2 M484.7,784.8 L484.7,204.1 M487.5,784.8 L487.5,742.4
		M490.3,784.8 L490.3,782.3 M495.9,784.8 L495.9,781.7 M521.3,784.8 L521.3,758.3 M524.1,784.8 L524.1,781.7
		M546.5,784.8 L546.5,783.0 M723.9,784.8 L723.9,784.2 M743.4,784.8 L743.4,784.2 M822.1,784.8 L822.1,767.6
		M824.9,784.8 L824.9,782.3 M883.8,784.8 L883.8,783.6 M1105.8,784.8 L1105.8,784.2 M1443.1,784.8 L1443.1,783.0
		M1451.7,784.8 L1451.7,784.2  '/></g>
	</g>
<g fill="none" color="white" stroke="black" stroke-width="2.00" stroke-linecap="butt" stroke-linejoin="miter">
</g>
<g fill="none" color="black" stroke="currentColor" stroke-width="2.00" stroke-linecap="butt" stroke-linejoin="miter">
</g>
<g fill="none" color="black" stroke="black" stroke-width="1.00" stroke-linecap="butt" stroke-linejoin="miter">
</g>
<g fill="none" color="black" stroke="currentColor" stroke-width="1.00" stroke-linecap="butt" stroke-linejoin="miter">
	<path stroke='black'  d='M144.5,108.1 L144.5,784.8 L1549.8,784.8 L1549.8,108.1 L144.5,108.1 Z  '/></g>
<g fill="none" color="black" stroke="currentColor" stroke-width="1.00" stroke-linecap="butt" stroke-linejoin="miter">
</g>
</g>
</svg>

