<?xml version="1.0" encoding="utf-8"  standalone="no"?>
<!DOCTYPE svg PUBLIC "-//W3C//DTD SVG 1.1//EN"
 "http://www.w3.org/Graphics/SVG/1.1/DTD/svg11.dtd">
<svg 
 width="1600" height="900"
 viewBox="0 0 1600 900"
 xmlns="http://www.w3.org/2000/svg"
 xmlns:xlink="http://www.w3.org/1999/xlink"
>

<title>Gnuplot</title>
<desc>Produced by GNUPLOT 5.0 patchlevel 5 </desc>

<g id="gnuplot_canvas">

<rect x="0" y="0" width="1600" height="900" fill="none"/>
<defs>

	<circle id='gpDot' r='0.5' stroke-width='0.5'/>
	<path id='gpPt0' stroke-width='0.111' stroke='currentColor' d='M-1,0 h2 M0,-1 v2'/>
	<path id='gpPt1' stroke-width='0.111' stroke='currentColor' d='M-1,-1 L1,1 M1,-1 L-1,1'/>
	<path id='gpPt2' stroke-width='0.111' stroke='currentColor' d='M-1,0 L1,0 M0,-1 L0,1 M-1,-1 L1,1 M-1,1 L1,-1'/>
	<rect id='gpPt3' stroke-width='0.111' stroke='currentColor' x='-1' y='-1' width='2' height='2'/>
	<rect id='gpPt4' stroke-width='0.111' stroke='currentColor' fill='currentColor' x='-1' y='-1' width='2' height='2'/>
	<circle id='gpPt5' stroke-width='0.111' stroke='currentColor' cx='0' cy='0' r='1'/>
	<use xlink:href='#gpPt5' id='gpPt6' fill='currentColor' stroke='none'/>
	<path id='gpPt7' stroke-width='0.111' stroke='currentColor' d='M0,-1.33 L-1.33,0.67 L1.33,0.67 z'/>
	<use xlink:href='#gpPt7' id='gpPt8' fill='currentColor' stroke='none'/>
	<use xlink:href='#gpPt7' id='gpPt9' stroke='currentColor' transform='rotate(180)'/>
	<use xlink:href='#gpPt9' id='gpPt10' fill='currentColor' stroke='none'/>
	<use xlink:href='#gpPt3' id='gpPt11' stroke='currentColor' transform='rotate(45)'/>
	<use xlink:href='#gpPt11' id='gpPt12' fill='currentColor' stroke='none'/>
	<path id='gpPt13' stroke-width='0.111' stroke='currentColor' d='M0,1.330 L1.265,0.411 L0.782,-1.067 L-0.782,-1.076 L-1.265,0.411 z'/>
	<use xlink:href='#gpPt13' id='gpPt14' fill='currentColor' stroke='none'/>
	<filter id='textbox' filterUnits='objectBoundingBox' x='0' y='0' height='1' width='1'>
	  <feFlood flood-color='white' flood-opacity='1' result='bgnd'/>
	  <feComposite in='SourceGraphic' in2='bgnd' operator='atop'/>
	</filter>
	<filter id='greybox' filterUnits='objectBoundingBox' x='0' y='0' height='1' width='1'>
	  <feFlood flood-color='lightgrey' flood-opacity='1' result='grey'/>
	  <feComposite in='SourceGraphic' in2='grey' operator='atop'/>
	</filter>
</defs>
<g fill="none" color="white" stroke="currentColor" stroke-width="1.00" stroke-linecap="butt" stroke-linejoin="miter">
</g>
<g fill="none" color="black" stroke="currentColor" stroke-width="1.00" stroke-linecap="butt" stroke-linejoin="miter">
	<path stroke='black'  d='M144.5,784.8 L162.5,784.8 M1549.8,784.8 L1531.8,784.8  '/>	<g transform="translate(127.8,792.6)" stroke="none" fill="black" font-family="Helvetica" font-size="24.00"  text-anchor="end">
		<text><tspan font-family="Helvetica" > 0</tspan></text>
	</g>
</g>
<g fill="none" color="black" stroke="currentColor" stroke-width="1.00" stroke-linecap="butt" stroke-linejoin="miter">
	<path stroke='black'  d='M144.5,661.8 L162.5,661.8 M1549.8,661.8 L1531.8,661.8  '/>	<g transform="translate(127.8,669.6)" stroke="none" fill="black" font-family="Helvetica" font-size="24.00"  text-anchor="end">
		<text><tspan font-family="Helvetica" > 20</tspan></text>
	</g>
</g>
<g fill="none" color="black" stroke="currentColor" stroke-width="1.00" stroke-linecap="butt" stroke-linejoin="miter">
	<path stroke='black'  d='M144.5,538.7 L162.5,538.7 M1549.8,538.7 L1531.8,538.7  '/>	<g transform="translate(127.8,546.5)" stroke="none" fill="black" font-family="Helvetica" font-size="24.00"  text-anchor="end">
		<text><tspan font-family="Helvetica" > 40</tspan></text>
	</g>
</g>
<g fill="none" color="black" stroke="currentColor" stroke-width="1.00" stroke-linecap="butt" stroke-linejoin="miter">
	<path stroke='black'  d='M144.5,415.7 L162.5,415.7 M1549.8,415.7 L1531.8,415.7  '/>	<g transform="translate(127.8,423.5)" stroke="none" fill="black" font-family="Helvetica" font-size="24.00"  text-anchor="end">
		<text><tspan font-family="Helvetica" > 60</tspan></text>
	</g>
</g>
<g fill="none" color="black" stroke="currentColor" stroke-width="1.00" stroke-linecap="butt" stroke-linejoin="miter">
	<path stroke='black'  d='M144.5,292.7 L162.5,292.7 M1549.8,292.7 L1531.8,292.7  '/>	<g transform="translate(127.8,300.5)" stroke="none" fill="black" font-family="Helvetica" font-size="24.00"  text-anchor="end">
		<text><tspan font-family="Helvetica" > 80</tspan></text>
	</g>
</g>
<g fill="none" color="black" stroke="currentColor" stroke-width="1.00" stroke-linecap="butt" stroke-linejoin="miter">
	<path stroke='black'  d='M144.5,169.6 L162.5,169.6 M1549.8,169.6 L1531.8,169.6  '/>	<g transform="translate(127.8,177.4)" stroke="none" fill="black" font-family="Helvetica" font-size="24.00"  text-anchor="end">
		<text><tspan font-family="Helvetica" > 100</tspan></text>
	</g>
</g>
<g fill="none" color="black" stroke="currentColor" stroke-width="1.00" stroke-linecap="butt" stroke-linejoin="miter">
	<path stroke='black'  d='M144.5,784.8 L144.5,766.8  '/>	<g transform="translate(144.5,828.6)" stroke="none" fill="black" font-family="Helvetica" font-size="24.00"  text-anchor="middle">
		<text><tspan font-family="Helvetica" > 0</tspan></text>
	</g>
</g>
<g fill="none" color="black" stroke="currentColor" stroke-width="1.00" stroke-linecap="butt" stroke-linejoin="miter">
	<path stroke='black'  d='M300.6,784.8 L300.6,766.8  '/>	<g transform="translate(300.6,828.6)" stroke="none" fill="black" font-family="Helvetica" font-size="24.00"  text-anchor="middle">
		<text><tspan font-family="Helvetica" > 200</tspan></text>
	</g>
</g>
<g fill="none" color="black" stroke="currentColor" stroke-width="1.00" stroke-linecap="butt" stroke-linejoin="miter">
	<path stroke='black'  d='M456.8,784.8 L456.8,766.8  '/>	<g transform="translate(456.8,828.6)" stroke="none" fill="black" font-family="Helvetica" font-size="24.00"  text-anchor="middle">
		<text><tspan font-family="Helvetica" > 400</tspan></text>
	</g>
</g>
<g fill="none" color="black" stroke="currentColor" stroke-width="1.00" stroke-linecap="butt" stroke-linejoin="miter">
	<path stroke='black'  d='M612.9,784.8 L612.9,766.8  '/>	<g transform="translate(612.9,828.6)" stroke="none" fill="black" font-family="Helvetica" font-size="24.00"  text-anchor="middle">
		<text><tspan font-family="Helvetica" > 600</tspan></text>
	</g>
</g>
<g fill="none" color="black" stroke="currentColor" stroke-width="1.00" stroke-linecap="butt" stroke-linejoin="miter">
	<path stroke='black'  d='M769.1,784.8 L769.1,766.8  '/>	<g transform="translate(769.1,828.6)" stroke="none" fill="black" font-family="Helvetica" font-size="24.00"  text-anchor="middle">
		<text><tspan font-family="Helvetica" > 800</tspan></text>
	</g>
</g>
<g fill="none" color="black" stroke="currentColor" stroke-width="1.00" stroke-linecap="butt" stroke-linejoin="miter">
	<path stroke='black'  d='M925.2,784.8 L925.2,766.8  '/>	<g transform="translate(925.2,828.6)" stroke="none" fill="black" font-family="Helvetica" font-size="24.00"  text-anchor="middle">
		<text><tspan font-family="Helvetica" > 1000</tspan></text>
	</g>
</g>
<g fill="none" color="black" stroke="currentColor" stroke-width="1.00" stroke-linecap="butt" stroke-linejoin="miter">
	<path stroke='black'  d='M1081.4,784.8 L1081.4,766.8  '/>	<g transform="translate(1081.4,828.6)" stroke="none" fill="black" font-family="Helvetica" font-size="24.00"  text-anchor="middle">
		<text><tspan font-family="Helvetica" > 1200</tspan></text>
	</g>
</g>
<g fill="none" color="black" stroke="currentColor" stroke-width="1.00" stroke-linecap="butt" stroke-linejoin="miter">
	<path stroke='black'  d='M1237.5,784.8 L1237.5,766.8  '/>	<g transform="translate(1237.5,828.6)" stroke="none" fill="black" font-family="Helvetica" font-size="24.00"  text-anchor="middle">
		<text><tspan font-family="Helvetica" > 1400</tspan></text>
	</g>
</g>
<g fill="none" color="black" stroke="currentColor" stroke-width="1.00" stroke-linecap="butt" stroke-linejoin="miter">
	<path stroke='black'  d='M1393.7,784.8 L1393.7,766.8  '/>	<g transform="translate(1393.7,828.6)" stroke="none" fill="black" font-family="Helvetica" font-size="24.00"  text-anchor="middle">
		<text><tspan font-family="Helvetica" > 1600</tspan></text>
	</g>
</g>
<g fill="none" color="black" stroke="currentColor" stroke-width="1.00" stroke-linecap="butt" stroke-linejoin="miter">
	<path stroke='black'  d='M1549.8,784.8 L1549.8,766.8  '/>	<g transform="translate(1549.8,828.6)" stroke="none" fill="black" font-family="Helvetica" font-size="24.00"  text-anchor="middle">
		<text><tspan font-family="Helvetica" > 1800</tspan></text>
	</g>
</g>
<g fill="none" color="black" stroke="currentColor" stroke-width="1.00" stroke-linecap="butt" stroke-linejoin="miter">
</g>
<g fill="none" color="black" stroke="currentColor" stroke-width="1.00" stroke-linecap="butt" stroke-linejoin="miter">
	<path stroke='black'  d='M144.5,108.1 L144.5,784.8 L1549.8,784.8 L1549.8,108.1 L144.5,108.1 Z  '/>	<g transform="translate(260.8,162.9)" stroke="none" fill="rgb(255,0,0)" font-family="Helvetica" font-size="17.00"  text-anchor="middle">
		<text><tspan font-family="Helvetica" >A</tspan></text>
	</g>
	<g transform="translate(454.5,525.9)" stroke="none" fill="rgb(0,0,0)" font-family="Helvetica" font-size="17.00"  text-anchor="middle">
		<text><tspan font-family="Helvetica" >+[M]</tspan></text>
	</g>
	<g transform="translate(841.8,525.9)" stroke="none" fill="rgb(0,0,0)" font-family="Helvetica" font-size="17.00"  text-anchor="middle">
		<text><tspan font-family="Helvetica" >+[M]</tspan></text>
	</g>
	<g transform="translate(1229.1,525.9)" stroke="none" fill="rgb(0,0,0)" font-family="Helvetica" font-size="17.00"  text-anchor="middle">
		<text><tspan font-family="Helvetica" >+[M]</tspan></text>
	</g>
</g>
<g fill="none" color="black" stroke="rgb(  0,   0,   0)" stroke-width="0.80" stroke-linecap="butt" stroke-linejoin="miter">
</g>
<g fill="none" color="black" stroke="currentColor" stroke-width="0.80" stroke-linecap="butt" stroke-linejoin="miter">
	<path stroke='black' stroke-dasharray='2.0,3.2'  d='M260.8,784.8 L260.8,108.1  '/></g>
<g fill="none" color="black" stroke="currentColor" stroke-width="0.80" stroke-linecap="butt" stroke-linejoin="miter">
	<path stroke='black' stroke-dasharray='2.0,3.2'  d='M648.1,784.8 L648.1,108.1  '/></g>
<g fill="none" color="black" stroke="black" stroke-width="0.50" stroke-linecap="butt" stroke-linejoin="miter">
</g>
<g fill="none" color="black" stroke="currentColor" stroke-width="0.50" stroke-linecap="butt" stroke-linejoin="miter">
	<g stroke='none' shape-rendering='crispEdges'>
		<polygon fill = 'black' points = '643.7,538.7 636.2,534.4 648.1,538.7 636.2,543.0 643.7,538.7 '/>
	</g>
	<path stroke='black'  d='M643.7,538.7 L636.2,534.4 L648.1,538.7 L636.2,543.0 L643.7,538.7 M260.8,538.7 L643.7,538.7  '/></g>
<g fill="none" color="black" stroke="currentColor" stroke-width="0.50" stroke-linecap="butt" stroke-linejoin="miter">
	<g stroke='none' shape-rendering='crispEdges'>
		<polygon fill = 'black' points = '643.7,538.7 636.2,534.4 648.1,538.7 636.2,543.0 643.7,538.7 '/>
	</g>
	<path stroke='black'  d='M643.7,538.7 L636.2,534.4 L648.1,538.7 L636.2,543.0 L643.7,538.7 M260.8,538.7 L643.7,538.7  '/></g>
<g fill="none" color="black" stroke="black" stroke-width="0.80" stroke-linecap="butt" stroke-linejoin="miter">
</g>
<g fill="none" color="black" stroke="currentColor" stroke-width="0.80" stroke-linecap="butt" stroke-linejoin="miter">
	<path stroke='black' stroke-dasharray='2.0,3.2'  d='M1035.4,784.8 L1035.4,108.1  '/></g>
<g fill="none" color="black" stroke="black" stroke-width="0.50" stroke-linecap="butt" stroke-linejoin="miter">
</g>
<g fill="none" color="black" stroke="currentColor" stroke-width="0.50" stroke-linecap="butt" stroke-linejoin="miter">
	<g stroke='none' shape-rendering='crispEdges'>
		<polygon fill = 'black' points = '1031.0,538.7 1023.5,534.4 1035.4,538.7 1023.5,543.0 1031.0,538.7 '/>
	</g>
	<path stroke='black'  d='M1031.0,538.7 L1023.5,534.4 L1035.4,538.7 L1023.5,543.0 L1031.0,538.7 M648.1,538.7 L1031.0,538.7  '/></g>
<g fill="none" color="black" stroke="currentColor" stroke-width="0.50" stroke-linecap="butt" stroke-linejoin="miter">
	<g stroke='none' shape-rendering='crispEdges'>
		<polygon fill = 'black' points = '1031.0,538.7 1023.5,534.4 1035.4,538.7 1023.5,543.0 1031.0,538.7 '/>
	</g>
	<path stroke='black'  d='M1031.0,538.7 L1023.5,534.4 L1035.4,538.7 L1023.5,543.0 L1031.0,538.7 M648.1,538.7 L1031.0,538.7  '/></g>
<g fill="none" color="black" stroke="black" stroke-width="0.80" stroke-linecap="butt" stroke-linejoin="miter">
</g>
<g fill="none" color="black" stroke="currentColor" stroke-width="0.80" stroke-linecap="butt" stroke-linejoin="miter">
	<path stroke='black' stroke-dasharray='2.0,3.2'  d='M1422.8,784.8 L1422.8,108.1  '/></g>
<g fill="none" color="black" stroke="black" stroke-width="0.50" stroke-linecap="butt" stroke-linejoin="miter">
</g>
<g fill="none" color="black" stroke="currentColor" stroke-width="0.50" stroke-linecap="butt" stroke-linejoin="miter">
	<g stroke='none' shape-rendering='crispEdges'>
		<polygon fill = 'black' points = '1418.4,538.7 1410.9,534.4 1422.8,538.7 1410.9,543.0 1418.4,538.7 '/>
	</g>
	<path stroke='black'  d='M1418.4,538.7 L1410.9,534.4 L1422.8,538.7 L1410.9,543.0 L1418.4,538.7 M1035.4,538.7 L1418.4,538.7  '/></g>
<g fill="none" color="black" stroke="currentColor" stroke-width="0.50" stroke-linecap="butt" stroke-linejoin="miter">
	<g stroke='none' shape-rendering='crispEdges'>
		<polygon fill = 'black' points = '1418.4,538.7 1410.9,534.4 1422.8,538.7 1410.9,543.0 1418.4,538.7 '/>
	</g>
	<path stroke='black'  d='M1418.4,538.7 L1410.9,534.4 L1422.8,538.7 L1410.9,543.0 L1418.4,538.7 M1035.4,538.7 L1418.4,538.7  '/></g>
<g fill="none" color="black" stroke="black" stroke-width="1.00" stroke-linecap="butt" stroke-linejoin="miter">
</g>
<g fill="none" color="black" stroke="currentColor" stroke-width="1.00" stroke-linecap="butt" stroke-linejoin="miter">
	<g transform="translate(34.1,446.5) rotate(270)" stroke="none" fill="black" font-family="Helvetica-Bold" font-size="24.00"  text-anchor="middle">
		<text><tspan font-family="Helvetica-Bold" >Ambulanse, %</tspan></text>
	</g>
</g>
<g fill="none" color="black" stroke="currentColor" stroke-width="1.00" stroke-linecap="butt" stroke-linejoin="miter">
	<g transform="translate(847.1,882.6)" stroke="none" fill="black" font-family="Helvetica-Bold" font-size="24.00"  text-anchor="middle">
		<text><tspan font-family="Helvetica-Bold" >M/Z, a.e.m.</tspan></text>
	</g>
</g>
<g fill="none" color="black" stroke="currentColor" stroke-width="1.00" stroke-linecap="butt" stroke-linejoin="miter">
	<g transform="translate(847.1,61.9)" stroke="none" fill="black" font-family="Helvetica" font-size="24.00"  text-anchor="middle">
		<text><tspan font-family="Helvetica" >MS Spectr</tspan></text>
	</g>
</g>
	<g id="gnuplot_plot_1" ><title>'GR-N8-neg.dat' using 2:4</title>
<g fill="none" color="white" stroke="black" stroke-width="5.00" stroke-linecap="butt" stroke-linejoin="miter">
</g>
<g fill="none" color="black" stroke="currentColor" stroke-width="5.00" stroke-linecap="butt" stroke-linejoin="miter">
	<path stroke='black'  d='M211.7,784.8 L211.7,783.6 M212.5,784.8 L212.5,780.5 M214.0,784.8 L214.0,784.2 M237.5,784.8 L237.5,783.6
		M260.8,784.8 L260.8,169.6 M261.6,784.8 L261.6,773.1 M262.4,784.8 L262.4,755.9 M377.9,784.8 L377.9,778.0
		M391.2,784.8 L391.2,783.6 M395.1,784.8 L395.1,779.3 M407.5,784.8 L407.5,780.5 M426.2,784.8 L426.2,784.2
		M648.1,784.8 L648.1,722.7 M648.9,784.8 L648.9,765.7 M649.7,784.8 L649.7,775.6 M650.5,784.8 L650.5,782.3
		M683.3,784.8 L683.3,765.1 M684.0,784.8 L684.0,779.3 M684.8,784.8 L684.8,781.7 M685.6,784.8 L685.6,783.6
		M773.8,784.8 L773.8,765.7 M774.6,784.8 L774.6,781.1 M890.9,784.8 L890.9,771.9 M891.6,784.8 L891.6,782.3
		M892.4,784.8 L892.4,780.5 M893.2,784.8 L893.2,783.6 M911.9,784.8 L911.9,754.0 M912.7,784.8 L912.7,777.4
		M913.5,784.8 L913.5,783.0 M925.2,784.8 L925.2,783.6 M926.7,784.8 L926.7,783.6 M930.7,784.8 L930.7,733.7
		M931.7,784.8 L931.7,774.3 M933.0,784.8 L933.0,783.6 M951.8,784.8 L951.8,783.0 M1035.4,784.8 L1035.4,768.8
		M1036.3,784.8 L1036.3,780.5 M1037.8,784.8 L1037.8,783.6 M1070.6,784.8 L1070.6,783.6 M1422.7,784.8 L1422.7,783.6
		 '/></g>
	</g>
<g fill="none" color="white" stroke="black" stroke-width="2.00" stroke-linecap="butt" stroke-linejoin="miter">
</g>
<g fill="none" color="black" stroke="currentColor" stroke-width="2.00" stroke-linecap="butt" stroke-linejoin="miter">
</g>
<g fill="none" color="black" stroke="black" stroke-width="1.00" stroke-linecap="butt" stroke-linejoin="miter">
</g>
<g fill="none" color="black" stroke="currentColor" stroke-width="1.00" stroke-linecap="butt" stroke-linejoin="miter">
	<path stroke='black'  d='M144.5,108.1 L144.5,784.8 L1549.8,784.8 L1549.8,108.1 L144.5,108.1 Z  '/></g>
<g fill="none" color="black" stroke="currentColor" stroke-width="1.00" stroke-linecap="butt" stroke-linejoin="miter">
</g>
</g>
</svg>

