29
Coordinates from ORCA-job 1g-Schema6-R11-K+-B3LYPG-6-31G_dp-scan-d49-09-n400
  C   0.90582596269190      2.57093236828746      0.89826111634600
  C   1.88859422446343      1.59887816559982      0.80162392259043
  C   1.56708267575593      0.14192687197492      0.62818836548821
  C   0.14093072272571     -0.17440944207876      0.57213674504233
  C   -0.80174278551216      0.81512478012407      0.67042492460054
  C   -0.42831916392250      2.18117973046004      0.83245421546522
  H   1.16957383379891      3.61586088641227      1.02420430484578
  H   -1.21490089105761      2.92443938252019      0.90586405868037
  H   -0.21101459455960     -1.19505694319747      0.45124268629357
  N   2.56306173713170     -1.74763202465322      0.42813438154368
  N   2.33648317690292     -0.44652499883735      0.57352941471961
  C   3.68647845780232      0.27889506205789      0.67690295928644
  C   4.95906250799237     -0.22128997144072      0.63678010546541
  C   3.32849064824974      1.61692113979637      0.82577342921443
  C   5.96558164607656      0.75514757082436      0.76280284754927
  H   5.17190253249164     -1.27647840736207      0.51692672600396
  C   4.33682150357509      2.57691024342415      0.95031590783656
  H   1.65112914518592     -2.21680960019463      0.35763237468887
  C   5.66282522476590      2.11880926689170      0.91565030100740
  H   7.01179679331124      0.46786910176273      0.74405517914781
  H   4.12430682276263      3.63280967426546      1.06996195663104
  C   -2.24355777847756      0.38671500841140      0.59971272942296
  O   -2.57968915457717     -0.76671659036664      0.46415118768281
  O   -3.08173403517694      1.42847099280802      0.70527552768766
  H   -3.99238997766656      1.08846473390516      0.65236827434591
  C   6.82418562243399      3.06342322521821      1.03975811581797
  O   7.97934682011801      2.70700493952172      1.01379798570138
  O   6.42575959893030      4.34158827126724      1.18240313075569
  H   7.22660872378400      4.88884656259749      1.25676712613864
