35
Coordinates from ORCA-job p-CH3O-Ph-N2-X-OTs-B3LYPG-6-31G_dp-scan-d09-49-n400
  C   -0.20702339210147      0.04636984911251     -1.48591296822417
  C   0.75134135891782      1.03210585405423     -1.60137028746035
  C   0.32055496220007      2.30958964781588     -2.02469175614421
  C   -1.02168846148712      2.59381124883500     -2.32946339820117
  C   -1.96323671661959      1.58550201763498     -2.22215427998061
  C   -1.55818446761415      0.30213656248540     -1.79847055096547
  H   0.06716287327115     -0.95170743231064     -1.16380080278389
  H   1.80367189494567      0.84655984809156     -1.38156550937602
  H   -1.30809590343934      3.58857348027799     -2.65255985893102
  H   -2.99643394088066      1.79596175973113     -2.46600378713840
  N   1.22531100154500      3.33742016630203     -2.13984997442629
  N   2.02391775818921      4.12671015610972     -2.20092251339908
  C   5.65236039655972      0.93368198116333     -4.54602914152497
  C   6.77238337877979      0.55068028782790     -5.28617370882592
  C   8.03976921260788      0.57773056974238     -4.71259280268406
  C   8.13365854200638      1.00377658009302     -3.37935299212445
  C   7.04134954038943      1.39446248482413     -2.59858235078872
  C   5.73981336656355      1.35363735671562     -3.21704400621041
  H   4.66849402503114      0.91015103113694     -5.00385776975267
  H   6.64751019389018      0.23004788048385     -6.31756732838946
  H   9.11822318383772      1.03517362035641     -2.91545643728788
  H   7.41441935210390      1.68429750043866     -1.58200509938288
  S   4.04240737056550      1.77874152111903     -2.54295707619371
  O   4.15033603467604      3.23946143484639     -2.17973225016898
  O   3.85763628541350      0.88831255552134     -1.36103758641881
  O   2.94130171904656      1.57239738630812     -3.57917747611082
  C   9.27127275898876      0.15818370592432     -5.47833078424536
  H   9.68243099640468     -0.78039698802330     -5.08753370890893
  H   9.04912973184966      0.00559800115663     -6.53829294657342
  H   10.06467331742589      0.91083337288354     -5.40431806091877
  O   -2.39104628881911     -0.74278891133792     -1.66026452193898
  C   -3.77700759062616     -0.58443745036107     -1.96660936273113
  H   -4.23006715199276     -1.55921131168894     -1.78758856300608
  H   -3.92105698937156     -0.30223823418938     -3.01531214883197
  H   -4.24498835225763      0.16047246691930     -1.31371818995077
