35
Coordinates from ORCA-job p-CH3O-Ph-N2-X-OTs-B3LYPG-6-31G_dp-scan-d09-49-n400
  C   -0.14728914758083      0.08197693589924     -1.41790378858375
  C   0.80042154516152      1.06383812089966     -1.62088675110063
  C   0.34982866804731      2.31082543434985     -2.10998311648268
  C   -1.00264870793185      2.56835908243101     -2.39249259174993
  C   -1.93394272481883      1.56375207608539     -2.19659404242251
  C   -1.50846499894052      0.31082417657695     -1.70711296622611
  H   0.14297911600358     -0.89299390299623     -1.04351931510744
  H   1.85885855964725      0.89752007917355     -1.41901816845579
  H   -1.30522766718655      3.54013417817402     -2.76664907389735
  H   -2.97520435172115      1.75391670449312     -2.42261131990020
  N   1.24275847863994      3.33515417871939     -2.31407278724341
  N   2.03330943290456      4.12406453588974     -2.44767464067979
  C   5.66729522867244      1.13167028694381     -4.83164563261156
  C   6.88179798340041      0.78579816735612     -5.42551808009117
  C   8.03694755718477      0.60000419397105     -4.65601810932663
  C   7.94453619265592      0.76962277622937     -3.26594786540611
  C   6.73851462630593      1.11197808479597     -2.65929135346463
  C   5.59963052212220      1.29357680282423     -3.44886020109704
  H   4.76820617981530      1.26736580326659     -5.42286676094869
  H   6.93191452040408      0.65498759928005     -6.50411604061709
  H   8.83075819184609      0.62833242338147     -2.65142603236390
  H   6.67694132531918      1.22859492019198     -1.58171044219884
  S   4.04681812307157      1.77911359642264     -2.68872167785250
  O   4.16799416119562      3.26034224536851     -2.41961067662062
  O   3.92859293647250      0.98318344610370     -1.43326330156951
  O   2.96787443636976      1.49205920650317     -3.67761778842759
  C   9.34445917386647      0.19957713936834     -5.29831525222719
  H   9.51990462687243     -0.87971959217204     -5.20302204253425
  H   9.35666846696453      0.44014912932404     -6.36563545145018
  H   10.19323484521167      0.70630415292412     -4.82835014025139
  O   -2.32991174811682     -0.72800534112301     -1.48213584295819
  C   -3.72438007958218     -0.59617345927157     -1.76143028786317
  H   -4.16599184130199     -1.56042572179563     -1.51099985743132
  H   -3.89660052386650     -0.37941979862759     -2.82136616898981
  H   -4.18028310710801      0.18531233903907     -1.14391243184882
