23
Coordinates from ORCA-job p-NO2-Ph-N2-OTf-B3LYPG-6-31G_dp-scan-d09-49-n400
  C   -2.31201276611881     -0.83523354114086     -5.63933455795422
  C   -1.03009668293769     -0.55582568999826     -5.18639097146254
  C   -0.84492002189444      0.66223923204940     -4.51347410615478
  C   -1.85674391349109      1.60271099802110     -4.27985312476307
  C   -3.12759960181681      1.30562554631190     -4.75385829085023
  C   -3.32768956390029      0.09484254932782     -5.41564629501315
  H   -2.53028417294064     -1.75068274954883     -6.17446510505789
  H   -0.17443008638071     -1.20268593684074     -5.35903286894325
  H   -1.64811709443382      2.52988357025700     -3.75939947175544
  H   -3.95825406883193      1.98623517855658     -4.61868936286510
  N   -4.69294532879323     -0.21685402976545     -5.90546707043621
  O   -5.56147426196532      0.62766623398723     -5.70923742817311
  O   -4.85189585207931     -1.29603869738091     -6.46433511290089
  N   0.41991408259160      0.92616138096256     -4.00343250474204
  N   1.44420622362731      1.02535376023813     -3.58138925441256
  S   2.02726958009179      0.14911096608482     -6.72634601384571
  C   3.64298072463654      1.04312749299932     -6.53147848899575
  O   2.07035907629912     -0.46219399727186     -8.05713117131363
  O   1.01669975628289      1.23373528176427     -6.53067533067931
  O   2.03270203072136     -0.79465507192517     -5.56362616346396
  F   4.67262842916259      0.19173780669564     -6.57686981258699
  F   3.79944029117923      1.96154790099897     -7.49128298013038
  F   3.66956322099164      1.67529181561736     -5.33678451349975
