23
Coordinates from ORCA-job p-NO2-Ph-N2-OTf-B3LYPG-6-31G_dp-scan-d09-49-n400
  C   -2.32769771403532     -0.80795312365191     -5.66545212445949
  C   -1.04863628096339     -0.53878338052874     -5.19809599934527
  C   -0.86870973322694      0.65688668184515     -4.48402332123615
  C   -1.88370698344160      1.58639891135419     -4.22579537653409
  C   -3.15165179437939      1.30301156156883     -4.71627249123927
  C   -3.34548978894271      0.11345242014716     -5.41752744569816
  H   -2.54202927920268     -1.70713992378622     -6.22902702596091
  H   -0.19588310614911     -1.18566720757661     -5.37922086970824
  H   -1.67930015170358      2.49607806883529     -3.67358736105333
  H   -3.98477999158287      1.97687828318875     -4.56389568681526
  N   -4.70812815593126     -0.18551093408270     -5.92370218626063
  O   -5.57899960974166      0.65127948363555     -5.70633701561550
  O   -4.86230994749372     -1.24755424341410     -6.51562117149637
  N   0.39964648120831      0.90200824580378     -3.97679986800712
  N   1.46137370330142      0.93682101161443     -3.63810740176232
  S   2.08354175031124      0.10014156804770     -6.70079686038769
  C   3.65413809106130      1.08151726445880     -6.56699466779441
  O   2.17105393696662     -0.61936662162520     -7.97407735833478
  O   1.01966220325243      1.13831789463215     -6.59025110731847
  O   2.12893560861344     -0.76001994599601     -5.46929162542738
  F   4.72285879963595      0.27853386699089     -6.55350593441106
  F   3.76859876671574      1.93601300509261     -7.58965189617305
  F   3.64681319572779      1.79575711344620     -5.42016520496105
