23
Coordinates from ORCA-job p-NO2-Ph-N2-OTf-B3LYPG-6-31G_dp-scan-d09-49-n400
  C   -2.33370716352586     -0.86942504189133     -5.62579726279430
  C   -1.03113173297420     -0.55601697901413     -5.25792164240520
  C   -0.82595684257324      0.68542194074473     -4.64514992503397
  C   -1.83504626606905      1.62603749378656     -4.39883081801978
  C   -3.12689557994894      1.29451813908165     -4.78616186756890
  C   -3.34931529789107      0.05499056153203     -5.38380006769358
  H   -2.56819539117822     -1.81032592510816     -6.10710502257929
  H   -0.17640645129602     -1.19770028233034     -5.45447440836541
  H   -1.61078992638729      2.57779670600604     -3.93219006810186
  H   -3.95624621017188      1.97274977883760     -4.63203086005373
  N   -4.73466606854929     -0.29201941769702     -5.78185757360516
  O   -5.60356199271051      0.54792526747909     -5.56702507218458
  O   -4.91009431009990     -1.39322872294813     -6.29106533915390
  N   0.45577905524780      1.01009186389062     -4.18003419227273
  N   1.34416730926886      1.26094584787395     -3.55757712504919
  S   2.02809142440783      0.23037044901266     -6.77898756124607
  C   3.69854678966910      0.96175697426099     -6.42795031903428
  O   2.06323710171078     -0.19038113356893     -8.18053299720087
  O   1.09963836519608      1.37481907083035     -6.47141208394935
  O   1.90782440771687     -0.83904421367524     -5.74673642758233
  F   4.65992807131893      0.04354549337098     -6.56188551588491
  F   3.95571306121876      1.98298743756641     -7.25107934094551
  F   3.72838764762040      1.42528469195961     -5.15859450927505
