15
Coordinates from ORCA-job 2-HOOC-4-Br-C6H2-N2-B3LYPG-aug-cc-pVDZ-scan-d09-49-n400
  C   -1.88961596853245     -1.50872509343906     -1.05480485077722
  C   -0.56086452341570     -1.11945703623829     -1.08823159517782
  C   -0.10071237841293      0.03238415569179     -0.92250995551172
  C   -0.82496991547935      1.19070162307475     -0.66493481442537
  C   -2.21266398656990      0.91863557081431     -0.60643513084257
  C   -2.71027655050076     -0.38328590875844     -0.79556046352602
  H   -2.29745908831366     -2.50636228828594     -1.19802830634221
  H   -2.89557340666083      1.74353177482019     -0.41030339027839
  N   4.78101153504740      0.12193670198206     -0.50928882463067
  N   5.19533038788979      0.08087614735807     -1.53231274801033
  Br  -4.60558070985198     -0.66427669917876     -0.69963218645585
  C   -0.30025925172494      2.56551020238989     -0.46494994889412
  O   -0.98792071344325      3.53945145395239     -0.24386692092214
  O   1.04993769549056      2.61263363205952     -0.55779082367431
  H   1.30871687447798      3.53754576375757     -0.41525004053126
