33
Coordinates from ORCA-job p-NO2-Ph-N2-OTs-B3LYPG-6-31G_dp-scan-d09-49-n400
  C   -1.46334090476917     -0.26514558963906     -3.08921001730894
  C   -0.17038825214818     -0.72208788347570     -2.85854585508377
  C   0.76059503822584      0.19283990949793     -2.35859285468158
  C   0.47917970726051      1.53208040216173     -2.08514887745807
  C   -0.82310369574860      1.96602651258025     -2.30776085551116
  C   -1.76446677513491      1.06508434910894     -2.80398580250611
  H   -2.23324868071815     -0.91856962126271     -3.47891709540215
  H   0.11064534129644     -1.74756445200704     -3.06616149947312
  H   1.27380821929500      2.18510172887755     -1.73519384672778
  H   -1.11178545632351      2.99098455304876     -2.11404405869594
  N   -3.14602232230896      1.53875552726385     -3.04166943212208
  O   -3.39334595365285      2.70863839956348     -2.76685193947750
  O   -3.94802799714087      0.72569478724414     -3.49372393926373
  N   2.05583474922056     -0.32070678381878     -2.06889214980665
  N   2.74650108072179     -1.00601599296546     -1.51018257028943
  C   6.20389795206248      1.21005203544178     -2.55352203940285
  C   7.56092076580526      1.00380262109208     -2.79538383657548
  C   8.13150539710264      1.31416403792464     -4.03812560348356
  C   7.30463676754334      1.85354994646807     -5.03385489925015
  C   5.94642553520603      2.06766582993630     -4.80615043244585
  C   5.40079444132686      1.73914437808546     -3.56449048347791
  H   5.76985694226922      0.99007829337535     -1.58439108265580
  H   8.18986109519507      0.60393505631353     -2.00380549868391
  H   7.73151114016940      2.11708015127264     -5.99828538254680
  H   5.31308462543995      2.50423760954588     -5.57071754535560
  S   3.64505382394719      1.97910861976554     -3.28426103117368
  O   3.21990245154409      3.11655872239257     -4.11599694880219
  O   3.46138859740101      2.11643918774779     -1.81041460558171
  O   2.98579895652700      0.66292751239092     -3.74072068773253
  C   9.59637582899086      1.05846372258282     -4.30244945124211
  H   10.19091948110366      1.15186315321821     -3.38885183951262
  H   9.75567137253971      0.04429504449909     -4.69067221292961
  H   9.99776072775304      1.75621823177216     -5.04322562533955
