33
Coordinates from ORCA-job p-NO2-Ph-N2-OTs-B3LYPG-6-31G_dp-scan-d09-49-n400
  C   -1.22225232873916     -0.58420827236275     -2.02147462890789
  C   0.16514079961452     -0.61127374265251     -1.97456366881547
  C   0.90009159536636      0.47619811508935     -2.47385350531996
  C   0.26489770834905      1.60291768270469     -3.02831842450779
  C   -1.12601970811195      1.62222561231923     -3.07342220290136
  C   -1.84095997660097      0.53632425135847     -2.57255122169793
  H   -1.82467973558815     -1.40148489341205     -1.64678809677407
  H   0.69485005094960     -1.46028751651804     -1.55764081942885
  H   0.85600387907122      2.42520356270770     -3.40528646644258
  H   -1.66032866588379      2.46683775569782     -3.49002760483553
  N   -3.31932917067202      0.57136209100728     -2.62798716922407
  O   -3.84223065803330      1.56988939187298     -3.11412073771239
  O   -3.92206086807759     -0.40237798511168     -2.18331377919390
  N   2.29753224816323      0.32883662678052     -2.37266576002024
  N   3.28954485901715      0.91534319127035     -2.60923038398784
  C   6.43035914804833      2.28566058541789     -2.65026938761044
  C   7.55893436105062      1.47151980851417     -2.72000170999230
  C   7.88179284962831      0.77792086659252     -3.89550673342902
  C   7.04737930915637      0.93019208976363     -5.01264276480182
  C   5.91546090055125      1.74058465970082     -4.96163026635157
  C   5.61276813099473      2.40863733778174     -3.77404088548186
  H   6.19025124503766      2.83631596257910     -1.74743121518918
  H   8.20402223717781      1.37859295777853     -1.84989482748088
  H   7.29356632962800      0.41541491417153     -5.93738403422418
  H   5.28331252205257      1.87670985325868     -5.83256245506421
  S   4.16845019578011      3.45935936975490     -3.70633838998286
  O   4.35158519575205      4.42508048675748     -2.61907546834900
  O   2.94803354021931      2.45210147215665     -3.34350012368295
  O   3.87967044331336      3.93605534115117     -5.06116915396254
  C   9.09010670547897     -0.12575504587694     -3.95155466318154
  H   9.89142817799369      0.23633877470008     -3.30095279100272
  H   8.83603726098188     -1.14068201319620     -3.62058186971430
  H   9.48484141833247     -0.20485329175440     -4.96841879072870
