33
Coordinates from ORCA-job p-NO2-Ph-N2-OTs-B3LYPG-6-31G_dp-scan-d09-49-n400
  C   -0.97626775480597     -0.64151164025080     -2.45304544782031
  C   0.09233908836749     -0.63180416639345     -3.34033227194930
  C   0.68752845142190      0.58247402761107     -3.71708149395850
  C   0.17809696795474      1.80615491265538     -3.24778257091493
  C   -0.91263274765916      1.79847223934589     -2.38494749427526
  C   -1.46238424469318      0.57969092309983     -1.99168847922328
  H   -1.44424914243558     -1.56201931821908     -2.12946228797406
  H   0.48587436973882     -1.55508094644471     -3.75008328549730
  H   0.62558575906838      2.74023741423520     -3.55353488460772
  H   -1.33461428977631      2.71992356442981     -2.00486180415892
  N   -2.60660256283119      0.58225544466471     -1.06027413047323
  O   -3.02171715926135      1.67275668551570     -0.67475336306323
  O   -3.06990646701250     -0.50765554757855     -0.73009100919879
  N   1.74103617888122      0.43514832299999     -4.65888927334941
  N   2.70801941454402      1.12586230139169     -4.88224187532518
  C   6.04667684645328      2.34134131487696     -2.69900981395408
  C   7.16532202882309      1.56368229965113     -2.41165377928060
  C   7.76479693781025      0.76198356762387     -3.39495447882604
  C   7.21786491757859      0.76409976026775     -4.68667272721116
  C   6.09966086385464      1.53498530819758     -4.99619679401326
  C   5.52212470286558      2.31509883983438     -3.99300894096254
  H   5.59479423365062      2.97431623488107     -1.94330373036873
  H   7.58609588713556      1.58650920295756     -1.41015727383636
  H   7.67893302113534      0.16103385004358     -5.46398147487019
  H   5.68557739019951      1.54758472102492     -5.99786072217045
  S   4.09858707275273      3.31599913199797     -4.37299030170301
  O   3.99482547099425      4.40366264033500     -3.40851095000090
  O   2.81582726642443      2.33562513029783     -3.94021225250699
  O   4.03993826748797      3.54330196743333     -5.81082200711184
  C   8.96191230732532     -0.09613286076297     -3.06557333260738
  H   9.57375485228219      0.35549631827946     -2.27930558451884
  H   8.64721622213320     -1.08388606666654     -2.70718086868534
  H   9.59418584959383     -0.25490557733289     -3.94373529558286
