33
Coordinates from ORCA-job p-NO2-Ph-N2-OTs-B3LYPG-6-31G_dp-scan-d09-49-n400
  C   -0.54504456706540      0.04529516272370     -1.81975015931026
  C   0.10373891434096      1.02549154760577     -1.07860517879811
  C   0.84375385142518      2.02874065203124     -1.72338415854720
  C   0.88838264507110      2.07848951817569     -3.12894715958402
  C   0.22898111940893      1.10889819974976     -3.87224712237624
  C   -0.47017809762331      0.09896244818298     -3.21018267766036
  H   -1.10772114502137     -0.74839556047508     -1.34486324074863
  H   0.05237148979462      1.02725648210832      0.00485745654498
  H   1.43310137754536      2.86982104874431     -3.62957505442400
  H   0.24562543653348      1.12067192365357     -4.95507779281237
  N   -1.15326115003958     -0.93180172644254     -4.00210821175257
  O   -1.06652101607834     -0.86115905845888     -5.22822916871640
  O   -1.76888776809434     -1.80622630591299     -3.39217743909573
  N   1.37884694465691      3.02934615048162     -0.88301996631459
  N   2.54216760445574      3.47543472689259     -1.05752612287563
  C   6.31477271642367      1.71893095723520     -2.53704488499310
  C   7.05473541828883      0.64036230564298     -3.01439814612013
  C   6.93776013431621      0.21453250495016     -4.34691733864019
  C   6.06315632086856      0.90616466308928     -5.19890169002455
  C   5.31467462742078      1.98732593031747     -4.73937095420113
  C   5.44153830921206      2.37568806230606     -3.40680794575852
  H   6.41274874608681      2.03812606878871     -1.50323587982923
  H   7.73584527088001      0.12148920851905     -2.34540470600231
  H   5.97047013668635      0.59478121906222     -6.23588594659476
  H   4.64451687239076      2.53617173462165     -5.39357140054872
  S   4.53457769613150      3.82097863915805     -2.82223154404015
  O   3.05731046116714      4.42281373226784     -0.48528632293045
  O   3.39707399265140      2.73617213830505     -1.98199782401412
  O   3.81139733916309      4.38934657973750     -3.99018841541027
  C   7.72137616922170     -0.97397120098192     -4.84771690241338
  H   8.65227890920960     -1.10545828586398     -4.29005957100160
  H   7.13917837203192     -1.89732273922266     -4.73640389734649
  H   7.96943286854145     -0.87225672699014     -5.90794063365953
