25
Coordinates from ORCA-job p-CH3O-Ph-N2-X-OTf-B3LYPG-6-31G_dp-scan-d09-49-n400
  C   -2.47321074940196     -1.03131700946232     -5.51508785953108
  C   -1.46757423611446     -0.87368388617998     -6.44432782902083
  C   -1.19091288680286      0.42797020763870     -6.90308601208632
  C   -1.88618736571267      1.55358732295852     -6.43437991207979
  C   -2.87837088933602      1.38019634927027     -5.48271077198052
  C   -3.18092470940591      0.08490493132350     -5.01880377985994
  H   -2.72479091817195     -2.01294010864079     -5.13105546868499
  H   -0.89183393842979     -1.71286833272135     -6.80800682525047
  H   -1.63302527939438      2.54215926550162     -6.79976093963386
  H   -3.40583695616451      2.24751287379755     -5.10812216943618
  N   -0.22793526033348      0.64388891371122     -7.86628304785617
  N   0.44378772208377      0.95772246437054     -8.70584627591492
  S   2.71847230604192     -0.24061393681732     -6.80129424232328
  C   2.62044875571889      1.22742929267843     -5.66431427040093
  O   2.74809073759647      0.39368590484645     -8.14987953323260
  O   1.41265042143695     -0.91379392600274     -6.53111753206082
  O   3.93021498125024     -0.95087326369553     -6.38704595430966
  F   3.67566907579322      2.03535300866128     -5.80298960180676
  F   1.50395252931931      1.95592952794777     -5.95043170501589
  F   2.53471022009081      0.85141219662089     -4.38200237626636
  O   -4.12423921218740     -0.19133927931251     -4.10445558627619
  C   -4.86772904365265      0.87797636867444     -3.51605890167282
  H   -5.54810817443926      0.40655837979731     -2.80750671237397
  H   -5.44597468353767      1.42069534273468     -4.27205579424429
  H   -4.20704244624637      1.57064739229938     -2.98337689868157
