25
Coordinates from ORCA-job p-CH3O-Ph-N2-X-OTf-B3LYPG-6-31G_dp-scan-d09-49-n400
  C   -2.26480244544657     -0.56262323455223     -4.88975133254692
  C   -1.13868036476339     -0.07116051105363     -5.51585794407928
  C   -1.23767775789552      1.18844168614065     -6.14584906126236
  C   -2.42249167304867      1.94632093115016     -6.14491637034535
  C   -3.54288101525021      1.43225395921644     -5.51676473036121
  C   -3.47091954895009      0.17085476713982     -4.88593264030094
  H   -2.24382898374813     -1.52204304862107     -4.38612974321835
  H   -0.17682092410000     -0.58159170081032     -5.51686751572073
  H   -2.45459451519791      2.91193989841652     -6.63678449267152
  H   -4.46048912617221      2.00599462599136     -5.51632798911561
  N   -0.14746332061496      1.70875502715684     -6.80264102478063
  N   0.75640353681159      2.04916083053238     -7.37537745772061
  S   2.57959253179891     -0.47115691946686     -6.79719102439631
  C   4.06213326324906      0.61658901563553     -6.54276109562801
  O   1.91999249637646      0.14114535278482     -7.99772315218435
  O   1.79143194897853     -0.24171729497004     -5.55271105401307
  O   3.11558137314092     -1.81960270661293     -6.99981840641528
  F   4.88138935730832      0.56241595587548     -7.59998416351277
  F   3.67176538624940      1.89733621715440     -6.37806089670984
  F   4.74600109043143      0.24494117053629     -5.45266796783558
  O   -4.49766457612586     -0.41256636118057     -4.25110635479843
  C   -5.76233383030000      0.25212225993667     -4.18726902844011
  H   -6.41754842577840     -0.41962571581173     -3.63360959250817
  H   -6.17154734996877      0.41859808513718     -5.18961711570875
  H   -5.68024712698375      1.20541771027486     -3.65427984572597
