20
Coordinates from ORCA-job p-NO2-Ph-N2-X-BF4-B3LYPG-6-31G_dp-scan-d09-49-n400
  C   -1.12779430843897      0.90125266939555      1.65754899816212
  C   0.23021175818245      1.16672986905168      1.52551837560921
  C   0.67330943131486      1.61194637243922      0.27488070521435
  C   -0.15661688356315      1.78297650733759     -0.84039842940956
  C   -1.50726278889152      1.50383730625646     -0.68780455329739
  C   -1.96460650521359      1.07611589610427      0.55764420517729
  H   -1.54104701437486      0.55022828844888      2.59439757863519
  H   0.92271287865571      1.00516696151961      2.33945758903156
  H   0.25466608287706      2.09768631041705     -1.79144912769600
  H   -2.20319991078883      1.60618331609815     -1.51045357205264
  N   -3.41084014114963      0.78960961128690      0.71608469663295
  O   -3.78802148677420      0.41402462924340      1.82078315177958
  O   -4.12308245574598      0.95458490591824     -0.26914612009476
  N   2.01447213295878      1.96278188907167      0.11124992249491
  N   3.04275893267015      2.34985461936468     -0.05169401522257
  B   3.20938370244758     -0.57435321141593      0.03235287283123
  F   2.15084748069031     -0.30984244747807     -0.89049016995075
  F   3.51694574846792     -1.90328492094640      0.08431803222093
  F   4.30616015204069      0.22954320283243     -0.34597936830972
  F   2.74400319463519     -0.09634177494544      1.30607922824409
