<?xml version="1.0" encoding="utf-8"  standalone="no"?>
<!DOCTYPE svg PUBLIC "-//W3C//DTD SVG 1.1//EN"
 "http://www.w3.org/Graphics/SVG/1.1/DTD/svg11.dtd">
<svg 
 width="1200" height="900"
 viewBox="0 0 1200 900"
 xmlns="http://www.w3.org/2000/svg"
 xmlns:xlink="http://www.w3.org/1999/xlink"
>

<title>Gnuplot</title>
<desc>Produced by GNUPLOT 5.0 patchlevel 5 </desc>

<g id="gnuplot_canvas">

<rect x="0" y="0" width="1200" height="900" fill="none"/>
<defs>

	<circle id='gpDot' r='0.5' stroke-width='0.5'/>
	<path id='gpPt0' stroke-width='0.095' stroke='currentColor' d='M-1,0 h2 M0,-1 v2'/>
	<path id='gpPt1' stroke-width='0.095' stroke='currentColor' d='M-1,-1 L1,1 M1,-1 L-1,1'/>
	<path id='gpPt2' stroke-width='0.095' stroke='currentColor' d='M-1,0 L1,0 M0,-1 L0,1 M-1,-1 L1,1 M-1,1 L1,-1'/>
	<rect id='gpPt3' stroke-width='0.095' stroke='currentColor' x='-1' y='-1' width='2' height='2'/>
	<rect id='gpPt4' stroke-width='0.095' stroke='currentColor' fill='currentColor' x='-1' y='-1' width='2' height='2'/>
	<circle id='gpPt5' stroke-width='0.095' stroke='currentColor' cx='0' cy='0' r='1'/>
	<use xlink:href='#gpPt5' id='gpPt6' fill='currentColor' stroke='none'/>
	<path id='gpPt7' stroke-width='0.095' stroke='currentColor' d='M0,-1.33 L-1.33,0.67 L1.33,0.67 z'/>
	<use xlink:href='#gpPt7' id='gpPt8' fill='currentColor' stroke='none'/>
	<use xlink:href='#gpPt7' id='gpPt9' stroke='currentColor' transform='rotate(180)'/>
	<use xlink:href='#gpPt9' id='gpPt10' fill='currentColor' stroke='none'/>
	<use xlink:href='#gpPt3' id='gpPt11' stroke='currentColor' transform='rotate(45)'/>
	<use xlink:href='#gpPt11' id='gpPt12' fill='currentColor' stroke='none'/>
	<path id='gpPt13' stroke-width='0.095' stroke='currentColor' d='M0,1.330 L1.265,0.411 L0.782,-1.067 L-0.782,-1.076 L-1.265,0.411 z'/>
	<use xlink:href='#gpPt13' id='gpPt14' fill='currentColor' stroke='none'/>
	<filter id='textbox' filterUnits='objectBoundingBox' x='0' y='0' height='1' width='1'>
	  <feFlood flood-color='white' flood-opacity='1' result='bgnd'/>
	  <feComposite in='SourceGraphic' in2='bgnd' operator='atop'/>
	</filter>
	<filter id='greybox' filterUnits='objectBoundingBox' x='0' y='0' height='1' width='1'>
	  <feFlood flood-color='lightgrey' flood-opacity='1' result='grey'/>
	  <feComposite in='SourceGraphic' in2='grey' operator='atop'/>
	</filter>
</defs>
<g fill="none" color="white" stroke="currentColor" stroke-width="1.00" stroke-linecap="butt" stroke-linejoin="miter">
</g>
<g fill="none" color="black" stroke="currentColor" stroke-width="1.00" stroke-linecap="butt" stroke-linejoin="miter">
	<path stroke='black'  d='M168.7,765.6 L189.7,765.6 M1141.4,765.6 L1120.4,765.6  '/>	<g transform="translate(149.2,774.7)" stroke="none" fill="black" font-family="Helvetica" font-size="28.00"  text-anchor="end">
		<text><tspan font-family="Helvetica" > 0</tspan></text>
	</g>
</g>
<g fill="none" color="black" stroke="currentColor" stroke-width="1.00" stroke-linecap="butt" stroke-linejoin="miter">
	<path stroke='black'  d='M168.7,659.0 L189.7,659.0 M1141.4,659.0 L1120.4,659.0  '/>	<g transform="translate(149.2,668.1)" stroke="none" fill="black" font-family="Helvetica" font-size="28.00"  text-anchor="end">
		<text><tspan font-family="Helvetica" > 20</tspan></text>
	</g>
</g>
<g fill="none" color="black" stroke="currentColor" stroke-width="1.00" stroke-linecap="butt" stroke-linejoin="miter">
	<path stroke='black'  d='M168.7,552.4 L189.7,552.4 M1141.4,552.4 L1120.4,552.4  '/>	<g transform="translate(149.2,561.5)" stroke="none" fill="black" font-family="Helvetica" font-size="28.00"  text-anchor="end">
		<text><tspan font-family="Helvetica" > 40</tspan></text>
	</g>
</g>
<g fill="none" color="black" stroke="currentColor" stroke-width="1.00" stroke-linecap="butt" stroke-linejoin="miter">
	<path stroke='black'  d='M168.7,445.8 L189.7,445.8 M1141.4,445.8 L1120.4,445.8  '/>	<g transform="translate(149.2,454.9)" stroke="none" fill="black" font-family="Helvetica" font-size="28.00"  text-anchor="end">
		<text><tspan font-family="Helvetica" > 60</tspan></text>
	</g>
</g>
<g fill="none" color="black" stroke="currentColor" stroke-width="1.00" stroke-linecap="butt" stroke-linejoin="miter">
	<path stroke='black'  d='M168.7,339.3 L189.7,339.3 M1141.4,339.3 L1120.4,339.3  '/>	<g transform="translate(149.2,348.4)" stroke="none" fill="black" font-family="Helvetica" font-size="28.00"  text-anchor="end">
		<text><tspan font-family="Helvetica" > 80</tspan></text>
	</g>
</g>
<g fill="none" color="black" stroke="currentColor" stroke-width="1.00" stroke-linecap="butt" stroke-linejoin="miter">
	<path stroke='black'  d='M168.7,232.7 L189.7,232.7 M1141.4,232.7 L1120.4,232.7  '/>	<g transform="translate(149.2,241.8)" stroke="none" fill="black" font-family="Helvetica" font-size="28.00"  text-anchor="end">
		<text><tspan font-family="Helvetica" > 100</tspan></text>
	</g>
</g>
<g fill="none" color="black" stroke="currentColor" stroke-width="1.00" stroke-linecap="butt" stroke-linejoin="miter">
	<path stroke='black'  d='M168.7,126.1 L189.7,126.1 M1141.4,126.1 L1120.4,126.1  '/>	<g transform="translate(149.2,135.2)" stroke="none" fill="black" font-family="Helvetica" font-size="28.00"  text-anchor="end">
		<text><tspan font-family="Helvetica" > 120</tspan></text>
	</g>
</g>
<g fill="none" color="black" stroke="currentColor" stroke-width="1.00" stroke-linecap="butt" stroke-linejoin="miter">
	<path stroke='black'  d='M168.7,765.6 L168.7,744.6 M168.7,126.1 L168.7,147.1  '/>	<g transform="translate(168.7,816.7)" stroke="none" fill="black" font-family="Helvetica" font-size="28.00"  text-anchor="middle">
		<text><tspan font-family="Helvetica" > 0</tspan></text>
	</g>
</g>
<g fill="none" color="black" stroke="currentColor" stroke-width="1.00" stroke-linecap="butt" stroke-linejoin="miter">
	<path stroke='black'  d='M290.3,765.6 L290.3,744.6 M290.3,126.1 L290.3,147.1  '/>	<g transform="translate(290.3,816.7)" stroke="none" fill="black" font-family="Helvetica" font-size="28.00"  text-anchor="middle">
		<text><tspan font-family="Helvetica" > 5</tspan></text>
	</g>
</g>
<g fill="none" color="black" stroke="currentColor" stroke-width="1.00" stroke-linecap="butt" stroke-linejoin="miter">
	<path stroke='black'  d='M411.9,765.6 L411.9,744.6 M411.9,126.1 L411.9,147.1  '/>	<g transform="translate(411.9,816.7)" stroke="none" fill="black" font-family="Helvetica" font-size="28.00"  text-anchor="middle">
		<text><tspan font-family="Helvetica" > 10</tspan></text>
	</g>
</g>
<g fill="none" color="black" stroke="currentColor" stroke-width="1.00" stroke-linecap="butt" stroke-linejoin="miter">
	<path stroke='black'  d='M533.5,765.6 L533.5,744.6 M533.5,126.1 L533.5,147.1  '/>	<g transform="translate(533.5,816.7)" stroke="none" fill="black" font-family="Helvetica" font-size="28.00"  text-anchor="middle">
		<text><tspan font-family="Helvetica" > 15</tspan></text>
	</g>
</g>
<g fill="none" color="black" stroke="currentColor" stroke-width="1.00" stroke-linecap="butt" stroke-linejoin="miter">
	<path stroke='black'  d='M655.1,765.6 L655.1,744.6 M655.1,126.1 L655.1,147.1  '/>	<g transform="translate(655.1,816.7)" stroke="none" fill="black" font-family="Helvetica" font-size="28.00"  text-anchor="middle">
		<text><tspan font-family="Helvetica" > 20</tspan></text>
	</g>
</g>
<g fill="none" color="black" stroke="currentColor" stroke-width="1.00" stroke-linecap="butt" stroke-linejoin="miter">
	<path stroke='black'  d='M776.6,765.6 L776.6,744.6 M776.6,126.1 L776.6,147.1  '/>	<g transform="translate(776.6,816.7)" stroke="none" fill="black" font-family="Helvetica" font-size="28.00"  text-anchor="middle">
		<text><tspan font-family="Helvetica" > 25</tspan></text>
	</g>
</g>
<g fill="none" color="black" stroke="currentColor" stroke-width="1.00" stroke-linecap="butt" stroke-linejoin="miter">
	<path stroke='black'  d='M898.2,765.6 L898.2,744.6 M898.2,126.1 L898.2,147.1  '/>	<g transform="translate(898.2,816.7)" stroke="none" fill="black" font-family="Helvetica" font-size="28.00"  text-anchor="middle">
		<text><tspan font-family="Helvetica" > 30</tspan></text>
	</g>
</g>
<g fill="none" color="black" stroke="currentColor" stroke-width="1.00" stroke-linecap="butt" stroke-linejoin="miter">
	<path stroke='black'  d='M1019.8,765.6 L1019.8,744.6 M1019.8,126.1 L1019.8,147.1  '/>	<g transform="translate(1019.8,816.7)" stroke="none" fill="black" font-family="Helvetica" font-size="28.00"  text-anchor="middle">
		<text><tspan font-family="Helvetica" > 35</tspan></text>
	</g>
</g>
<g fill="none" color="black" stroke="currentColor" stroke-width="1.00" stroke-linecap="butt" stroke-linejoin="miter">
	<path stroke='black'  d='M1141.4,765.6 L1141.4,744.6 M1141.4,126.1 L1141.4,147.1  '/>	<g transform="translate(1141.4,816.7)" stroke="none" fill="black" font-family="Helvetica" font-size="28.00"  text-anchor="middle">
		<text><tspan font-family="Helvetica" > 40</tspan></text>
	</g>
</g>
<g fill="none" color="black" stroke="currentColor" stroke-width="1.00" stroke-linecap="butt" stroke-linejoin="miter">
</g>
<g fill="none" color="black" stroke="currentColor" stroke-width="1.00" stroke-linecap="butt" stroke-linejoin="miter">
	<path stroke='black'  d='M168.7,126.1 L168.7,765.6 L1141.4,765.6 L1141.4,126.1 L168.7,126.1 Z  '/></g>
<g fill="none" color="black" stroke="currentColor" stroke-width="1.00" stroke-linecap="butt" stroke-linejoin="miter">
	<g transform="translate(39.8,445.9) rotate(270)" stroke="none" fill="black" font-family="Helvetica-Bold" font-size="28.00"  text-anchor="middle">
		<text><tspan font-family="Helvetica-Bold" >Dissociation, %</tspan></text>
	</g>
</g>
<g fill="none" color="black" stroke="currentColor" stroke-width="1.00" stroke-linecap="butt" stroke-linejoin="miter">
	<g transform="translate(655.0,879.7)" stroke="none" fill="black" font-family="Helvetica-Bold" font-size="28.00"  text-anchor="middle">
		<text><tspan font-family="Helvetica-Bold" >E collision, eV</tspan></text>
	</g>
</g>
<g fill="none" color="black" stroke="currentColor" stroke-width="1.00" stroke-linecap="butt" stroke-linejoin="miter">
	<g transform="translate(655.0,72.2)" stroke="none" fill="black" font-family="Helvetica" font-size="28.00"  text-anchor="middle">
		<text><tspan font-family="Helvetica" >Dissociation of Diss-BFGS</tspan></text>
	</g>
</g>
	<g id="gnuplot_plot_1" ><title>30.2600</title>
<g fill="none" color="white" stroke="black" stroke-width="3.00" stroke-linecap="butt" stroke-linejoin="miter">
</g>
<g fill="none" color="black" stroke="currentColor" stroke-width="3.00" stroke-linecap="butt" stroke-linejoin="miter">
	<path stroke='black'  d='M171.1,601.1 L180.9,568.3 L190.7,535.9 L200.5,504.8 L210.3,475.0 L220.1,446.5 L229.9,419.5 L239.7,394.0
		L249.5,370.4 L259.3,348.8 L269.1,329.4 L278.9,312.3 L288.7,297.4 L298.5,284.4 L308.3,273.3 L318.1,263.9
		L327.9,256.1 L337.7,249.6 L347.5,244.4 L357.3,240.3 L367.1,237.1 L376.9,234.7 L386.7,233.0 L396.5,231.8
		L406.3,230.9 L416.1,230.2 L425.9,229.6 L435.8,229.1 L445.6,228.7 L455.4,228.3 L465.2,228.1 L475.0,227.9
		L484.8,227.8 L494.6,227.8 L504.4,227.9 L514.2,228.0 L524.0,228.1 L533.8,228.3 L543.6,228.5 L553.4,228.8
		L563.2,229.1 L573.0,229.4 L582.8,229.8 L592.6,230.2 L602.4,230.6 L612.2,230.9 L622.0,231.3 L631.8,231.7
		L641.6,232.1 L651.4,232.5 L661.2,232.8 L671.0,233.1 L680.8,233.4 L690.6,233.7 L700.4,234.0 L710.2,234.2
		L720.0,234.5 L729.8,234.7 L739.6,234.9 L749.4,235.0 L759.2,235.2 L769.0,235.3 L778.8,235.5 L788.6,235.6
		L798.4,235.7 L808.2,235.7 L818.0,235.8 L827.8,235.9 L837.6,235.9 L847.4,235.9 L857.2,235.9 L867.0,235.9
		L876.8,235.9 L886.6,235.9 L896.4,235.9 L906.2,235.8 L916.0,235.8 L925.8,235.7 L935.6,235.6 L945.4,235.6
		L955.2,235.5 L965.0,235.4 L974.8,235.3 L984.6,235.1 L994.4,235.0 L1004.2,234.9 L1014.0,234.8 L1023.8,234.6
		L1033.6,234.5 L1043.4,234.3 L1053.2,234.2 L1063.0,234.0 L1072.8,233.9 L1082.6,233.7 L1092.4,233.5 L1102.2,233.4
		L1112.0,233.2 L1121.8,233.0 L1131.6,232.9 L1141.4,232.7  '/></g>
	</g>
	<g id="gnuplot_plot_2" ><title>30.2600</title>
<g fill="none" color="white" stroke="black" stroke-width="1.00" stroke-linecap="butt" stroke-linejoin="miter">
</g>
<g fill="none" color="black" stroke="currentColor" stroke-width="1.00" stroke-linecap="butt" stroke-linejoin="miter">
	<use xlink:href='#gpPt6' transform='translate(171.1,598.2) scale(5.25)' color='rgb(  0, 158, 115)'/>
	<use xlink:href='#gpPt6' transform='translate(174.8,600.5) scale(5.25)' color='rgb(  0, 158, 115)'/>
	<use xlink:href='#gpPt6' transform='translate(180.9,580.8) scale(5.25)' color='rgb(  0, 158, 115)'/>
	<use xlink:href='#gpPt6' transform='translate(186.9,535.6) scale(5.25)' color='rgb(  0, 158, 115)'/>
	<use xlink:href='#gpPt6' transform='translate(193.0,517.3) scale(5.25)' color='rgb(  0, 158, 115)'/>
	<use xlink:href='#gpPt6' transform='translate(205.2,495.2) scale(5.25)' color='rgb(  0, 158, 115)'/>
	<use xlink:href='#gpPt6' transform='translate(217.3,456.1) scale(5.25)' color='rgb(  0, 158, 115)'/>
	<use xlink:href='#gpPt6' transform='translate(241.7,389.1) scale(5.25)' color='rgb(  0, 158, 115)'/>
	<use xlink:href='#gpPt6' transform='translate(266.0,330.1) scale(5.25)' color='rgb(  0, 158, 115)'/>
	<use xlink:href='#gpPt6' transform='translate(411.9,232.7) scale(5.25)' color='rgb(  0, 158, 115)'/>
	<use xlink:href='#gpPt6' transform='translate(655.1,232.7) scale(5.25)' color='rgb(  0, 158, 115)'/>
	<use xlink:href='#gpPt6' transform='translate(1141.4,232.7) scale(5.25)' color='rgb(  0, 158, 115)'/>
</g>
	</g>
<g fill="none" color="white" stroke="rgb(  0, 158, 115)" stroke-width="2.00" stroke-linecap="butt" stroke-linejoin="miter">
</g>
<g fill="none" color="black" stroke="currentColor" stroke-width="2.00" stroke-linecap="butt" stroke-linejoin="miter">
</g>
<g fill="none" color="black" stroke="black" stroke-width="1.00" stroke-linecap="butt" stroke-linejoin="miter">
</g>
<g fill="none" color="black" stroke="currentColor" stroke-width="1.00" stroke-linecap="butt" stroke-linejoin="miter">
	<path stroke='black'  d='M168.7,126.1 L168.7,765.6 L1141.4,765.6 L1141.4,126.1 L168.7,126.1 Z  '/></g>
<g fill="none" color="black" stroke="currentColor" stroke-width="1.00" stroke-linecap="butt" stroke-linejoin="miter">
</g>
</g>
</svg>

