15
Coordinates from ORCA-job 4-HOOC-C6H3-N2-B3LYPG-aug-cc-pVDZ-scan-d09-49-n400
  C   -1.90149784043829     -1.82391030907625     -1.09309817315524
  C   -0.53935530918830     -1.60172930765800     -1.13687199207723
  C   0.05989500415416     -0.51304421569372     -0.97598242596279
  C   -0.50586337068404      0.72720972095779     -0.71556374836237
  C   -1.91250830274243      0.61932697986725     -0.64822847968609
  C   -2.59316200664500     -0.60836875244565     -0.82919223026835
  H   -2.43811861844861     -2.75934441068727     -1.22989830537092
  H   0.01337038900872      1.67265059395952     -0.57579063441396
  H   -2.49687792448924      1.51639723372489     -0.44895880015215
  N   3.23438343578609      1.73824647152937     -0.76439117476990
  N   4.23587859461732      1.29689992226130     -0.91034742254117
  C   -4.08016593717726     -0.69038713760494     -0.75181280229675
  O   -4.72604107539875     -1.70705856357911     -0.90185651927817
  O   -4.67343878575834      0.50844546478147     -0.50278672348808
  H   -5.62889825259595      0.33856630966331     -0.47842056817682
