15
Coordinates from ORCA-job 4-HOOC-C6H3-N2-B3LYPG-aug-cc-pVDZ-scan-d09-49-n400
  C   -1.85803283353607     -1.79136358215557     -1.08989597393796
  C   -0.50071175622832     -1.54006688912641     -1.12836063817581
  C   0.07358498705490     -0.43859470681727     -0.96367175115563
  C   -0.51927010197047      0.78871839552171     -0.70376794500612
  C   -1.92357920482306      0.65047709419450     -0.64179873987326
  C   -2.57681722502786     -0.59138868982536     -0.82691920932852
  H   -2.37389106269684     -2.73794181702767     -1.22991841646488
  H   -0.02088191080583      1.74479427306230     -0.56084821320375
  H   -2.52792328766650      1.53443591548647     -0.44351019245470
  N   3.18076392122589      1.62975258304793     -0.78135171232075
  N   4.15722051798367      1.13739674672161     -0.93359548342619
  C   -4.06197479779415     -0.70567964256766     -0.75514718101840
  O   -4.68515165267379     -1.73578897683424     -0.90946065308344
  O   -4.68203539665818      0.47981590497002     -0.50754549954840
  H   -5.63370019638334      0.28933339134959     -0.48740839100220
