15
Coordinates from ORCA-job 4-HOOC-C6H3-N2-B3LYPG-aug-cc-pVDZ-scan-d09-49-n400
  C   -1.92349952546455     -1.84046737012390     -1.09484715361917
  C   -0.55902987991145     -1.63378070066672     -1.14139640992096
  C   0.05304176750073     -0.55193774469574     -0.98261326437203
  C   -0.49817969347226      0.69494526051719     -0.72214729611082
  C   -1.90580772392996      0.60307754165155     -0.65204555056544
  C   -2.60076042327738     -0.61692002123021     -0.83069581676066
  H   -2.47098313517027     -2.76984768534443     -1.22985360492880
  H   0.03180120410157      1.63469094546554     -0.58413461497557
  H   -2.47955363102588      1.50691062706574     -0.45243607609983
  N   3.25713645279008      1.79418589094278     -0.75560538398228
  N   4.27015762254610      1.37833166515883     -0.89683765934830
  C   -4.08845446213479     -0.68189494092532     -0.75049033091154
  O   -4.74611036726020     -1.69145457710293     -0.89735052592623
  O   -4.66746092254178      0.52358510249639     -0.49996841044013
  H   -5.62469728274989      0.36447600679120     -0.47277790203823
