15
Coordinates from ORCA-job 4-HOOC-C6H3-N2-B3LYPG-aug-cc-pVDZ-scan-d09-49-n400
  C   -2.06860558048148     -1.94716844968483     -1.10559878028962
  C   -0.69363450720052     -1.84747601857025     -1.17260591280914
  C   0.00931225340395     -0.82000479415811     -1.02931926225662
  C   -0.44046474466872      0.46779791738357     -0.76729987927952
  C   -1.84945306456731      0.48860066175546     -0.67621649363991
  C   -2.64234125207036     -0.67253914728573     -0.83810657843910
  H   -2.68958182826622     -2.83098506320918     -1.22773713507878
  H   0.16233023651721      1.36462776320611     -0.64157028754667
  H   -2.34610967706715      1.43623545850384     -0.47306929429839
  N   3.35306775104173      2.15649417682358     -0.69671308183282
  N   4.42861092499270      1.93112645813588     -0.80444948641034
  C   -4.12909608829445     -0.61852372787046     -0.73579741492417
  O   -4.86709087667613     -1.57313635294773     -0.86761022963449
  O   -4.60648677696187      0.63048002080240     -0.48444069103927
  H   -5.57285676970133      0.54837109711542     -0.44266547252116
