15
Coordinates from ORCA-job 4-HOOC-C6H3-N2-B3LYPG-aug-cc-pVDZ-scan-d09-49-n400
  C   -1.91542289372633     -1.83392924736767     -1.09439266115171
  C   -0.55178601022124     -1.62159599036906     -1.13920002383312
  C   0.05637319742544     -0.53746432458418     -0.97994458864884
  C   -0.50163248334993      0.70645710768647     -0.72050590410585
  C   -1.90883253856506      0.60966254560221     -0.65208278972535
  C   -2.59834365083635     -0.61324404221718     -0.83153252538235
  H   -2.45875804053922     -2.76565205853315     -1.23004225707200
  H   0.02555395588490      1.64772156658018     -0.58219336153637
  H   -2.48628963385738      1.51131272103712     -0.45347884409770
  N   3.24934918394802      1.77322948698124     -0.75792164787242
  N   4.25848292871999      1.34833328134042     -0.90005186602209
  C   -4.08583996373764     -0.68462577709135     -0.75369690151895
  O   -4.73869313337237     -1.69773022759840     -0.89752837725441
  O   -4.67007657138303      0.51758185651047     -0.49969931808849
  H   -5.62648434638973      0.35384310202285     -0.47092893369034
