15
Coordinates from ORCA-job 4-HOOC-C6H3-N2-B3LYPG-aug-cc-pVDZ-scan-d09-49-n400
  C   -2.05984818590138     -1.94057957317233     -1.10499042311947
  C   -0.68526750313523     -1.83428005093249     -1.17000045187572
  C   0.01243202086463     -0.80317574521575     -1.02600764460552
  C   -0.44494872046657      0.48157237783296     -0.76520868855660
  C   -1.85401190853142      0.49657779595190     -0.67612793551524
  C   -2.64060824912262     -0.66867036201627     -0.83900751058897
  H   -2.67620228386420     -2.82752422196415     -1.22787281392027
  H   0.15503955543465      1.38029381547218     -0.63916559080351
  H   -2.35536303428183      1.44194176245121     -0.47415692877036
  N   3.35041644976618      2.13505221758805     -0.69975531337550
  N   4.42322127281277      1.89744202281867     -0.80847074824903
  C   -4.12776775727186     -0.62230667454703     -0.73948075904136
  O   -4.86033438758161     -1.58154204231998     -0.86795476566252
  O   -4.61167581351657      0.62338088076189     -0.48423870490636
  H   -5.57748145520489      0.53571779729111     -0.44076172100957
