15
Coordinates from ORCA-job 4-HOOC-C6H3-N2-B3LYPG-aug-cc-pVDZ-scan-d09-49-n400
  C   -2.10659765108358     -1.97386884992730     -1.10812436562540
  C   -0.73000137063218     -1.90519700753257     -1.17999356960015
  C   -0.00336087690958     -0.89357793143134     -1.04120989823672
  C   -0.42424251163158      0.40371240189523     -0.78037347150790
  C   -1.83187644393908      0.45738115824002     -0.68446553687861
  C   -2.65095321938563     -0.68610357790509     -0.84148863847366
  H   -2.74758629721626     -2.84380766884068     -1.22648230936720
  H   0.20039187324665      1.28617424660175     -0.65872403011178
  H   -2.30611726195782      1.41645959292841     -0.48167638888667
  N   3.36363967333780      2.24814178554275     -0.67951887978288
  N   4.45080665160431      2.08191621158351     -0.77774602528924
  C   -4.13576728126898     -0.59879603398079     -0.73478528237813
  O   -4.89500952281510     -1.53776072863272     -0.85804139527364
  O   -4.58405102529029      0.66013327433318     -0.47943921295226
  H   -5.55167473605863      0.59909312712561     -0.43113099563576
