15
Coordinates from ORCA-job 4-HOOC-C6H3-N2-B3LYPG-aug-cc-pVDZ-scan-d09-49-n400
  C   -1.98715871724944     -1.88749254419643     -1.09980554242313
  C   -0.61681649498106     -1.72724004958479     -1.15483843254609
  C   0.03361180250491     -0.66686073065623     -1.00269353353032
  C   -0.47502260310457      0.59796825523167     -0.74237270253662
  C   -1.88431054335653      0.55498437888750     -0.66368763056988
  C   -2.62120008182570     -0.64114607993012     -0.83513195059081
  H   -2.56646025339510     -2.79819994492239     -1.22922454390840
  H   0.08810191497990      1.51916030644527     -0.61007897060903
  H   -2.42552822350014      1.47843610174338     -0.46320156891013
  N   3.31232277141082      1.95713343529287     -0.73020324889959
  N   4.35505077596902      1.61600402797520     -0.85465005674152
  C   -4.10971651275928     -0.65563116263690     -0.74639815967454
  O   -4.80172885519772     -1.64340421468307     -0.88317115815196
  O   -4.64590909054370      0.56863586930577     -0.49178925898653
  H   -5.60763588895135      0.44155235172823     -0.45595324192143
