15
Coordinates from ORCA-job 4-HOOC-C6H3-N2-B3LYPG-aug-cc-pVDZ-scan-d09-49-n400
  C   -2.14132223208700     -1.99787449355254     -1.11030192868188
  C   -0.76386245909680     -1.95783481524230     -1.18733833774876
  C   -0.01591351576716     -0.96130351945507     -1.05256773300176
  C   -0.40897892573444      0.34465685003355     -0.79194441689112
  C   -1.81479516044573      0.42770087221817     -0.69090974687679
  C   -2.65794228262297     -0.69878205486684     -0.84338473272408
  H   -2.80060308033688     -2.85451920422239     -1.22513636587330
  H   0.23420787026495      1.21420755989931     -0.67376565787458
  H   -2.26823641248214      1.39668219569586     -0.48764969988142
  N   3.37047348742645      2.33196120470354     -0.66450971636972
  N   4.46522195429597      2.21918896405496     -0.75415482397291
  C   -4.14021721573694     -0.58063348546637     -0.73131290084048
  O   -4.91918682406437     -1.50382626408057     -0.85053019255790
  O   -4.56137677736454      0.68760485355655     -0.47584588919090
  H   -5.52986842624834      0.64667133672413     -0.42384785751440
