25
Coordinates from ORCA-job p-CH3O-Ph-N2-X-OTf-B3LYPG-6-31G_dp-scan-d09-49-n400
  C   -1.88556080337805     -0.56980868609939     -6.26203826190975
  C   -0.91782956501861      0.34302828651663     -6.62425891007439
  C   -1.15075722690901      1.69786510090973     -6.30780960603498
  C   -2.31896314414599      2.13452259827019     -5.64519405907827
  C   -3.27162708118520      1.20143258605808     -5.28866894948041
  C   -3.06083240039826     -0.16328249392231     -5.59631446956614
  H   -1.74364197663095     -1.62350818860591     -6.47340264418882
  H   0.00389855560631      0.02751360614429     -7.10577419139391
  H   -2.45878565667339      3.18555262661355     -5.41656975929725
  H   -4.16738546119192      1.52912260550279     -4.77772450696091
  N   -0.25268747942104      2.68111775252255     -6.64613846008108
  N   0.33319542181889      3.60638771612449     -6.86704995335119
  S   2.60638680206377      0.21934985402401     -6.89315763259131
  C   2.85537158137749      0.47331413362484     -5.06904243086960
  O   3.95603791910837      0.16752000077093     -7.45934436448665
  O   1.80392261704222      1.43727463351049     -7.25117367343935
  O   1.79050787795566     -1.01858983529951     -6.95135482959224
  F   1.65291610146477      0.64456676899734     -4.46262379462052
  F   3.45600718640959     -0.57806442102081     -4.49996376058819
  F   3.58987074945098      1.56875270246478     -4.82409271839947
  O   -3.92226369496278     -1.14110687106281     -5.29253633975080
  C   -5.13329360215180     -0.83378834498359     -4.59523610000473
  H   -5.64290462910219     -1.78727586034165     -4.46278335860690
  H   -5.76537302931671     -0.15875066601651     -5.18250865096143
  H   -4.92190906181204     -0.39294560470220     -3.61523857467173
