25
Coordinates from ORCA-job p-CH3O-Ph-N2-X-OTf-B3LYPG-6-31G_dp-scan-d09-49-n400
  C   -2.06766213491274     -0.89922503437660     -5.22101255007400
  C   -0.92294175212201     -0.16550561659898     -5.00989488182860
  C   -1.04888626147922      1.24179810761091     -4.96706951272750
  C   -2.27405794083993      1.90651865875351     -5.13760891439539
  C   -3.41082963554293      1.15045333529264     -5.35972057862327
  C   -3.31421208594059     -0.25807649894459     -5.40256021020102
  H   -2.03150612798350     -1.98162687281053     -5.27205456004182
  H   0.06324785284922     -0.60574781142740     -4.88889461867874
  H   -2.32202735252906      2.98951054817623     -5.10438990083936
  H   -4.36000542770305      1.64996305924600     -5.50221207901685
  N   0.07703466533673      1.98622958653959     -4.74596776988724
  N   1.04244916431279      2.51196866683380     -4.55745991606253
  S   2.23233478031032      0.15615305924980     -6.53975467737900
  C   3.70656330572602      1.25393156306359     -6.80538886499075
  O   2.56331718041823     -1.10307074976966     -7.21801627434216
  O   1.10781825565404      0.94614778258197     -7.11007923465136
  O   2.15377455972103      0.08353031954576     -5.04361879980657
  F   3.50313381909499      2.45404352915312     -6.21832603508048
  F   4.81228893758450      0.71538665530885     -6.27531528463029
  F   3.91936188911770      1.46440865693876     -8.11177292144229
  O   -4.35375628560278     -1.07591720557272     -5.60823276015815
  C   -5.65802500123094     -0.52923986996854     -5.82531360552531
  H   -6.31376256717544     -1.38751568208102     -5.96501422758787
  H   -5.67715160192800      0.09697142483549     -6.72348581995202
  H   -5.99220023513540      0.04911038842002     -4.95683600207737
