25
Coordinates from ORCA-job p-CH3O-Ph-N2-X-OTf-B3LYPG-6-31G_dp-scan-d09-49-n400
  C   -3.05778349737782     -1.50926540528104     -4.91347388182302
  C   -1.69914294230455     -1.31016747084570     -5.08437905062943
  C   -1.22598994547138     -0.07405417184886     -5.55111344681578
  C   -2.12314733697141      0.96419155166624     -5.84409080985798
  C   -3.48642938292737      0.76794990101208     -5.67290345351337
  C   -3.96271910801120     -0.47268900434231     -5.20633127522002
  H   -3.45070629860159     -2.45387677153413     -4.55475149984713
  H   -0.98473799400876     -2.09568305579311     -4.86383225155287
  H   -1.74934132497336      1.91719420177230     -6.20293983284989
  H   -4.17004017322659      1.57586621858015     -5.90198225493768
  N   0.17688333419453      0.03604757855008     -5.69752584954317
  N   0.67346738377494      1.04474794203019     -6.09850388390369
  S   3.06703238429778      2.03174050811160     -6.68777619837761
  C   4.78877553045436      1.42053930509767     -6.28592751840533
  O   2.95999299834668      2.10760499522778     -8.13999503650001
  O   2.81297193519999      3.20189832263067     -5.85604223219541
  O   2.31501281584715      0.72767396995868     -6.11042120923952
  F   4.92267834335593      1.24483113285982     -4.97204825236854
  F   5.03382990357697      0.27331273438185     -6.91823271831023
  F   5.65398870829164      2.34922198267708     -6.69910380151063
  O   -5.26697609851785     -0.76305798030546     -5.00838100220344
  C   -6.24767248370808      0.23595651370722     -5.27811255485076
  H   -7.20875735956151     -0.22291558226896     -5.04552336393411
  H   -6.23333970088095      0.53502862582045     -6.33251477240550
  H   -6.10354969079760      1.11810395813573     -4.64409384920485
