25
Coordinates from ORCA-job p-CH3O-Ph-N2-X-OTf-B3LYPG-6-31G_dp-scan-d09-49-n400
  C   -1.92746078730852     -0.59596730763905     -6.30925603067067
  C   -0.92495875920045      0.29662559167299     -6.62360288874745
  C   -1.10239793409319      1.64019324384695     -6.23064063052781
  C   -2.24990788455823      2.08439111084289     -5.53769670491604
  C   -3.23937683431877      1.17182776037267     -5.23188068133199
  C   -3.08472389838649     -0.18043212558037     -5.61791777554143
  H   -1.82929941800728     -1.64106513076687     -6.57911937096572
  H   -0.01535156464009     -0.01918896340538     -7.12454680239439
  H   -2.34629503380519      3.12518076018261     -5.24854332533498
  H   -4.12031283244992      1.50586752095360     -4.69959857243305
  N   -0.16592481268553      2.60434935033909     -6.51366096072377
  N   0.45717277029245      3.51746823294223     -6.67498206856892
  S   2.59636554313159      0.14939854970864     -6.90817113275480
  C   2.84490719059395      0.64647438291108     -5.13338847646964
  O   3.94723620274986      0.04889055438066     -7.46500494432962
  O   1.77473798675141      1.30114775677504     -7.41340046851203
  O   1.80275790794812     -1.09850611557828     -6.80191277169596
  F   1.63892284189255      0.90556653043008     -4.55655014957316
  F   3.43842035217605     -0.31677695377208     -4.42127498440320
  F   3.57988003344779      1.76435203614349     -5.03678659653325
  O   -3.98481497058787     -1.13837777220291     -5.36788785071892
  C   -5.18290804020942     -0.82272503605232     -4.65223265553053
  H   -5.73142292082740     -1.76075407309197     -4.57485835575059
  H   -5.78617870445255     -0.08937822601521     -5.19837251353369
  H   -4.95476643345277     -0.44836167739758     -3.64871328803842
