<?xml version="1.0" encoding="utf-8"  standalone="no"?>
<!DOCTYPE svg PUBLIC "-//W3C//DTD SVG 1.1//EN"
 "http://www.w3.org/Graphics/SVG/1.1/DTD/svg11.dtd">
<svg 
 width="1200" height="900"
 viewBox="0 0 1200 900"
 xmlns="http://www.w3.org/2000/svg"
 xmlns:xlink="http://www.w3.org/1999/xlink"
>

<title>Gnuplot</title>
<desc>Produced by GNUPLOT 5.0 patchlevel 5 </desc>

<g id="gnuplot_canvas">

<rect x="0" y="0" width="1200" height="900" fill="none"/>
<defs>

	<circle id='gpDot' r='0.5' stroke-width='0.5'/>
	<path id='gpPt0' stroke-width='0.095' stroke='currentColor' d='M-1,0 h2 M0,-1 v2'/>
	<path id='gpPt1' stroke-width='0.095' stroke='currentColor' d='M-1,-1 L1,1 M1,-1 L-1,1'/>
	<path id='gpPt2' stroke-width='0.095' stroke='currentColor' d='M-1,0 L1,0 M0,-1 L0,1 M-1,-1 L1,1 M-1,1 L1,-1'/>
	<rect id='gpPt3' stroke-width='0.095' stroke='currentColor' x='-1' y='-1' width='2' height='2'/>
	<rect id='gpPt4' stroke-width='0.095' stroke='currentColor' fill='currentColor' x='-1' y='-1' width='2' height='2'/>
	<circle id='gpPt5' stroke-width='0.095' stroke='currentColor' cx='0' cy='0' r='1'/>
	<use xlink:href='#gpPt5' id='gpPt6' fill='currentColor' stroke='none'/>
	<path id='gpPt7' stroke-width='0.095' stroke='currentColor' d='M0,-1.33 L-1.33,0.67 L1.33,0.67 z'/>
	<use xlink:href='#gpPt7' id='gpPt8' fill='currentColor' stroke='none'/>
	<use xlink:href='#gpPt7' id='gpPt9' stroke='currentColor' transform='rotate(180)'/>
	<use xlink:href='#gpPt9' id='gpPt10' fill='currentColor' stroke='none'/>
	<use xlink:href='#gpPt3' id='gpPt11' stroke='currentColor' transform='rotate(45)'/>
	<use xlink:href='#gpPt11' id='gpPt12' fill='currentColor' stroke='none'/>
	<path id='gpPt13' stroke-width='0.095' stroke='currentColor' d='M0,1.330 L1.265,0.411 L0.782,-1.067 L-0.782,-1.076 L-1.265,0.411 z'/>
	<use xlink:href='#gpPt13' id='gpPt14' fill='currentColor' stroke='none'/>
	<filter id='textbox' filterUnits='objectBoundingBox' x='0' y='0' height='1' width='1'>
	  <feFlood flood-color='white' flood-opacity='1' result='bgnd'/>
	  <feComposite in='SourceGraphic' in2='bgnd' operator='atop'/>
	</filter>
	<filter id='greybox' filterUnits='objectBoundingBox' x='0' y='0' height='1' width='1'>
	  <feFlood flood-color='lightgrey' flood-opacity='1' result='grey'/>
	  <feComposite in='SourceGraphic' in2='grey' operator='atop'/>
	</filter>
</defs>
<g fill="none" color="white" stroke="currentColor" stroke-width="1.00" stroke-linecap="butt" stroke-linejoin="miter">
</g>
<g fill="none" color="black" stroke="currentColor" stroke-width="1.00" stroke-linecap="butt" stroke-linejoin="miter">
	<path stroke='black'  d='M188.2,765.6 L209.2,765.6 M1078.4,765.6 L1057.4,765.6  '/>	<g transform="translate(168.7,774.7)" stroke="none" fill="black" font-family="Helvetica" font-size="28.00"  text-anchor="end">
		<text><tspan font-family="Helvetica" > 0</tspan></text>
	</g>
</g>
<g fill="none" color="black" stroke="currentColor" stroke-width="1.00" stroke-linecap="butt" stroke-linejoin="miter">
	<path stroke='black'  d='M188.2,685.7 L209.2,685.7 M1078.4,685.7 L1057.4,685.7  '/>	<g transform="translate(168.7,694.8)" stroke="none" fill="black" font-family="Helvetica" font-size="28.00"  text-anchor="end">
		<text><tspan font-family="Helvetica" > 200</tspan></text>
	</g>
</g>
<g fill="none" color="black" stroke="currentColor" stroke-width="1.00" stroke-linecap="butt" stroke-linejoin="miter">
	<path stroke='black'  d='M188.2,605.7 L209.2,605.7 M1078.4,605.7 L1057.4,605.7  '/>	<g transform="translate(168.7,614.8)" stroke="none" fill="black" font-family="Helvetica" font-size="28.00"  text-anchor="end">
		<text><tspan font-family="Helvetica" > 400</tspan></text>
	</g>
</g>
<g fill="none" color="black" stroke="currentColor" stroke-width="1.00" stroke-linecap="butt" stroke-linejoin="miter">
	<path stroke='black'  d='M188.2,525.8 L209.2,525.8 M1078.4,525.8 L1057.4,525.8  '/>	<g transform="translate(168.7,534.9)" stroke="none" fill="black" font-family="Helvetica" font-size="28.00"  text-anchor="end">
		<text><tspan font-family="Helvetica" > 600</tspan></text>
	</g>
</g>
<g fill="none" color="black" stroke="currentColor" stroke-width="1.00" stroke-linecap="butt" stroke-linejoin="miter">
	<path stroke='black'  d='M188.2,445.8 L209.2,445.8 M1078.4,445.8 L1057.4,445.8  '/>	<g transform="translate(168.7,454.9)" stroke="none" fill="black" font-family="Helvetica" font-size="28.00"  text-anchor="end">
		<text><tspan font-family="Helvetica" > 800</tspan></text>
	</g>
</g>
<g fill="none" color="black" stroke="currentColor" stroke-width="1.00" stroke-linecap="butt" stroke-linejoin="miter">
	<path stroke='black'  d='M188.2,365.9 L209.2,365.9 M1078.4,365.9 L1057.4,365.9  '/>	<g transform="translate(168.7,375.0)" stroke="none" fill="black" font-family="Helvetica" font-size="28.00"  text-anchor="end">
		<text><tspan font-family="Helvetica" > 1000</tspan></text>
	</g>
</g>
<g fill="none" color="black" stroke="currentColor" stroke-width="1.00" stroke-linecap="butt" stroke-linejoin="miter">
	<path stroke='black'  d='M188.2,286.0 L209.2,286.0 M1078.4,286.0 L1057.4,286.0  '/>	<g transform="translate(168.7,295.1)" stroke="none" fill="black" font-family="Helvetica" font-size="28.00"  text-anchor="end">
		<text><tspan font-family="Helvetica" > 1200</tspan></text>
	</g>
</g>
<g fill="none" color="black" stroke="currentColor" stroke-width="1.00" stroke-linecap="butt" stroke-linejoin="miter">
	<path stroke='black'  d='M188.2,206.0 L209.2,206.0 M1078.4,206.0 L1057.4,206.0  '/>	<g transform="translate(168.7,215.1)" stroke="none" fill="black" font-family="Helvetica" font-size="28.00"  text-anchor="end">
		<text><tspan font-family="Helvetica" > 1400</tspan></text>
	</g>
</g>
<g fill="none" color="black" stroke="currentColor" stroke-width="1.00" stroke-linecap="butt" stroke-linejoin="miter">
	<path stroke='black'  d='M188.2,126.1 L209.2,126.1 M1078.4,126.1 L1057.4,126.1  '/>	<g transform="translate(168.7,135.2)" stroke="none" fill="black" font-family="Helvetica" font-size="28.00"  text-anchor="end">
		<text><tspan font-family="Helvetica" > 1600</tspan></text>
	</g>
</g>
<g fill="none" color="black" stroke="currentColor" stroke-width="1.00" stroke-linecap="butt" stroke-linejoin="miter">
	<path stroke='black'  d='M188.2,765.6 L188.2,744.6 M188.2,126.1 L188.2,147.1  '/>	<g transform="translate(188.2,816.7)" stroke="none" fill="black" font-family="Helvetica" font-size="28.00"  text-anchor="middle">
		<text><tspan font-family="Helvetica" > 100</tspan></text>
	</g>
</g>
<g fill="none" color="black" stroke="currentColor" stroke-width="1.00" stroke-linecap="butt" stroke-linejoin="miter">
	<path stroke='black'  d='M287.1,765.6 L287.1,744.6 M287.1,126.1 L287.1,147.1  '/>	<g transform="translate(287.1,816.7)" stroke="none" fill="black" font-family="Helvetica" font-size="28.00"  text-anchor="middle">
		<text><tspan font-family="Helvetica" > 150</tspan></text>
	</g>
</g>
<g fill="none" color="black" stroke="currentColor" stroke-width="1.00" stroke-linecap="butt" stroke-linejoin="miter">
	<path stroke='black'  d='M386.0,765.6 L386.0,744.6 M386.0,126.1 L386.0,147.1  '/>	<g transform="translate(386.0,816.7)" stroke="none" fill="black" font-family="Helvetica" font-size="28.00"  text-anchor="middle">
		<text><tspan font-family="Helvetica" > 200</tspan></text>
	</g>
</g>
<g fill="none" color="black" stroke="currentColor" stroke-width="1.00" stroke-linecap="butt" stroke-linejoin="miter">
	<path stroke='black'  d='M484.9,765.6 L484.9,744.6 M484.9,126.1 L484.9,147.1  '/>	<g transform="translate(484.9,816.7)" stroke="none" fill="black" font-family="Helvetica" font-size="28.00"  text-anchor="middle">
		<text><tspan font-family="Helvetica" > 250</tspan></text>
	</g>
</g>
<g fill="none" color="black" stroke="currentColor" stroke-width="1.00" stroke-linecap="butt" stroke-linejoin="miter">
	<path stroke='black'  d='M583.8,765.6 L583.8,744.6 M583.8,126.1 L583.8,147.1  '/>	<g transform="translate(583.8,816.7)" stroke="none" fill="black" font-family="Helvetica" font-size="28.00"  text-anchor="middle">
		<text><tspan font-family="Helvetica" > 300</tspan></text>
	</g>
</g>
<g fill="none" color="black" stroke="currentColor" stroke-width="1.00" stroke-linecap="butt" stroke-linejoin="miter">
	<path stroke='black'  d='M682.8,765.6 L682.8,744.6 M682.8,126.1 L682.8,147.1  '/>	<g transform="translate(682.8,816.7)" stroke="none" fill="black" font-family="Helvetica" font-size="28.00"  text-anchor="middle">
		<text><tspan font-family="Helvetica" > 350</tspan></text>
	</g>
</g>
<g fill="none" color="black" stroke="currentColor" stroke-width="1.00" stroke-linecap="butt" stroke-linejoin="miter">
	<path stroke='black'  d='M781.7,765.6 L781.7,744.6 M781.7,126.1 L781.7,147.1  '/>	<g transform="translate(781.7,816.7)" stroke="none" fill="black" font-family="Helvetica" font-size="28.00"  text-anchor="middle">
		<text><tspan font-family="Helvetica" > 400</tspan></text>
	</g>
</g>
<g fill="none" color="black" stroke="currentColor" stroke-width="1.00" stroke-linecap="butt" stroke-linejoin="miter">
	<path stroke='black'  d='M880.6,765.6 L880.6,744.6 M880.6,126.1 L880.6,147.1  '/>	<g transform="translate(880.6,816.7)" stroke="none" fill="black" font-family="Helvetica" font-size="28.00"  text-anchor="middle">
		<text><tspan font-family="Helvetica" > 450</tspan></text>
	</g>
</g>
<g fill="none" color="black" stroke="currentColor" stroke-width="1.00" stroke-linecap="butt" stroke-linejoin="miter">
	<path stroke='black'  d='M979.5,765.6 L979.5,744.6 M979.5,126.1 L979.5,147.1  '/>	<g transform="translate(979.5,816.7)" stroke="none" fill="black" font-family="Helvetica" font-size="28.00"  text-anchor="middle">
		<text><tspan font-family="Helvetica" > 500</tspan></text>
	</g>
</g>
<g fill="none" color="black" stroke="currentColor" stroke-width="1.00" stroke-linecap="butt" stroke-linejoin="miter">
	<path stroke='black'  d='M1078.4,765.6 L1078.4,744.6 M1078.4,126.1 L1078.4,147.1  '/>	<g transform="translate(1078.4,816.7)" stroke="none" fill="black" font-family="Helvetica" font-size="28.00"  text-anchor="middle">
		<text><tspan font-family="Helvetica" > 550</tspan></text>
	</g>
</g>
<g fill="none" color="black" stroke="currentColor" stroke-width="1.00" stroke-linecap="butt" stroke-linejoin="miter">
</g>
<g fill="none" color="black" stroke="currentColor" stroke-width="1.00" stroke-linecap="butt" stroke-linejoin="miter">
	<path stroke='black'  d='M188.2,126.1 L188.2,765.6 L1078.4,765.6 L1078.4,126.1 L188.2,126.1 Z  '/></g>
<g fill="none" color="black" stroke="currentColor" stroke-width="1.00" stroke-linecap="butt" stroke-linejoin="miter">
	<g transform="translate(39.8,445.9) rotate(270)" stroke="none" fill="black" font-family="Helvetica-Bold" font-size="28.00"  text-anchor="middle">
		<text><tspan font-family="Helvetica-Bold" >Ambulanse, abs.</tspan></text>
	</g>
</g>
<g fill="none" color="black" stroke="currentColor" stroke-width="1.00" stroke-linecap="butt" stroke-linejoin="miter">
	<g transform="translate(1129.4,445.9) rotate(270)" stroke="none" fill="black" font-family="Helvetica-Bold" font-size="28.00"  text-anchor="middle">
		<text><tspan font-family="Helvetica-Bold" >Ambulanse, %</tspan></text>
	</g>
</g>
<g fill="none" color="black" stroke="currentColor" stroke-width="1.00" stroke-linecap="butt" stroke-linejoin="miter">
	<g transform="translate(633.3,879.7)" stroke="none" fill="black" font-family="Helvetica-Bold" font-size="28.00"  text-anchor="middle">
		<text><tspan font-family="Helvetica-Bold" >M/Z, a.e.m.</tspan></text>
	</g>
</g>
<g fill="none" color="black" stroke="currentColor" stroke-width="1.00" stroke-linecap="butt" stroke-linejoin="miter">
	<g transform="translate(633.3,72.2)" stroke="none" fill="black" font-family="Helvetica" font-size="28.00"  text-anchor="middle">
		<text><tspan font-family="Helvetica" >Integrate MS2 Spectr</tspan></text>
	</g>
</g>
	<g id="gnuplot_plot_1" ><title>261</title>
<g fill="none" color="white" stroke="black" stroke-width="5.00" stroke-linecap="butt" stroke-linejoin="miter">
</g>
<g fill="none" color="black" stroke="currentColor" stroke-width="5.00" stroke-linecap="butt" stroke-linejoin="miter">
	<path stroke='black'  d='M285.2,765.6 L285.2,717.6 M291.4,765.6 L291.4,197.2 M295.3,765.6 L295.3,720.8 M303.0,765.6 L303.0,721.6
		M489.3,765.6 L489.3,657.3 M1029.6,765.6 L1029.6,725.2  '/></g>
	</g>
	<g id="gnuplot_plot_2" ><title>18.4</title>
<g fill="none" color="black" stroke="currentColor" stroke-width="5.00" stroke-linecap="butt" stroke-linejoin="miter">
	<path stroke='black'  d='M285.2,765.6 L285.2,711.2 M291.4,765.6 L291.4,126.1 M295.3,765.6 L295.3,715.1 M303.0,765.6 L303.0,715.7
		M489.3,765.6 L489.3,643.5 M1029.6,765.6 L1029.6,720.2  '/></g>
	</g>
<g fill="none" color="white" stroke="black" stroke-width="2.00" stroke-linecap="butt" stroke-linejoin="miter">
</g>
<g fill="none" color="black" stroke="currentColor" stroke-width="2.00" stroke-linecap="butt" stroke-linejoin="miter">
</g>
<g fill="none" color="black" stroke="black" stroke-width="1.00" stroke-linecap="butt" stroke-linejoin="miter">
</g>
<g fill="none" color="black" stroke="currentColor" stroke-width="1.00" stroke-linecap="butt" stroke-linejoin="miter">
	<path stroke='black'  d='M188.2,126.1 L188.2,765.6 L1078.4,765.6 L1078.4,126.1 L188.2,126.1 Z  '/></g>
<g fill="none" color="black" stroke="currentColor" stroke-width="1.00" stroke-linecap="butt" stroke-linejoin="miter">
</g>
</g>
</svg>

