<?xml version="1.0" encoding="utf-8"  standalone="no"?>
<!DOCTYPE svg PUBLIC "-//W3C//DTD SVG 1.1//EN"
 "http://www.w3.org/Graphics/SVG/1.1/DTD/svg11.dtd">
<svg 
 width="1200" height="900"
 viewBox="0 0 1200 900"
 xmlns="http://www.w3.org/2000/svg"
 xmlns:xlink="http://www.w3.org/1999/xlink"
>

<title>Gnuplot</title>
<desc>Produced by GNUPLOT 5.0 patchlevel 5 </desc>

<g id="gnuplot_canvas">

<rect x="0" y="0" width="1200" height="900" fill="none"/>
<defs>

	<circle id='gpDot' r='0.5' stroke-width='0.5'/>
	<path id='gpPt0' stroke-width='0.095' stroke='currentColor' d='M-1,0 h2 M0,-1 v2'/>
	<path id='gpPt1' stroke-width='0.095' stroke='currentColor' d='M-1,-1 L1,1 M1,-1 L-1,1'/>
	<path id='gpPt2' stroke-width='0.095' stroke='currentColor' d='M-1,0 L1,0 M0,-1 L0,1 M-1,-1 L1,1 M-1,1 L1,-1'/>
	<rect id='gpPt3' stroke-width='0.095' stroke='currentColor' x='-1' y='-1' width='2' height='2'/>
	<rect id='gpPt4' stroke-width='0.095' stroke='currentColor' fill='currentColor' x='-1' y='-1' width='2' height='2'/>
	<circle id='gpPt5' stroke-width='0.095' stroke='currentColor' cx='0' cy='0' r='1'/>
	<use xlink:href='#gpPt5' id='gpPt6' fill='currentColor' stroke='none'/>
	<path id='gpPt7' stroke-width='0.095' stroke='currentColor' d='M0,-1.33 L-1.33,0.67 L1.33,0.67 z'/>
	<use xlink:href='#gpPt7' id='gpPt8' fill='currentColor' stroke='none'/>
	<use xlink:href='#gpPt7' id='gpPt9' stroke='currentColor' transform='rotate(180)'/>
	<use xlink:href='#gpPt9' id='gpPt10' fill='currentColor' stroke='none'/>
	<use xlink:href='#gpPt3' id='gpPt11' stroke='currentColor' transform='rotate(45)'/>
	<use xlink:href='#gpPt11' id='gpPt12' fill='currentColor' stroke='none'/>
	<path id='gpPt13' stroke-width='0.095' stroke='currentColor' d='M0,1.330 L1.265,0.411 L0.782,-1.067 L-0.782,-1.076 L-1.265,0.411 z'/>
	<use xlink:href='#gpPt13' id='gpPt14' fill='currentColor' stroke='none'/>
	<filter id='textbox' filterUnits='objectBoundingBox' x='0' y='0' height='1' width='1'>
	  <feFlood flood-color='white' flood-opacity='1' result='bgnd'/>
	  <feComposite in='SourceGraphic' in2='bgnd' operator='atop'/>
	</filter>
	<filter id='greybox' filterUnits='objectBoundingBox' x='0' y='0' height='1' width='1'>
	  <feFlood flood-color='lightgrey' flood-opacity='1' result='grey'/>
	  <feComposite in='SourceGraphic' in2='grey' operator='atop'/>
	</filter>
</defs>
<g fill="none" color="white" stroke="currentColor" stroke-width="1.00" stroke-linecap="butt" stroke-linejoin="miter">
</g>
<g fill="none" color="black" stroke="currentColor" stroke-width="1.00" stroke-linecap="butt" stroke-linejoin="miter">
	<path stroke='black'  d='M227.2,765.6 L248.2,765.6 M1078.4,765.6 L1057.4,765.6  '/>	<g transform="translate(207.7,774.7)" stroke="none" fill="black" font-family="Helvetica" font-size="28.00"  text-anchor="end">
		<text><tspan font-family="Helvetica" > 0</tspan></text>
	</g>
</g>
<g fill="none" color="black" stroke="currentColor" stroke-width="1.00" stroke-linecap="butt" stroke-linejoin="miter">
	<path stroke='black'  d='M227.2,659.0 L248.2,659.0 M1078.4,659.0 L1057.4,659.0  '/>	<g transform="translate(207.7,668.1)" stroke="none" fill="black" font-family="Helvetica" font-size="28.00"  text-anchor="end">
		<text><tspan font-family="Helvetica" > 20000</tspan></text>
	</g>
</g>
<g fill="none" color="black" stroke="currentColor" stroke-width="1.00" stroke-linecap="butt" stroke-linejoin="miter">
	<path stroke='black'  d='M227.2,552.4 L248.2,552.4 M1078.4,552.4 L1057.4,552.4  '/>	<g transform="translate(207.7,561.5)" stroke="none" fill="black" font-family="Helvetica" font-size="28.00"  text-anchor="end">
		<text><tspan font-family="Helvetica" > 40000</tspan></text>
	</g>
</g>
<g fill="none" color="black" stroke="currentColor" stroke-width="1.00" stroke-linecap="butt" stroke-linejoin="miter">
	<path stroke='black'  d='M227.2,445.8 L248.2,445.8 M1078.4,445.8 L1057.4,445.8  '/>	<g transform="translate(207.7,454.9)" stroke="none" fill="black" font-family="Helvetica" font-size="28.00"  text-anchor="end">
		<text><tspan font-family="Helvetica" > 60000</tspan></text>
	</g>
</g>
<g fill="none" color="black" stroke="currentColor" stroke-width="1.00" stroke-linecap="butt" stroke-linejoin="miter">
	<path stroke='black'  d='M227.2,339.3 L248.2,339.3 M1078.4,339.3 L1057.4,339.3  '/>	<g transform="translate(207.7,348.4)" stroke="none" fill="black" font-family="Helvetica" font-size="28.00"  text-anchor="end">
		<text><tspan font-family="Helvetica" > 80000</tspan></text>
	</g>
</g>
<g fill="none" color="black" stroke="currentColor" stroke-width="1.00" stroke-linecap="butt" stroke-linejoin="miter">
	<path stroke='black'  d='M227.2,232.7 L248.2,232.7 M1078.4,232.7 L1057.4,232.7  '/>	<g transform="translate(207.7,241.8)" stroke="none" fill="black" font-family="Helvetica" font-size="28.00"  text-anchor="end">
		<text><tspan font-family="Helvetica" > 100000</tspan></text>
	</g>
</g>
<g fill="none" color="black" stroke="currentColor" stroke-width="1.00" stroke-linecap="butt" stroke-linejoin="miter">
	<path stroke='black'  d='M227.2,126.1 L248.2,126.1 M1078.4,126.1 L1057.4,126.1  '/>	<g transform="translate(207.7,135.2)" stroke="none" fill="black" font-family="Helvetica" font-size="28.00"  text-anchor="end">
		<text><tspan font-family="Helvetica" > 120000</tspan></text>
	</g>
</g>
<g fill="none" color="black" stroke="currentColor" stroke-width="1.00" stroke-linecap="butt" stroke-linejoin="miter">
	<path stroke='black'  d='M227.2,765.6 L227.2,744.6 M227.2,126.1 L227.2,147.1  '/>	<g transform="translate(227.2,816.7)" stroke="none" fill="black" font-family="Helvetica" font-size="28.00"  text-anchor="middle">
		<text><tspan font-family="Helvetica" > 0</tspan></text>
	</g>
</g>
<g fill="none" color="black" stroke="currentColor" stroke-width="1.00" stroke-linecap="butt" stroke-linejoin="miter">
	<path stroke='black'  d='M333.6,765.6 L333.6,744.6 M333.6,126.1 L333.6,147.1  '/>	<g transform="translate(333.6,816.7)" stroke="none" fill="black" font-family="Helvetica" font-size="28.00"  text-anchor="middle">
		<text><tspan font-family="Helvetica" > 10</tspan></text>
	</g>
</g>
<g fill="none" color="black" stroke="currentColor" stroke-width="1.00" stroke-linecap="butt" stroke-linejoin="miter">
	<path stroke='black'  d='M440.0,765.6 L440.0,744.6 M440.0,126.1 L440.0,147.1  '/>	<g transform="translate(440.0,816.7)" stroke="none" fill="black" font-family="Helvetica" font-size="28.00"  text-anchor="middle">
		<text><tspan font-family="Helvetica" > 20</tspan></text>
	</g>
</g>
<g fill="none" color="black" stroke="currentColor" stroke-width="1.00" stroke-linecap="butt" stroke-linejoin="miter">
	<path stroke='black'  d='M546.4,765.6 L546.4,744.6 M546.4,126.1 L546.4,147.1  '/>	<g transform="translate(546.4,816.7)" stroke="none" fill="black" font-family="Helvetica" font-size="28.00"  text-anchor="middle">
		<text><tspan font-family="Helvetica" > 30</tspan></text>
	</g>
</g>
<g fill="none" color="black" stroke="currentColor" stroke-width="1.00" stroke-linecap="butt" stroke-linejoin="miter">
	<path stroke='black'  d='M652.8,765.6 L652.8,744.6 M652.8,126.1 L652.8,147.1  '/>	<g transform="translate(652.8,816.7)" stroke="none" fill="black" font-family="Helvetica" font-size="28.00"  text-anchor="middle">
		<text><tspan font-family="Helvetica" > 40</tspan></text>
	</g>
</g>
<g fill="none" color="black" stroke="currentColor" stroke-width="1.00" stroke-linecap="butt" stroke-linejoin="miter">
	<path stroke='black'  d='M759.2,765.6 L759.2,744.6 M759.2,126.1 L759.2,147.1  '/>	<g transform="translate(759.2,816.7)" stroke="none" fill="black" font-family="Helvetica" font-size="28.00"  text-anchor="middle">
		<text><tspan font-family="Helvetica" > 50</tspan></text>
	</g>
</g>
<g fill="none" color="black" stroke="currentColor" stroke-width="1.00" stroke-linecap="butt" stroke-linejoin="miter">
	<path stroke='black'  d='M865.6,765.6 L865.6,744.6 M865.6,126.1 L865.6,147.1  '/>	<g transform="translate(865.6,816.7)" stroke="none" fill="black" font-family="Helvetica" font-size="28.00"  text-anchor="middle">
		<text><tspan font-family="Helvetica" > 60</tspan></text>
	</g>
</g>
<g fill="none" color="black" stroke="currentColor" stroke-width="1.00" stroke-linecap="butt" stroke-linejoin="miter">
	<path stroke='black'  d='M972.0,765.6 L972.0,744.6 M972.0,126.1 L972.0,147.1  '/>	<g transform="translate(972.0,816.7)" stroke="none" fill="black" font-family="Helvetica" font-size="28.00"  text-anchor="middle">
		<text><tspan font-family="Helvetica" > 70</tspan></text>
	</g>
</g>
<g fill="none" color="black" stroke="currentColor" stroke-width="1.00" stroke-linecap="butt" stroke-linejoin="miter">
	<path stroke='black'  d='M1078.4,765.6 L1078.4,744.6 M1078.4,126.1 L1078.4,147.1  '/>	<g transform="translate(1078.4,816.7)" stroke="none" fill="black" font-family="Helvetica" font-size="28.00"  text-anchor="middle">
		<text><tspan font-family="Helvetica" > 80</tspan></text>
	</g>
</g>
<g fill="none" color="black" stroke="currentColor" stroke-width="1.00" stroke-linecap="butt" stroke-linejoin="miter">
</g>
<g fill="none" color="black" stroke="currentColor" stroke-width="1.00" stroke-linecap="butt" stroke-linejoin="miter">
	<path stroke='black'  d='M227.2,126.1 L227.2,765.6 L1078.4,765.6 L1078.4,126.1 L227.2,126.1 Z  '/></g>
<g fill="none" color="black" stroke="currentColor" stroke-width="1.00" stroke-linecap="butt" stroke-linejoin="miter">
	<g transform="translate(39.8,445.9) rotate(270)" stroke="none" fill="black" font-family="Helvetica-Bold" font-size="28.00"  text-anchor="middle">
		<text><tspan font-family="Helvetica-Bold" >Ambulanse, abs.</tspan></text>
	</g>
</g>
<g fill="none" color="black" stroke="currentColor" stroke-width="1.00" stroke-linecap="butt" stroke-linejoin="miter">
	<g transform="translate(1129.4,445.9) rotate(270)" stroke="none" fill="black" font-family="Helvetica-Bold" font-size="28.00"  text-anchor="middle">
		<text><tspan font-family="Helvetica-Bold" >Ambulanse, %</tspan></text>
	</g>
</g>
<g fill="none" color="black" stroke="currentColor" stroke-width="1.00" stroke-linecap="butt" stroke-linejoin="miter">
	<g transform="translate(652.8,879.7)" stroke="none" fill="black" font-family="Helvetica-Bold" font-size="28.00"  text-anchor="middle">
		<text><tspan font-family="Helvetica-Bold" >M/Z, a.e.m.</tspan></text>
	</g>
</g>
<g fill="none" color="black" stroke="currentColor" stroke-width="1.00" stroke-linecap="butt" stroke-linejoin="miter">
	<g transform="translate(652.8,72.2)" stroke="none" fill="black" font-family="Helvetica" font-size="28.00"  text-anchor="middle">
		<text><tspan font-family="Helvetica" >Integrate MS2 [4-NO2C6H4N2-BF4] 40.00 eV</tspan></text>
	</g>
</g>
	<g id="gnuplot_plot_1" ><title>17922</title>
<g fill="none" color="white" stroke="black" stroke-width="5.00" stroke-linecap="butt" stroke-linejoin="miter">
</g>
<g fill="none" color="black" stroke="currentColor" stroke-width="5.00" stroke-linecap="butt" stroke-linejoin="miter">
	<path stroke='black'  d='M897.9,765.6 L897.9,691.2 M908.6,765.6 L908.6,752.7 M961.3,765.6 L961.3,762.7 M1014.9,765.6 L1014.9,508.5
		M1025.6,765.6 L1025.6,138.6 M1036.3,765.6 L1036.3,701.8  '/></g>
	</g>
	<g id="gnuplot_plot_2" ><title>15.2</title>
<g fill="none" color="black" stroke="currentColor" stroke-width="5.00" stroke-linecap="butt" stroke-linejoin="miter">
	<path stroke='black'  d='M897.9,765.6 L897.9,689.5 M908.6,765.6 L908.6,752.2 M961.3,765.6 L961.3,762.4 M1014.9,765.6 L1014.9,503.4
		M1025.6,765.6 L1025.6,126.1 M1036.3,765.6 L1036.3,700.4  '/></g>
	</g>
<g fill="none" color="white" stroke="black" stroke-width="2.00" stroke-linecap="butt" stroke-linejoin="miter">
</g>
<g fill="none" color="black" stroke="currentColor" stroke-width="2.00" stroke-linecap="butt" stroke-linejoin="miter">
</g>
<g fill="none" color="black" stroke="black" stroke-width="1.00" stroke-linecap="butt" stroke-linejoin="miter">
</g>
<g fill="none" color="black" stroke="currentColor" stroke-width="1.00" stroke-linecap="butt" stroke-linejoin="miter">
	<path stroke='black'  d='M227.2,126.1 L227.2,765.6 L1078.4,765.6 L1078.4,126.1 L227.2,126.1 Z  '/></g>
<g fill="none" color="black" stroke="currentColor" stroke-width="1.00" stroke-linecap="butt" stroke-linejoin="miter">
</g>
</g>
</svg>

