35
Coordinates from ORCA-job p-CH3O-Ph-N2-OTs-B3LYP-6-31G_dp-scan-d09-49-n400
  C   -0.39383156544619      0.01326446628777     -2.58116467422773
  C   0.43961844298568      0.97530662886858     -3.14565632641003
  C   0.08418965491804      2.25935974929812     -2.80172828215990
  C   -0.93807246029368      2.71923229407499     -2.00739550925866
  C   -1.74186142958296      1.71876051695422     -1.45367193129513
  C   -1.46965610492035      0.36756381652829     -1.74081374626940
  H   -0.21265385584621     -1.03824438823291     -2.77682934580002
  H   1.29849331526219      0.73602711758902     -3.78423028732771
  H   -1.11055759295936      3.77043983273342     -1.81527696154306
  H   -2.56449913272891      2.00605112454347     -0.81127407268369
  N   1.03893108725794      3.52940870690159     -3.49132689109588
  N   1.74663454786869      4.20426481633114     -4.02445485802240
  C   5.94417824522042      0.51447907858963     -5.09060012335335
  C   7.28477796104328      0.13240940439572     -5.08672729199351
  C   8.13267141574697      0.47135323034175     -4.02194149682096
  C   7.59873307808098      1.20827890838253     -2.95521316546034
  C   6.25981200616081      1.59780829727377     -2.94680836436182
  C   5.43591650850583      1.24886851119813     -4.01762397150823
  H   5.28609309585434      0.23980399122169     -5.90832467733830
  H   7.68029184008410     -0.44020498444298     -5.92302170728680
  H   8.24039256010522      1.47920328756389     -2.11950312952891
  H   5.84269047514458      2.15656298479553     -2.11536084949399
  S   3.72617273287800      1.79728018074842     -4.03494203623578
  O   3.29815586531432      1.93128643148760     -2.61321999584806
  O   2.96477138628116      0.74328582411388     -4.77650340270645
  O   3.72294737055989      3.12203110487703     -4.74867660717155
  C   9.57643613194252      0.02466569098335     -4.00978624971782
  H   9.67906799128999     -0.97234985641239     -3.56162893364720
  H   9.98726072520680     -0.03270697005047     -5.02276918963139
  H   10.20264209712915      0.70769657622778     -3.42744803900190
  O   -2.18752051348488     -0.66889030183829     -1.25698624605914
  C   -3.28453582486345     -0.40599837471920     -0.38582615478075
  H   -3.69505856970934     -1.38121876584104     -0.12453607110212
  H   -4.05703314945629      0.19140544671074     -0.88557367788209
  H   -2.95529833554936      0.10531562251525      0.52664426702390
