35
Coordinates from ORCA-job p-CH3O-Ph-N2-OTs-B3LYP-6-31G_dp-scan-d09-49-n400
  C   -0.65703011018445     -0.73321203278500     -2.21202244579463
  C   0.69798397782817     -0.59723823002122     -2.48331191634809
  C   1.22704803966124      0.67652917284070     -2.70486764237769
  C   0.41612973652741      1.80519712749477     -2.66741037318877
  C   -0.94792474782732      1.67036758223957     -2.39520116898195
  C   -1.48824914719496      0.39808010139780     -2.16602085727808
  H   -1.09906925041905     -1.70780043660489     -2.03278860515460
  H   1.34953066883172     -1.46289579284779     -2.52705012958029
  H   0.85077087815055      2.78141383128907     -2.85168117782056
  H   -1.57050485883757      2.55691261733921     -2.36835064351541
  N   4.52191867641050      2.34010730829902     -0.09754581923036
  N   4.99748013852037      1.36732877076642     -0.31972338650706
  C   5.64421867525091     -0.15997523807215     -3.88258086118824
  C   7.00515904367634      0.01013405866567     -3.64973608945782
  C   7.60118246651934      1.28044459219548     -3.71857317971633
  C   6.79460239202420      2.38317872566191     -4.03023060399197
  C   5.42768816863515      2.23470301786570     -4.26440895607260
  C   4.86653972926010      0.96116704648791     -4.18407156937890
  H   5.18717036383816     -1.14295958834144     -3.84399337143880
  H   7.61769132224940     -0.85644334667633     -3.41452990305800
  H   7.24173559989789      3.37139551116877     -4.09598172160766
  H   4.80459413052484      3.08552360858598     -4.51743017141209
  S   3.12634836046779      0.75457504240266     -4.50021341044301
  O   2.61118653286915      0.82493283339990     -2.90843544005513
  O   2.86936160712590     -0.59283055715216     -5.00509419822950
  O   2.60783314291677      1.92523959172147     -5.20540510651212
  C   9.08144090753491      1.44221369474648     -3.46891905926735
  H   9.66934032413292      0.87758637018659     -4.20154229480656
  H   9.38696572374469      2.48991699748787     -3.52905076759346
  H   9.35789829950930      1.06594361771467     -2.47736714386111
  O   -2.80139386529264      0.15230824459850     -1.88972647264865
  C   -3.69655011487235      1.25220480443007     -1.84404343419752
  H   -4.67803210515248      0.83287723109521     -1.61666246502616
  H   -3.74289672050409      1.77688958306896     -2.80751122226231
  H   -3.41986798582297      1.96798413935064     -1.05871839199735
