35
Coordinates from ORCA-job p-CH3O-Ph-N2-OTs-B3LYP-6-31G_dp-scan-d09-49-n400
  C   -0.64275874000450     -0.72706074764046     -2.23654870162024
  C   0.71219811046690     -0.61247402521645     -2.51838826722325
  C   1.26496528626041      0.65529837356677     -2.71596276914069
  C   0.47753614965570      1.79866368187775     -2.64345236528588
  C   -0.88597452836758      1.68571087816076     -2.35932996997423
  C   -1.45006979529181      0.41953680556311     -2.15484675113874
  H   -1.10295740291879     -1.69645843589251     -2.07582726684792
  H   1.34535084875555     -1.48987210415648     -2.58922675340922
  H   0.93061071302864      2.76996491521541     -2.80853444387599
  H   -1.48975815887739      2.58390379996426     -2.30443964171562
  N   3.90790838851787      2.21648849698208     -0.04659785988185
  N   4.51280328955372      1.29769461144502     -0.15442127212698
  C   5.69205391908531     -0.17634194707850     -3.91230045868009
  C   7.04989371334529      0.01912037351244     -3.68013598333114
  C   7.62244324980520      1.30006908472954     -3.75044042711180
  C   6.79628254780163      2.38690093374549     -4.06714002185348
  C   5.43253926106319      2.21289050352682     -4.30145037345539
  C   4.89435452706065      0.92971512605318     -4.21639478163746
  H   5.25282506573095     -1.16733962394210     -3.87176017793703
  H   7.67832355935027     -0.83575822532770     -3.44405664561220
  H   7.22546684556751      3.38282527638374     -4.13647058880754
  H   4.79454465193984      3.05131580053471     -4.55862085495941
  S   3.15661114367181      0.69344683208029     -4.52339476648057
  O   2.64951898103746      0.78335501066124     -2.92966464740235
  O   2.91651002495716     -0.66577753231926     -5.00446701793439
  O   2.61759331429396      1.84470708932395     -5.24471671989349
  C   9.09667331383573      1.49190480860585     -3.48709716522990
  H   9.70175297716283      0.83489618724640     -4.12092116471919
  H   9.40766527066168      2.52284390512047     -3.67530199342939
  H   9.34436778336662      1.25187023640129     -2.44624221199845
  O   -2.76508896685275      0.19403742412230     -1.87041544240945
  C   -3.63741313822094      1.31021697122223     -1.79161262210083
  H   -4.62489631396367      0.90557423210272     -1.56366439745485
  H   -3.68235969505432      1.85694904841714     -2.74285661933190
  H   -3.33921619642443      2.00298223500853     -0.99349885598929
