35
Coordinates from ORCA-job p-CH3O-Ph-N2-OTs-B3LYP-6-31G_dp-scan-d09-49-n400
  C   -0.47823528822145     -0.00352372608540     -2.57395244262809
  C   0.40020589128140      0.91680228706258     -3.11681741464637
  C   0.16037680581706      2.26138411120317     -2.80100814734343
  C   -0.88151307810638      2.71316280401453     -1.99080818638471
  C   -1.74010263410574      1.76701055617709     -1.44763501238976
  C   -1.53982045320523      0.40230851792535     -1.73840906348295
  H   -0.35653615926188     -1.06229715538814     -2.77499066907576
  H   1.23811412244881      0.62364305216954     -3.75067348032161
  H   -1.01098108306389      3.77005115743437     -1.78645171028406
  H   -2.55228951853261      2.09264006296489     -0.81032256072792
  N   1.04465089757649      3.30491366344895     -3.37005144665565
  N   1.76921096819734      4.00624888943949     -3.86083787885024
  C   6.00325202111680      0.50755667291635     -5.12292759968888
  C   7.36335055671215      0.20162250318540     -5.13639203252525
  C   8.19418180385562      0.54259103253281     -4.05919448765728
  C   7.62333751855561      1.20308606763773     -2.96160838171626
  C   6.26502057725515      1.51632932385121     -2.93556700103178
  C   5.45855963704007      1.16660234144142     -4.01962991034733
  H   5.35871982795719      0.23062839748350     -5.95059022662181
  H   7.78755547185561     -0.31223418250729     -5.99634746839144
  H   8.25139288988930      1.47434359325783     -2.11571817623722
  H   5.81995649754121      2.01527183828590     -2.08096606391399
  S   3.72018387735391      1.61320359338188     -4.01322929191585
  O   3.29366233765656      1.68506720035027     -2.58697122142327
  O   3.01283581068337      0.55625763443037     -4.79257021335255
  O   3.64252799587995      2.96840935670767     -4.67846529932898
  C   9.66082932486610      0.17823960560031     -4.06579536070431
  H   9.82862932107583     -0.79869325096226     -3.59350742961147
  H   10.05445698446889      0.11696132119569     -5.08509050354375
  H   10.25878674794022      0.91049020213543     -3.51399685094522
  O   -2.31443807782184     -0.59224783893342     -1.26545745057341
  C   -3.40670432978818     -0.27877918566200     -0.40195174796961
  H   -3.86687167327890     -1.23425519494469     -0.15089417507634
  H   -4.14224638672752      0.35873179402485     -0.90689336262172
  H   -3.05975920491112      0.21027295422460      0.51552226798811
