<?xml version="1.0" encoding="utf-8"  standalone="no"?>
<!DOCTYPE svg PUBLIC "-//W3C//DTD SVG 1.1//EN"
 "http://www.w3.org/Graphics/SVG/1.1/DTD/svg11.dtd">
<svg 
 width="1200" height="900"
 viewBox="0 0 1200 900"
 xmlns="http://www.w3.org/2000/svg"
 xmlns:xlink="http://www.w3.org/1999/xlink"
>

<title>Gnuplot</title>
<desc>Produced by GNUPLOT 5.0 patchlevel 5 </desc>

<g id="gnuplot_canvas">

<rect x="0" y="0" width="1200" height="900" fill="none"/>
<defs>

	<circle id='gpDot' r='0.5' stroke-width='0.5'/>
	<path id='gpPt0' stroke-width='0.095' stroke='currentColor' d='M-1,0 h2 M0,-1 v2'/>
	<path id='gpPt1' stroke-width='0.095' stroke='currentColor' d='M-1,-1 L1,1 M1,-1 L-1,1'/>
	<path id='gpPt2' stroke-width='0.095' stroke='currentColor' d='M-1,0 L1,0 M0,-1 L0,1 M-1,-1 L1,1 M-1,1 L1,-1'/>
	<rect id='gpPt3' stroke-width='0.095' stroke='currentColor' x='-1' y='-1' width='2' height='2'/>
	<rect id='gpPt4' stroke-width='0.095' stroke='currentColor' fill='currentColor' x='-1' y='-1' width='2' height='2'/>
	<circle id='gpPt5' stroke-width='0.095' stroke='currentColor' cx='0' cy='0' r='1'/>
	<use xlink:href='#gpPt5' id='gpPt6' fill='currentColor' stroke='none'/>
	<path id='gpPt7' stroke-width='0.095' stroke='currentColor' d='M0,-1.33 L-1.33,0.67 L1.33,0.67 z'/>
	<use xlink:href='#gpPt7' id='gpPt8' fill='currentColor' stroke='none'/>
	<use xlink:href='#gpPt7' id='gpPt9' stroke='currentColor' transform='rotate(180)'/>
	<use xlink:href='#gpPt9' id='gpPt10' fill='currentColor' stroke='none'/>
	<use xlink:href='#gpPt3' id='gpPt11' stroke='currentColor' transform='rotate(45)'/>
	<use xlink:href='#gpPt11' id='gpPt12' fill='currentColor' stroke='none'/>
	<path id='gpPt13' stroke-width='0.095' stroke='currentColor' d='M0,1.330 L1.265,0.411 L0.782,-1.067 L-0.782,-1.076 L-1.265,0.411 z'/>
	<use xlink:href='#gpPt13' id='gpPt14' fill='currentColor' stroke='none'/>
	<filter id='textbox' filterUnits='objectBoundingBox' x='0' y='0' height='1' width='1'>
	  <feFlood flood-color='white' flood-opacity='1' result='bgnd'/>
	  <feComposite in='SourceGraphic' in2='bgnd' operator='atop'/>
	</filter>
	<filter id='greybox' filterUnits='objectBoundingBox' x='0' y='0' height='1' width='1'>
	  <feFlood flood-color='lightgrey' flood-opacity='1' result='grey'/>
	  <feComposite in='SourceGraphic' in2='grey' operator='atop'/>
	</filter>
</defs>
<g fill="none" color="white" stroke="currentColor" stroke-width="1.00" stroke-linecap="butt" stroke-linejoin="miter">
</g>
<g fill="none" color="black" stroke="currentColor" stroke-width="1.00" stroke-linecap="butt" stroke-linejoin="miter">
	<path stroke='black'  d='M227.2,765.6 L248.2,765.6 M1078.4,765.6 L1057.4,765.6  '/>	<g transform="translate(207.7,774.7)" stroke="none" fill="black" font-family="Helvetica" font-size="28.00"  text-anchor="end">
		<text><tspan font-family="Helvetica" > 0</tspan></text>
	</g>
</g>
<g fill="none" color="black" stroke="currentColor" stroke-width="1.00" stroke-linecap="butt" stroke-linejoin="miter">
	<path stroke='black'  d='M227.2,659.0 L248.2,659.0 M1078.4,659.0 L1057.4,659.0  '/>	<g transform="translate(207.7,668.1)" stroke="none" fill="black" font-family="Helvetica" font-size="28.00"  text-anchor="end">
		<text><tspan font-family="Helvetica" > 200000</tspan></text>
	</g>
</g>
<g fill="none" color="black" stroke="currentColor" stroke-width="1.00" stroke-linecap="butt" stroke-linejoin="miter">
	<path stroke='black'  d='M227.2,552.4 L248.2,552.4 M1078.4,552.4 L1057.4,552.4  '/>	<g transform="translate(207.7,561.5)" stroke="none" fill="black" font-family="Helvetica" font-size="28.00"  text-anchor="end">
		<text><tspan font-family="Helvetica" > 400000</tspan></text>
	</g>
</g>
<g fill="none" color="black" stroke="currentColor" stroke-width="1.00" stroke-linecap="butt" stroke-linejoin="miter">
	<path stroke='black'  d='M227.2,445.8 L248.2,445.8 M1078.4,445.8 L1057.4,445.8  '/>	<g transform="translate(207.7,454.9)" stroke="none" fill="black" font-family="Helvetica" font-size="28.00"  text-anchor="end">
		<text><tspan font-family="Helvetica" > 600000</tspan></text>
	</g>
</g>
<g fill="none" color="black" stroke="currentColor" stroke-width="1.00" stroke-linecap="butt" stroke-linejoin="miter">
	<path stroke='black'  d='M227.2,339.3 L248.2,339.3 M1078.4,339.3 L1057.4,339.3  '/>	<g transform="translate(207.7,348.4)" stroke="none" fill="black" font-family="Helvetica" font-size="28.00"  text-anchor="end">
		<text><tspan font-family="Helvetica" > 800000</tspan></text>
	</g>
</g>
<g fill="none" color="black" stroke="currentColor" stroke-width="1.00" stroke-linecap="butt" stroke-linejoin="miter">
	<path stroke='black'  d='M227.2,232.7 L248.2,232.7 M1078.4,232.7 L1057.4,232.7  '/>	<g transform="translate(207.7,241.8)" stroke="none" fill="black" font-family="Helvetica" font-size="28.00"  text-anchor="end">
		<text><tspan font-family="Helvetica" > 1x10</tspan><tspan font-family="Helvetica"  font-size="22.4" dy="-14.00px">6</tspan><tspan font-size="28.0" dy="14.00"></tspan></text>
	</g>
</g>
<g fill="none" color="black" stroke="currentColor" stroke-width="1.00" stroke-linecap="butt" stroke-linejoin="miter">
	<path stroke='black'  d='M227.2,126.1 L248.2,126.1 M1078.4,126.1 L1057.4,126.1  '/>	<g transform="translate(207.7,135.2)" stroke="none" fill="black" font-family="Helvetica" font-size="28.00"  text-anchor="end">
		<text><tspan font-family="Helvetica" > 1.2x10</tspan><tspan font-family="Helvetica"  font-size="22.4" dy="-14.00px">6</tspan><tspan font-size="28.0" dy="14.00"></tspan></text>
	</g>
</g>
<g fill="none" color="black" stroke="currentColor" stroke-width="1.00" stroke-linecap="butt" stroke-linejoin="miter">
	<path stroke='black'  d='M227.2,765.6 L227.2,744.6 M227.2,126.1 L227.2,147.1  '/>	<g transform="translate(227.2,816.7)" stroke="none" fill="black" font-family="Helvetica" font-size="28.00"  text-anchor="middle">
		<text><tspan font-family="Helvetica" > 0</tspan></text>
	</g>
</g>
<g fill="none" color="black" stroke="currentColor" stroke-width="1.00" stroke-linecap="butt" stroke-linejoin="miter">
	<path stroke='black'  d='M397.4,765.6 L397.4,744.6 M397.4,126.1 L397.4,147.1  '/>	<g transform="translate(397.4,816.7)" stroke="none" fill="black" font-family="Helvetica" font-size="28.00"  text-anchor="middle">
		<text><tspan font-family="Helvetica" > 50</tspan></text>
	</g>
</g>
<g fill="none" color="black" stroke="currentColor" stroke-width="1.00" stroke-linecap="butt" stroke-linejoin="miter">
	<path stroke='black'  d='M567.7,765.6 L567.7,744.6 M567.7,126.1 L567.7,147.1  '/>	<g transform="translate(567.7,816.7)" stroke="none" fill="black" font-family="Helvetica" font-size="28.00"  text-anchor="middle">
		<text><tspan font-family="Helvetica" > 100</tspan></text>
	</g>
</g>
<g fill="none" color="black" stroke="currentColor" stroke-width="1.00" stroke-linecap="butt" stroke-linejoin="miter">
	<path stroke='black'  d='M737.9,765.6 L737.9,744.6 M737.9,126.1 L737.9,147.1  '/>	<g transform="translate(737.9,816.7)" stroke="none" fill="black" font-family="Helvetica" font-size="28.00"  text-anchor="middle">
		<text><tspan font-family="Helvetica" > 150</tspan></text>
	</g>
</g>
<g fill="none" color="black" stroke="currentColor" stroke-width="1.00" stroke-linecap="butt" stroke-linejoin="miter">
	<path stroke='black'  d='M908.2,765.6 L908.2,744.6 M908.2,126.1 L908.2,147.1  '/>	<g transform="translate(908.2,816.7)" stroke="none" fill="black" font-family="Helvetica" font-size="28.00"  text-anchor="middle">
		<text><tspan font-family="Helvetica" > 200</tspan></text>
	</g>
</g>
<g fill="none" color="black" stroke="currentColor" stroke-width="1.00" stroke-linecap="butt" stroke-linejoin="miter">
	<path stroke='black'  d='M1078.4,765.6 L1078.4,744.6 M1078.4,126.1 L1078.4,147.1  '/>	<g transform="translate(1078.4,816.7)" stroke="none" fill="black" font-family="Helvetica" font-size="28.00"  text-anchor="middle">
		<text><tspan font-family="Helvetica" > 250</tspan></text>
	</g>
</g>
<g fill="none" color="black" stroke="currentColor" stroke-width="1.00" stroke-linecap="butt" stroke-linejoin="miter">
</g>
<g fill="none" color="black" stroke="currentColor" stroke-width="1.00" stroke-linecap="butt" stroke-linejoin="miter">
	<path stroke='black'  d='M227.2,126.1 L227.2,765.6 L1078.4,765.6 L1078.4,126.1 L227.2,126.1 Z  '/></g>
<g fill="none" color="black" stroke="currentColor" stroke-width="1.00" stroke-linecap="butt" stroke-linejoin="miter">
	<g transform="translate(39.8,445.9) rotate(270)" stroke="none" fill="black" font-family="Helvetica-Bold" font-size="28.00"  text-anchor="middle">
		<text><tspan font-family="Helvetica-Bold" >Ambulanse, abs.</tspan></text>
	</g>
</g>
<g fill="none" color="black" stroke="currentColor" stroke-width="1.00" stroke-linecap="butt" stroke-linejoin="miter">
	<g transform="translate(1129.4,445.9) rotate(270)" stroke="none" fill="black" font-family="Helvetica-Bold" font-size="28.00"  text-anchor="middle">
		<text><tspan font-family="Helvetica-Bold" >Ambulanse, %</tspan></text>
	</g>
</g>
<g fill="none" color="black" stroke="currentColor" stroke-width="1.00" stroke-linecap="butt" stroke-linejoin="miter">
	<g transform="translate(652.8,879.7)" stroke="none" fill="black" font-family="Helvetica-Bold" font-size="28.00"  text-anchor="middle">
		<text><tspan font-family="Helvetica-Bold" >M/Z, a.e.m.</tspan></text>
	</g>
</g>
<g fill="none" color="black" stroke="currentColor" stroke-width="1.00" stroke-linecap="butt" stroke-linejoin="miter">
	<g transform="translate(652.8,72.2)" stroke="none" fill="black" font-family="Helvetica" font-size="28.00"  text-anchor="middle">
		<text><tspan font-family="Helvetica" >Integrate MS2 [4-Br-2-HCO2C6H3N2-OTf] 10.00 eV</tspan></text>
	</g>
</g>
	<g id="gnuplot_plot_1" ><title>18831</title>
<g fill="none" color="white" stroke="black" stroke-width="5.00" stroke-linecap="butt" stroke-linejoin="miter">
</g>
<g fill="none" color="black" stroke="currentColor" stroke-width="5.00" stroke-linecap="butt" stroke-linejoin="miter">
	<path stroke='black'  d='M445.2,765.6 L445.2,759.2 M479.5,765.6 L479.5,765.3 M540.5,765.6 L540.5,764.6 M625.3,765.6 L625.3,760.6
		M632.1,765.6 L632.1,757.6 M635.8,765.6 L635.8,764.7 M713.9,765.6 L713.9,664.5 M717.3,765.6 L717.3,759.3
		M720.7,765.6 L720.7,632.6 M724.1,765.6 L724.1,760.3 M809.2,765.6 L809.2,606.4 M812.6,765.6 L812.6,753.2
		M816.0,765.6 L816.0,542.4 M819.4,765.6 L819.4,754.9 M870.4,765.6 L870.4,765.3 M904.5,765.6 L904.5,363.1
		M908.0,765.6 L908.0,725.5 M911.3,765.6 L911.3,187.4 M914.8,765.6 L914.8,728.9 M999.9,765.6 L999.9,760.5
		M1006.7,765.6 L1006.7,758.8  '/></g>
	</g>
	<g id="gnuplot_plot_2" ><title>1.7</title>
<g fill="none" color="black" stroke="currentColor" stroke-width="5.00" stroke-linecap="butt" stroke-linejoin="miter">
	<path stroke='black'  d='M445.2,765.6 L445.2,758.6 M479.5,765.6 L479.5,765.0 M540.5,765.6 L540.5,764.3 M625.3,765.6 L625.3,759.8
		M632.1,765.6 L632.1,756.6 M635.8,765.6 L635.8,764.3 M713.9,765.6 L713.9,653.7 M717.3,765.6 L717.3,758.6
		M720.7,765.6 L720.7,618.5 M724.1,765.6 L724.1,759.8 M809.2,765.6 L809.2,589.7 M812.6,765.6 L812.6,752.2
		M816.0,765.6 L816.0,518.8 M819.4,765.6 L819.4,753.4 M870.4,765.6 L870.4,765.0 M904.5,765.6 L904.5,320.5
		M908.0,765.6 L908.0,721.5 M911.3,765.6 L911.3,126.1 M914.8,765.6 L914.8,725.3 M999.9,765.6 L999.9,759.8
		M1006.7,765.6 L1006.7,757.9  '/></g>
	</g>
<g fill="none" color="white" stroke="black" stroke-width="2.00" stroke-linecap="butt" stroke-linejoin="miter">
</g>
<g fill="none" color="black" stroke="currentColor" stroke-width="2.00" stroke-linecap="butt" stroke-linejoin="miter">
</g>
<g fill="none" color="black" stroke="black" stroke-width="1.00" stroke-linecap="butt" stroke-linejoin="miter">
</g>
<g fill="none" color="black" stroke="currentColor" stroke-width="1.00" stroke-linecap="butt" stroke-linejoin="miter">
	<path stroke='black'  d='M227.2,126.1 L227.2,765.6 L1078.4,765.6 L1078.4,126.1 L227.2,126.1 Z  '/></g>
<g fill="none" color="black" stroke="currentColor" stroke-width="1.00" stroke-linecap="butt" stroke-linejoin="miter">
</g>
</g>
</svg>

