<?xml version="1.0" encoding="utf-8"  standalone="no"?>
<!DOCTYPE svg PUBLIC "-//W3C//DTD SVG 1.1//EN"
 "http://www.w3.org/Graphics/SVG/1.1/DTD/svg11.dtd">
<svg 
 width="1200" height="900"
 viewBox="0 0 1200 900"
 xmlns="http://www.w3.org/2000/svg"
 xmlns:xlink="http://www.w3.org/1999/xlink"
>

<title>Gnuplot</title>
<desc>Produced by GNUPLOT 5.0 patchlevel 5 </desc>

<g id="gnuplot_canvas">

<rect x="0" y="0" width="1200" height="900" fill="none"/>
<defs>

	<circle id='gpDot' r='0.5' stroke-width='0.5'/>
	<path id='gpPt0' stroke-width='0.095' stroke='currentColor' d='M-1,0 h2 M0,-1 v2'/>
	<path id='gpPt1' stroke-width='0.095' stroke='currentColor' d='M-1,-1 L1,1 M1,-1 L-1,1'/>
	<path id='gpPt2' stroke-width='0.095' stroke='currentColor' d='M-1,0 L1,0 M0,-1 L0,1 M-1,-1 L1,1 M-1,1 L1,-1'/>
	<rect id='gpPt3' stroke-width='0.095' stroke='currentColor' x='-1' y='-1' width='2' height='2'/>
	<rect id='gpPt4' stroke-width='0.095' stroke='currentColor' fill='currentColor' x='-1' y='-1' width='2' height='2'/>
	<circle id='gpPt5' stroke-width='0.095' stroke='currentColor' cx='0' cy='0' r='1'/>
	<use xlink:href='#gpPt5' id='gpPt6' fill='currentColor' stroke='none'/>
	<path id='gpPt7' stroke-width='0.095' stroke='currentColor' d='M0,-1.33 L-1.33,0.67 L1.33,0.67 z'/>
	<use xlink:href='#gpPt7' id='gpPt8' fill='currentColor' stroke='none'/>
	<use xlink:href='#gpPt7' id='gpPt9' stroke='currentColor' transform='rotate(180)'/>
	<use xlink:href='#gpPt9' id='gpPt10' fill='currentColor' stroke='none'/>
	<use xlink:href='#gpPt3' id='gpPt11' stroke='currentColor' transform='rotate(45)'/>
	<use xlink:href='#gpPt11' id='gpPt12' fill='currentColor' stroke='none'/>
	<path id='gpPt13' stroke-width='0.095' stroke='currentColor' d='M0,1.330 L1.265,0.411 L0.782,-1.067 L-0.782,-1.076 L-1.265,0.411 z'/>
	<use xlink:href='#gpPt13' id='gpPt14' fill='currentColor' stroke='none'/>
	<filter id='textbox' filterUnits='objectBoundingBox' x='0' y='0' height='1' width='1'>
	  <feFlood flood-color='white' flood-opacity='1' result='bgnd'/>
	  <feComposite in='SourceGraphic' in2='bgnd' operator='atop'/>
	</filter>
	<filter id='greybox' filterUnits='objectBoundingBox' x='0' y='0' height='1' width='1'>
	  <feFlood flood-color='lightgrey' flood-opacity='1' result='grey'/>
	  <feComposite in='SourceGraphic' in2='grey' operator='atop'/>
	</filter>
</defs>
<g fill="none" color="white" stroke="currentColor" stroke-width="1.00" stroke-linecap="butt" stroke-linejoin="miter">
</g>
<g fill="none" color="black" stroke="currentColor" stroke-width="1.00" stroke-linecap="butt" stroke-linejoin="miter">
	<path stroke='black'  d='M168.7,765.6 L189.7,765.6 M1141.4,765.6 L1120.4,765.6  '/>	<g transform="translate(149.2,774.7)" stroke="none" fill="black" font-family="Helvetica" font-size="28.00"  text-anchor="end">
		<text><tspan font-family="Helvetica" > 0</tspan></text>
	</g>
</g>
<g fill="none" color="black" stroke="currentColor" stroke-width="1.00" stroke-linecap="butt" stroke-linejoin="miter">
	<path stroke='black'  d='M168.7,659.0 L189.7,659.0 M1141.4,659.0 L1120.4,659.0  '/>	<g transform="translate(149.2,668.1)" stroke="none" fill="black" font-family="Helvetica" font-size="28.00"  text-anchor="end">
		<text><tspan font-family="Helvetica" > 20</tspan></text>
	</g>
</g>
<g fill="none" color="black" stroke="currentColor" stroke-width="1.00" stroke-linecap="butt" stroke-linejoin="miter">
	<path stroke='black'  d='M168.7,552.4 L189.7,552.4 M1141.4,552.4 L1120.4,552.4  '/>	<g transform="translate(149.2,561.5)" stroke="none" fill="black" font-family="Helvetica" font-size="28.00"  text-anchor="end">
		<text><tspan font-family="Helvetica" > 40</tspan></text>
	</g>
</g>
<g fill="none" color="black" stroke="currentColor" stroke-width="1.00" stroke-linecap="butt" stroke-linejoin="miter">
	<path stroke='black'  d='M168.7,445.8 L189.7,445.8 M1141.4,445.8 L1120.4,445.8  '/>	<g transform="translate(149.2,454.9)" stroke="none" fill="black" font-family="Helvetica" font-size="28.00"  text-anchor="end">
		<text><tspan font-family="Helvetica" > 60</tspan></text>
	</g>
</g>
<g fill="none" color="black" stroke="currentColor" stroke-width="1.00" stroke-linecap="butt" stroke-linejoin="miter">
	<path stroke='black'  d='M168.7,339.3 L189.7,339.3 M1141.4,339.3 L1120.4,339.3  '/>	<g transform="translate(149.2,348.4)" stroke="none" fill="black" font-family="Helvetica" font-size="28.00"  text-anchor="end">
		<text><tspan font-family="Helvetica" > 80</tspan></text>
	</g>
</g>
<g fill="none" color="black" stroke="currentColor" stroke-width="1.00" stroke-linecap="butt" stroke-linejoin="miter">
	<path stroke='black'  d='M168.7,232.7 L189.7,232.7 M1141.4,232.7 L1120.4,232.7  '/>	<g transform="translate(149.2,241.8)" stroke="none" fill="black" font-family="Helvetica" font-size="28.00"  text-anchor="end">
		<text><tspan font-family="Helvetica" > 100</tspan></text>
	</g>
</g>
<g fill="none" color="black" stroke="currentColor" stroke-width="1.00" stroke-linecap="butt" stroke-linejoin="miter">
	<path stroke='black'  d='M168.7,126.1 L189.7,126.1 M1141.4,126.1 L1120.4,126.1  '/>	<g transform="translate(149.2,135.2)" stroke="none" fill="black" font-family="Helvetica" font-size="28.00"  text-anchor="end">
		<text><tspan font-family="Helvetica" > 120</tspan></text>
	</g>
</g>
<g fill="none" color="black" stroke="currentColor" stroke-width="1.00" stroke-linecap="butt" stroke-linejoin="miter">
	<path stroke='black'  d='M168.7,765.6 L168.7,744.6 M168.7,126.1 L168.7,147.1  '/>	<g transform="translate(168.7,816.7)" stroke="none" fill="black" font-family="Helvetica" font-size="28.00"  text-anchor="middle">
		<text><tspan font-family="Helvetica" > 0</tspan></text>
	</g>
</g>
<g fill="none" color="black" stroke="currentColor" stroke-width="1.00" stroke-linecap="butt" stroke-linejoin="miter">
	<path stroke='black'  d='M290.3,765.6 L290.3,744.6 M290.3,126.1 L290.3,147.1  '/>	<g transform="translate(290.3,816.7)" stroke="none" fill="black" font-family="Helvetica" font-size="28.00"  text-anchor="middle">
		<text><tspan font-family="Helvetica" > 5</tspan></text>
	</g>
</g>
<g fill="none" color="black" stroke="currentColor" stroke-width="1.00" stroke-linecap="butt" stroke-linejoin="miter">
	<path stroke='black'  d='M411.9,765.6 L411.9,744.6 M411.9,126.1 L411.9,147.1  '/>	<g transform="translate(411.9,816.7)" stroke="none" fill="black" font-family="Helvetica" font-size="28.00"  text-anchor="middle">
		<text><tspan font-family="Helvetica" > 10</tspan></text>
	</g>
</g>
<g fill="none" color="black" stroke="currentColor" stroke-width="1.00" stroke-linecap="butt" stroke-linejoin="miter">
	<path stroke='black'  d='M533.5,765.6 L533.5,744.6 M533.5,126.1 L533.5,147.1  '/>	<g transform="translate(533.5,816.7)" stroke="none" fill="black" font-family="Helvetica" font-size="28.00"  text-anchor="middle">
		<text><tspan font-family="Helvetica" > 15</tspan></text>
	</g>
</g>
<g fill="none" color="black" stroke="currentColor" stroke-width="1.00" stroke-linecap="butt" stroke-linejoin="miter">
	<path stroke='black'  d='M655.1,765.6 L655.1,744.6 M655.1,126.1 L655.1,147.1  '/>	<g transform="translate(655.1,816.7)" stroke="none" fill="black" font-family="Helvetica" font-size="28.00"  text-anchor="middle">
		<text><tspan font-family="Helvetica" > 20</tspan></text>
	</g>
</g>
<g fill="none" color="black" stroke="currentColor" stroke-width="1.00" stroke-linecap="butt" stroke-linejoin="miter">
	<path stroke='black'  d='M776.6,765.6 L776.6,744.6 M776.6,126.1 L776.6,147.1  '/>	<g transform="translate(776.6,816.7)" stroke="none" fill="black" font-family="Helvetica" font-size="28.00"  text-anchor="middle">
		<text><tspan font-family="Helvetica" > 25</tspan></text>
	</g>
</g>
<g fill="none" color="black" stroke="currentColor" stroke-width="1.00" stroke-linecap="butt" stroke-linejoin="miter">
	<path stroke='black'  d='M898.2,765.6 L898.2,744.6 M898.2,126.1 L898.2,147.1  '/>	<g transform="translate(898.2,816.7)" stroke="none" fill="black" font-family="Helvetica" font-size="28.00"  text-anchor="middle">
		<text><tspan font-family="Helvetica" > 30</tspan></text>
	</g>
</g>
<g fill="none" color="black" stroke="currentColor" stroke-width="1.00" stroke-linecap="butt" stroke-linejoin="miter">
	<path stroke='black'  d='M1019.8,765.6 L1019.8,744.6 M1019.8,126.1 L1019.8,147.1  '/>	<g transform="translate(1019.8,816.7)" stroke="none" fill="black" font-family="Helvetica" font-size="28.00"  text-anchor="middle">
		<text><tspan font-family="Helvetica" > 35</tspan></text>
	</g>
</g>
<g fill="none" color="black" stroke="currentColor" stroke-width="1.00" stroke-linecap="butt" stroke-linejoin="miter">
	<path stroke='black'  d='M1141.4,765.6 L1141.4,744.6 M1141.4,126.1 L1141.4,147.1  '/>	<g transform="translate(1141.4,816.7)" stroke="none" fill="black" font-family="Helvetica" font-size="28.00"  text-anchor="middle">
		<text><tspan font-family="Helvetica" > 40</tspan></text>
	</g>
</g>
<g fill="none" color="black" stroke="currentColor" stroke-width="1.00" stroke-linecap="butt" stroke-linejoin="miter">
</g>
<g fill="none" color="black" stroke="currentColor" stroke-width="1.00" stroke-linecap="butt" stroke-linejoin="miter">
	<path stroke='black'  d='M168.7,126.1 L168.7,765.6 L1141.4,765.6 L1141.4,126.1 L168.7,126.1 Z  '/></g>
<g fill="none" color="black" stroke="currentColor" stroke-width="1.00" stroke-linecap="butt" stroke-linejoin="miter">
	<g transform="translate(39.8,445.9) rotate(270)" stroke="none" fill="black" font-family="Helvetica-Bold" font-size="28.00"  text-anchor="middle">
		<text><tspan font-family="Helvetica-Bold" >Dissociation, %</tspan></text>
	</g>
</g>
<g fill="none" color="black" stroke="currentColor" stroke-width="1.00" stroke-linecap="butt" stroke-linejoin="miter">
	<g transform="translate(655.0,879.7)" stroke="none" fill="black" font-family="Helvetica-Bold" font-size="28.00"  text-anchor="middle">
		<text><tspan font-family="Helvetica-Bold" >E collision, eV</tspan></text>
	</g>
</g>
<g fill="none" color="black" stroke="currentColor" stroke-width="1.00" stroke-linecap="butt" stroke-linejoin="miter">
	<g transform="translate(655.0,72.2)" stroke="none" fill="black" font-family="Helvetica" font-size="28.00"  text-anchor="middle">
		<text><tspan font-family="Helvetica" >Dissociation of 5-BrC5H3NO-2-N2-OTf</tspan></text>
	</g>
</g>
	<g id="gnuplot_plot_1" ><title>73.0538</title>
<g fill="none" color="white" stroke="black" stroke-width="3.00" stroke-linecap="butt" stroke-linejoin="miter">
</g>
<g fill="none" color="black" stroke="currentColor" stroke-width="3.00" stroke-linecap="butt" stroke-linejoin="miter">
	<path stroke='black'  d='M171.1,343.8 L180.9,347.4 L190.7,353.0 L200.5,360.5 L210.3,368.4 L220.1,376.3 L229.9,384.1 L239.7,391.5
		L249.5,397.9 L259.3,402.5 L269.1,404.7 L278.9,404.2 L288.7,401.3 L298.5,396.2 L308.3,389.1 L318.1,380.4
		L327.9,370.3 L337.7,359.1 L347.5,347.0 L357.3,334.3 L367.1,321.3 L376.9,308.3 L386.7,295.4 L396.5,283.1
		L406.3,271.5 L416.1,260.9 L425.9,251.5 L435.8,243.2 L445.6,235.9 L455.4,229.6 L465.2,224.3 L475.0,219.8
		L484.8,216.2 L494.6,213.4 L504.4,211.3 L514.2,209.8 L524.0,209.0 L533.8,208.8 L543.6,209.0 L553.4,209.8
		L563.2,210.9 L573.0,212.4 L582.8,214.2 L592.6,216.3 L602.4,218.6 L612.2,221.0 L622.0,223.4 L631.8,226.0
		L641.6,228.5 L651.4,230.9 L661.2,233.3 L671.0,235.5 L680.8,237.5 L690.6,239.4 L700.4,241.2 L710.2,242.9
		L720.0,244.4 L729.8,245.8 L739.6,247.1 L749.4,248.3 L759.2,249.4 L769.0,250.3 L778.8,251.2 L788.6,251.9
		L798.4,252.6 L808.2,253.1 L818.0,253.6 L827.8,253.9 L837.6,254.2 L847.4,254.4 L857.2,254.4 L867.0,254.4
		L876.8,254.4 L886.6,254.2 L896.4,254.0 L906.2,253.7 L916.0,253.3 L925.8,252.9 L935.6,252.4 L945.4,251.9
		L955.2,251.3 L965.0,250.6 L974.8,249.9 L984.6,249.1 L994.4,248.3 L1004.2,247.5 L1014.0,246.6 L1023.8,245.7
		L1033.6,244.7 L1043.4,243.7 L1053.2,242.7 L1063.0,241.7 L1072.8,240.6 L1082.6,239.5 L1092.4,238.4 L1102.2,237.3
		L1112.0,236.2 L1121.8,235.0 L1131.6,233.9 L1141.4,232.7  '/></g>
	</g>
	<g id="gnuplot_plot_2" ><title>73.0538</title>
<g fill="none" color="white" stroke="black" stroke-width="1.00" stroke-linecap="butt" stroke-linejoin="miter">
</g>
<g fill="none" color="black" stroke="currentColor" stroke-width="1.00" stroke-linecap="butt" stroke-linejoin="miter">
	<use xlink:href='#gpPt6' transform='translate(171.1,372.1) scale(5.25)' color='rgb(  0, 158, 115)'/>
	<use xlink:href='#gpPt6' transform='translate(174.8,358.0) scale(5.25)' color='rgb(  0, 158, 115)'/>
	<use xlink:href='#gpPt6' transform='translate(180.9,318.8) scale(5.25)' color='rgb(  0, 158, 115)'/>
	<use xlink:href='#gpPt6' transform='translate(186.9,303.1) scale(5.25)' color='rgb(  0, 158, 115)'/>
	<use xlink:href='#gpPt6' transform='translate(193.0,366.4) scale(5.25)' color='rgb(  0, 158, 115)'/>
	<use xlink:href='#gpPt6' transform='translate(205.2,395.4) scale(5.25)' color='rgb(  0, 158, 115)'/>
	<use xlink:href='#gpPt6' transform='translate(217.3,356.8) scale(5.25)' color='rgb(  0, 158, 115)'/>
	<use xlink:href='#gpPt6' transform='translate(241.7,391.7) scale(5.25)' color='rgb(  0, 158, 115)'/>
	<use xlink:href='#gpPt6' transform='translate(266.0,418.5) scale(5.25)' color='rgb(  0, 158, 115)'/>
	<use xlink:href='#gpPt6' transform='translate(411.9,260.5) scale(5.25)' color='rgb(  0, 158, 115)'/>
	<use xlink:href='#gpPt6' transform='translate(655.1,232.7) scale(5.25)' color='rgb(  0, 158, 115)'/>
	<use xlink:href='#gpPt6' transform='translate(1141.4,232.7) scale(5.25)' color='rgb(  0, 158, 115)'/>
</g>
	</g>
<g fill="none" color="white" stroke="rgb(  0, 158, 115)" stroke-width="2.00" stroke-linecap="butt" stroke-linejoin="miter">
</g>
<g fill="none" color="black" stroke="currentColor" stroke-width="2.00" stroke-linecap="butt" stroke-linejoin="miter">
</g>
<g fill="none" color="black" stroke="black" stroke-width="1.00" stroke-linecap="butt" stroke-linejoin="miter">
</g>
<g fill="none" color="black" stroke="currentColor" stroke-width="1.00" stroke-linecap="butt" stroke-linejoin="miter">
	<path stroke='black'  d='M168.7,126.1 L168.7,765.6 L1141.4,765.6 L1141.4,126.1 L168.7,126.1 Z  '/></g>
<g fill="none" color="black" stroke="currentColor" stroke-width="1.00" stroke-linecap="butt" stroke-linejoin="miter">
</g>
</g>
</svg>

