23
Coordinates from ORCA-job p-NO2-Ph-N2-X-OTf-B3LYPG-6-31G_dp-scan-d09-49-n400
  C   -2.58410419248316     -0.77137592767492     -5.55930391794809
  C   -1.67299663276889     -0.27892491093495     -6.48380429500342
  C   -1.13303591759184      0.99125890936696     -6.24739093794181
  C   -1.43690986531455      1.77097517138179     -5.12274927723829
  C   -2.33610320780509      1.25223031289553     -4.19972214237524
  C   -2.89741871399639     -0.00014990445859     -4.44038951379163
  H   -3.03945144235951     -1.74546942104959     -5.68209615291867
  H   -1.35548544452775     -0.85443840891912     -7.34278707026597
  H   -0.96920885485142      2.73677246166562     -4.97641262746192
  H   -2.60807745121766      1.79977700171507     -3.30643926972901
  N   -3.86695452712497     -0.53814584431018     -3.45902660704766
  O   -4.11686574650341      0.15861062911236     -2.47996331925150
  O   -4.35251761612484     -1.63883481052583     -3.69886617263488
  N   -0.26692318285409      1.54580065966158     -7.18589806094431
  N   0.31955549965371      2.15344709380419     -7.92070182494585
  S   2.49100016487940      0.00155184681681     -7.13389722564818
  C   2.84325156439421      0.75494874007298     -5.47201656395194
  O   2.49173362341479      1.19146020389920     -8.03656524507275
  O   1.10482056396366     -0.52568596911353     -6.93328554289879
  O   3.54268108634003     -0.98820924074839     -7.35115886375707
  F   4.01676786089330      1.38767995379398     -5.45660496163250
  F   1.87217140089060      1.66620100403389     -5.18308855835701
  F   2.83337103109390     -0.16837955048493     -4.50603184918345
