18
Coordinates from ORCA-job Ph-N2-H-BF4-B3LYPG-6-31G_dp-scan-d09-49-n400
  C   -1.41250256518225      0.68900086050030      1.29698264574841
  C   -0.10330357526424      1.08223213581352      1.54334277468969
  C   0.60509724189308      1.64289160933147      0.47482728393872
  C   0.09429257601328      1.78447783811818     -0.82009255838328
  C   -1.21700835052774      1.37839917525304     -1.03131900352992
  C   -1.96645210632144      0.84039274134735      0.02087333250442
  H   -1.99446907314806      0.24510658891456      2.09703558105626
  H   0.37945571021151      0.93326564570039      2.50024473708746
  H   0.72316102674114      2.15968475265381     -1.61666611467087
  H   -1.64844084487345      1.46493093040953     -2.02256947327096
  N   1.89568514193359      2.09587177627061      0.71512956049438
  N   2.89065065054058      2.54430618337472      0.92493354572020
  B   3.30038507568697     -0.29846433049613      0.20798088371442
  F   2.59020750979348      0.28260254464280     -0.88837984572269
  F   4.36376226158003      0.57174756788979      0.52496823001535
  F   2.40473349372311     -0.29262470468642      1.32474633090838
  F   3.72223323962847     -1.56693520506391     -0.08577304259353
  H   -2.98698741242811      0.51911389002646     -0.16036486770646
