<?xml version="1.0" encoding="utf-8"  standalone="no"?>
<!DOCTYPE svg PUBLIC "-//W3C//DTD SVG 1.1//EN"
 "http://www.w3.org/Graphics/SVG/1.1/DTD/svg11.dtd">
<svg 
 width="1200" height="900"
 viewBox="0 0 1200 900"
 xmlns="http://www.w3.org/2000/svg"
 xmlns:xlink="http://www.w3.org/1999/xlink"
>

<title>Gnuplot</title>
<desc>Produced by GNUPLOT 5.0 patchlevel 5 </desc>

<g id="gnuplot_canvas">

<rect x="0" y="0" width="1200" height="900" fill="none"/>
<defs>

	<circle id='gpDot' r='0.5' stroke-width='0.5'/>
	<path id='gpPt0' stroke-width='0.095' stroke='currentColor' d='M-1,0 h2 M0,-1 v2'/>
	<path id='gpPt1' stroke-width='0.095' stroke='currentColor' d='M-1,-1 L1,1 M1,-1 L-1,1'/>
	<path id='gpPt2' stroke-width='0.095' stroke='currentColor' d='M-1,0 L1,0 M0,-1 L0,1 M-1,-1 L1,1 M-1,1 L1,-1'/>
	<rect id='gpPt3' stroke-width='0.095' stroke='currentColor' x='-1' y='-1' width='2' height='2'/>
	<rect id='gpPt4' stroke-width='0.095' stroke='currentColor' fill='currentColor' x='-1' y='-1' width='2' height='2'/>
	<circle id='gpPt5' stroke-width='0.095' stroke='currentColor' cx='0' cy='0' r='1'/>
	<use xlink:href='#gpPt5' id='gpPt6' fill='currentColor' stroke='none'/>
	<path id='gpPt7' stroke-width='0.095' stroke='currentColor' d='M0,-1.33 L-1.33,0.67 L1.33,0.67 z'/>
	<use xlink:href='#gpPt7' id='gpPt8' fill='currentColor' stroke='none'/>
	<use xlink:href='#gpPt7' id='gpPt9' stroke='currentColor' transform='rotate(180)'/>
	<use xlink:href='#gpPt9' id='gpPt10' fill='currentColor' stroke='none'/>
	<use xlink:href='#gpPt3' id='gpPt11' stroke='currentColor' transform='rotate(45)'/>
	<use xlink:href='#gpPt11' id='gpPt12' fill='currentColor' stroke='none'/>
	<path id='gpPt13' stroke-width='0.095' stroke='currentColor' d='M0,1.330 L1.265,0.411 L0.782,-1.067 L-0.782,-1.076 L-1.265,0.411 z'/>
	<use xlink:href='#gpPt13' id='gpPt14' fill='currentColor' stroke='none'/>
	<filter id='textbox' filterUnits='objectBoundingBox' x='0' y='0' height='1' width='1'>
	  <feFlood flood-color='white' flood-opacity='1' result='bgnd'/>
	  <feComposite in='SourceGraphic' in2='bgnd' operator='atop'/>
	</filter>
	<filter id='greybox' filterUnits='objectBoundingBox' x='0' y='0' height='1' width='1'>
	  <feFlood flood-color='lightgrey' flood-opacity='1' result='grey'/>
	  <feComposite in='SourceGraphic' in2='grey' operator='atop'/>
	</filter>
</defs>
<g fill="none" color="white" stroke="currentColor" stroke-width="1.00" stroke-linecap="butt" stroke-linejoin="miter">
</g>
<g fill="none" color="black" stroke="currentColor" stroke-width="1.00" stroke-linecap="butt" stroke-linejoin="miter">
	<path stroke='black'  d='M207.7,765.6 L228.7,765.6 M1078.4,765.6 L1057.4,765.6  '/>	<g transform="translate(188.2,774.7)" stroke="none" fill="black" font-family="Helvetica" font-size="28.00"  text-anchor="end">
		<text><tspan font-family="Helvetica" > 0</tspan></text>
	</g>
</g>
<g fill="none" color="black" stroke="currentColor" stroke-width="1.00" stroke-linecap="butt" stroke-linejoin="miter">
	<path stroke='black'  d='M207.7,694.5 L228.7,694.5 M1078.4,694.5 L1057.4,694.5  '/>	<g transform="translate(188.2,703.6)" stroke="none" fill="black" font-family="Helvetica" font-size="28.00"  text-anchor="end">
		<text><tspan font-family="Helvetica" > 10000</tspan></text>
	</g>
</g>
<g fill="none" color="black" stroke="currentColor" stroke-width="1.00" stroke-linecap="butt" stroke-linejoin="miter">
	<path stroke='black'  d='M207.7,623.5 L228.7,623.5 M1078.4,623.5 L1057.4,623.5  '/>	<g transform="translate(188.2,632.6)" stroke="none" fill="black" font-family="Helvetica" font-size="28.00"  text-anchor="end">
		<text><tspan font-family="Helvetica" > 20000</tspan></text>
	</g>
</g>
<g fill="none" color="black" stroke="currentColor" stroke-width="1.00" stroke-linecap="butt" stroke-linejoin="miter">
	<path stroke='black'  d='M207.7,552.4 L228.7,552.4 M1078.4,552.4 L1057.4,552.4  '/>	<g transform="translate(188.2,561.5)" stroke="none" fill="black" font-family="Helvetica" font-size="28.00"  text-anchor="end">
		<text><tspan font-family="Helvetica" > 30000</tspan></text>
	</g>
</g>
<g fill="none" color="black" stroke="currentColor" stroke-width="1.00" stroke-linecap="butt" stroke-linejoin="miter">
	<path stroke='black'  d='M207.7,481.4 L228.7,481.4 M1078.4,481.4 L1057.4,481.4  '/>	<g transform="translate(188.2,490.5)" stroke="none" fill="black" font-family="Helvetica" font-size="28.00"  text-anchor="end">
		<text><tspan font-family="Helvetica" > 40000</tspan></text>
	</g>
</g>
<g fill="none" color="black" stroke="currentColor" stroke-width="1.00" stroke-linecap="butt" stroke-linejoin="miter">
	<path stroke='black'  d='M207.7,410.3 L228.7,410.3 M1078.4,410.3 L1057.4,410.3  '/>	<g transform="translate(188.2,419.4)" stroke="none" fill="black" font-family="Helvetica" font-size="28.00"  text-anchor="end">
		<text><tspan font-family="Helvetica" > 50000</tspan></text>
	</g>
</g>
<g fill="none" color="black" stroke="currentColor" stroke-width="1.00" stroke-linecap="butt" stroke-linejoin="miter">
	<path stroke='black'  d='M207.7,339.3 L228.7,339.3 M1078.4,339.3 L1057.4,339.3  '/>	<g transform="translate(188.2,348.4)" stroke="none" fill="black" font-family="Helvetica" font-size="28.00"  text-anchor="end">
		<text><tspan font-family="Helvetica" > 60000</tspan></text>
	</g>
</g>
<g fill="none" color="black" stroke="currentColor" stroke-width="1.00" stroke-linecap="butt" stroke-linejoin="miter">
	<path stroke='black'  d='M207.7,268.2 L228.7,268.2 M1078.4,268.2 L1057.4,268.2  '/>	<g transform="translate(188.2,277.3)" stroke="none" fill="black" font-family="Helvetica" font-size="28.00"  text-anchor="end">
		<text><tspan font-family="Helvetica" > 70000</tspan></text>
	</g>
</g>
<g fill="none" color="black" stroke="currentColor" stroke-width="1.00" stroke-linecap="butt" stroke-linejoin="miter">
	<path stroke='black'  d='M207.7,197.2 L228.7,197.2 M1078.4,197.2 L1057.4,197.2  '/>	<g transform="translate(188.2,206.3)" stroke="none" fill="black" font-family="Helvetica" font-size="28.00"  text-anchor="end">
		<text><tspan font-family="Helvetica" > 80000</tspan></text>
	</g>
</g>
<g fill="none" color="black" stroke="currentColor" stroke-width="1.00" stroke-linecap="butt" stroke-linejoin="miter">
	<path stroke='black'  d='M207.7,126.1 L228.7,126.1 M1078.4,126.1 L1057.4,126.1  '/>	<g transform="translate(188.2,135.2)" stroke="none" fill="black" font-family="Helvetica" font-size="28.00"  text-anchor="end">
		<text><tspan font-family="Helvetica" > 90000</tspan></text>
	</g>
</g>
<g fill="none" color="black" stroke="currentColor" stroke-width="1.00" stroke-linecap="butt" stroke-linejoin="miter">
	<path stroke='black'  d='M207.7,765.6 L207.7,744.6 M207.7,126.1 L207.7,147.1  '/>	<g transform="translate(207.7,816.7)" stroke="none" fill="black" font-family="Helvetica" font-size="28.00"  text-anchor="middle">
		<text><tspan font-family="Helvetica" > 0</tspan></text>
	</g>
</g>
<g fill="none" color="black" stroke="currentColor" stroke-width="1.00" stroke-linecap="butt" stroke-linejoin="miter">
	<path stroke='black'  d='M316.5,765.6 L316.5,744.6 M316.5,126.1 L316.5,147.1  '/>	<g transform="translate(316.5,816.7)" stroke="none" fill="black" font-family="Helvetica" font-size="28.00"  text-anchor="middle">
		<text><tspan font-family="Helvetica" > 20</tspan></text>
	</g>
</g>
<g fill="none" color="black" stroke="currentColor" stroke-width="1.00" stroke-linecap="butt" stroke-linejoin="miter">
	<path stroke='black'  d='M425.4,765.6 L425.4,744.6 M425.4,126.1 L425.4,147.1  '/>	<g transform="translate(425.4,816.7)" stroke="none" fill="black" font-family="Helvetica" font-size="28.00"  text-anchor="middle">
		<text><tspan font-family="Helvetica" > 40</tspan></text>
	</g>
</g>
<g fill="none" color="black" stroke="currentColor" stroke-width="1.00" stroke-linecap="butt" stroke-linejoin="miter">
	<path stroke='black'  d='M534.2,765.6 L534.2,744.6 M534.2,126.1 L534.2,147.1  '/>	<g transform="translate(534.2,816.7)" stroke="none" fill="black" font-family="Helvetica" font-size="28.00"  text-anchor="middle">
		<text><tspan font-family="Helvetica" > 60</tspan></text>
	</g>
</g>
<g fill="none" color="black" stroke="currentColor" stroke-width="1.00" stroke-linecap="butt" stroke-linejoin="miter">
	<path stroke='black'  d='M643.1,765.6 L643.1,744.6 M643.1,126.1 L643.1,147.1  '/>	<g transform="translate(643.1,816.7)" stroke="none" fill="black" font-family="Helvetica" font-size="28.00"  text-anchor="middle">
		<text><tspan font-family="Helvetica" > 80</tspan></text>
	</g>
</g>
<g fill="none" color="black" stroke="currentColor" stroke-width="1.00" stroke-linecap="butt" stroke-linejoin="miter">
	<path stroke='black'  d='M751.9,765.6 L751.9,744.6 M751.9,126.1 L751.9,147.1  '/>	<g transform="translate(751.9,816.7)" stroke="none" fill="black" font-family="Helvetica" font-size="28.00"  text-anchor="middle">
		<text><tspan font-family="Helvetica" > 100</tspan></text>
	</g>
</g>
<g fill="none" color="black" stroke="currentColor" stroke-width="1.00" stroke-linecap="butt" stroke-linejoin="miter">
	<path stroke='black'  d='M860.7,765.6 L860.7,744.6 M860.7,126.1 L860.7,147.1  '/>	<g transform="translate(860.7,816.7)" stroke="none" fill="black" font-family="Helvetica" font-size="28.00"  text-anchor="middle">
		<text><tspan font-family="Helvetica" > 120</tspan></text>
	</g>
</g>
<g fill="none" color="black" stroke="currentColor" stroke-width="1.00" stroke-linecap="butt" stroke-linejoin="miter">
	<path stroke='black'  d='M969.6,765.6 L969.6,744.6 M969.6,126.1 L969.6,147.1  '/>	<g transform="translate(969.6,816.7)" stroke="none" fill="black" font-family="Helvetica" font-size="28.00"  text-anchor="middle">
		<text><tspan font-family="Helvetica" > 140</tspan></text>
	</g>
</g>
<g fill="none" color="black" stroke="currentColor" stroke-width="1.00" stroke-linecap="butt" stroke-linejoin="miter">
	<path stroke='black'  d='M1078.4,765.6 L1078.4,744.6 M1078.4,126.1 L1078.4,147.1  '/>	<g transform="translate(1078.4,816.7)" stroke="none" fill="black" font-family="Helvetica" font-size="28.00"  text-anchor="middle">
		<text><tspan font-family="Helvetica" > 160</tspan></text>
	</g>
</g>
<g fill="none" color="black" stroke="currentColor" stroke-width="1.00" stroke-linecap="butt" stroke-linejoin="miter">
</g>
<g fill="none" color="black" stroke="currentColor" stroke-width="1.00" stroke-linecap="butt" stroke-linejoin="miter">
	<path stroke='black'  d='M207.7,126.1 L207.7,765.6 L1078.4,765.6 L1078.4,126.1 L207.7,126.1 Z  '/></g>
<g fill="none" color="black" stroke="currentColor" stroke-width="1.00" stroke-linecap="butt" stroke-linejoin="miter">
	<g transform="translate(39.8,445.9) rotate(270)" stroke="none" fill="black" font-family="Helvetica-Bold" font-size="28.00"  text-anchor="middle">
		<text><tspan font-family="Helvetica-Bold" >Ambulanse, abs.</tspan></text>
	</g>
</g>
<g fill="none" color="black" stroke="currentColor" stroke-width="1.00" stroke-linecap="butt" stroke-linejoin="miter">
	<g transform="translate(1129.4,445.9) rotate(270)" stroke="none" fill="black" font-family="Helvetica-Bold" font-size="28.00"  text-anchor="middle">
		<text><tspan font-family="Helvetica-Bold" >Ambulanse, %</tspan></text>
	</g>
</g>
<g fill="none" color="black" stroke="currentColor" stroke-width="1.00" stroke-linecap="butt" stroke-linejoin="miter">
	<g transform="translate(643.0,879.7)" stroke="none" fill="black" font-family="Helvetica-Bold" font-size="28.00"  text-anchor="middle">
		<text><tspan font-family="Helvetica-Bold" >M/Z, a.e.m.</tspan></text>
	</g>
</g>
<g fill="none" color="black" stroke="currentColor" stroke-width="1.00" stroke-linecap="butt" stroke-linejoin="miter">
	<g transform="translate(643.0,72.2)" stroke="none" fill="black" font-family="Helvetica" font-size="28.00"  text-anchor="middle">
		<text><tspan font-family="Helvetica" >Integrate MS2 [3-NO2C6H4N2-OTf] 01.50 eV</tspan></text>
	</g>
</g>
	<g id="gnuplot_plot_1" ><title>638</title>
<g fill="none" color="white" stroke="black" stroke-width="5.00" stroke-linecap="butt" stroke-linejoin="miter">
</g>
<g fill="none" color="black" stroke="currentColor" stroke-width="5.00" stroke-linecap="butt" stroke-linejoin="miter">
	<path stroke='black'  d='M485.4,765.6 L485.4,760.0 M550.7,765.6 L550.7,756.8 M556.2,765.6 L556.2,738.2 M610.5,765.6 L610.5,761.6
		M616.0,765.6 L616.0,496.4 M621.4,765.6 L621.4,736.1 M708.5,765.6 L708.5,621.4 M713.9,765.6 L713.9,753.4
		M806.4,765.6 L806.4,680.1 M871.7,765.6 L871.7,193.5 M877.2,765.6 L877.2,731.8 M1024.1,765.6 L1024.1,686.8
		M1029.6,765.6 L1029.6,759.8  '/></g>
	</g>
	<g id="gnuplot_plot_2" ><title>0.8</title>
<g fill="none" color="black" stroke="currentColor" stroke-width="5.00" stroke-linecap="butt" stroke-linejoin="miter">
	<path stroke='black'  d='M485.4,765.6 L485.4,759.2 M550.7,765.6 L550.7,756.0 M556.2,765.6 L556.2,734.9 M610.5,765.6 L610.5,761.1
		M616.0,765.6 L616.0,464.4 M621.4,765.6 L621.4,733.0 M708.5,765.6 L708.5,604.4 M713.9,765.6 L713.9,752.2
		M806.4,765.6 L806.4,669.7 M871.7,765.6 L871.7,126.1 M877.2,765.6 L877.2,727.9 M1024.1,765.6 L1024.1,677.3
		M1029.6,765.6 L1029.6,759.2  '/></g>
	</g>
<g fill="none" color="white" stroke="black" stroke-width="2.00" stroke-linecap="butt" stroke-linejoin="miter">
</g>
<g fill="none" color="black" stroke="currentColor" stroke-width="2.00" stroke-linecap="butt" stroke-linejoin="miter">
</g>
<g fill="none" color="black" stroke="black" stroke-width="1.00" stroke-linecap="butt" stroke-linejoin="miter">
</g>
<g fill="none" color="black" stroke="currentColor" stroke-width="1.00" stroke-linecap="butt" stroke-linejoin="miter">
	<path stroke='black'  d='M207.7,126.1 L207.7,765.6 L1078.4,765.6 L1078.4,126.1 L207.7,126.1 Z  '/></g>
<g fill="none" color="black" stroke="currentColor" stroke-width="1.00" stroke-linecap="butt" stroke-linejoin="miter">
</g>
</g>
</svg>

