33
Coordinates from ORCA-job p-NO2-Ph-N2-OTs-MP2-6-31G_dp-scan-d09-49-n400
  C   0.75317843077342     -0.63521069900015     -4.24993644813789
  C   1.25417026509021      0.43074682719882     -4.99543196214481
  C   1.85004459887753      1.50588879945010     -4.33039127002573
  C   1.94101602923360      1.54674152393470     -2.93625231425463
  C   1.43565774121209      0.48826384991938     -2.18491104153119
  C   0.85553777012727     -0.58600726675053     -2.85965028651486
  H   0.28793207511644     -1.48768973088711     -4.72374545545724
  H   1.19691482152136      0.43932587720249     -6.07508812013441
  H   2.40336538542194      2.40389233420199     -2.46348038680123
  H   1.48767587961725      0.48055007317286     -1.10564288043836
  N   0.33358271231760     -1.71239321251723     -2.07293233729797
  O   0.46164631393758     -1.65797425025511     -0.83808237306841
  O   -0.19622289885404     -2.64985045478457     -2.69245631378946
  N   -1.79437912223619      2.14247411141404     -3.38982611512757
  N   -1.93599634130890      1.13937564510164     -2.88508909453269
  C   5.11513168875396      0.83452540519761     -3.98754252149380
  C   5.89236626943889      0.66115232552839     -2.84194839858420
  C   6.39047267184238      1.75969438893066     -2.12755383408712
  C   6.10190239988642      3.05150707728141     -2.59381440024406
  C   5.32773682893670      3.25280635602030     -3.73569191233227
  C   4.85012710078802      2.13442656128888     -4.42398319817403
  H   4.74182028510577     -0.01275739684569     -4.54833839589409
  H   6.11509235734614     -0.34342618847130     -2.49946770321885
  H   6.49185025438465      3.91064346756142     -2.05901716698613
  H   5.11804182806685      4.24856962357747     -4.10571941787917
  S   3.79891279827595      2.37773524738334     -5.81960456930861
  O   3.72786632138739      1.13557042313150     -6.58145339489282
  O   4.05893995713535      3.66858256224783     -6.43280269798377
  O   2.32363351639871      2.60540181491246     -5.04920727905245
  C   7.19355549331851      1.55936902191078     -0.86996954763938
  H   6.54470174221647      1.54707303128800      0.00771386994064
  H   7.73387337624541      0.61386129925904     -0.89686127242417
  H   7.91815144962513      2.36183155239657     -0.73612176048909
