33
Coordinates from ORCA-job p-NO2-Ph-N2-OTs-MP2-6-31G_dp-scan-d09-49-n400
  C   0.72486006738100     -0.75218743531817     -4.18773796065550
  C   1.20045959464239      0.33536197657421     -4.91797069130743
  C   1.78021110215275      1.40933931262776     -4.23812624425869
  C   1.91725940992187      1.41154568572340     -2.84763864979194
  C   1.43723678152010      0.33161760703292     -2.11084223967559
  C   0.85308082130642     -0.73238566378156     -2.79865653833549
  H   0.26224964953211     -1.60045227276609     -4.67156975564551
  H   1.11560294683286      0.37162005246272     -5.99523950665747
  H   2.37317502991189      2.26636022900581     -2.36449831850168
  H   1.51383489175266      0.29780706496337     -1.03354631103906
  N   0.34979073805086     -1.87777314616203     -2.02681657340848
  O   0.49561937074001     -1.84717947431171     -0.79307016732448
  O   -0.18662939718200     -2.80449402574802     -2.65690670883951
  N   -0.86802420687215      2.63671228704724     -3.92966955482602
  N   -1.62712746580150      1.98743537406025     -3.39688371596082
  C   5.08587203773345      0.85758129517261     -3.99381694558821
  C   5.90095825216110      0.69020875772187     -2.87387592150632
  C   6.37373776631080      1.79167797068259     -2.14692621211735
  C   6.02051606685227      3.08086075485139     -2.57443481165663
  C   5.20777124590395      3.27613066919702     -3.69023865057031
  C   4.75692458167445      2.15507735990942     -4.39214353435052
  H   4.73182608232089      0.00879745668041     -4.56471996896876
  H   6.17345418105330     -0.31192038944149     -2.56150904860849
  H   6.39000045896777      3.94287983214188     -2.02982474633648
  H   4.94801651708116      4.27062099031220     -4.03077291016575
  S   3.65848740827274      2.38707697383759     -5.75297840860702
  O   3.61333406678543      1.15911774634387     -6.53963370189720
  O   3.85356566090007      3.69920955062265     -6.34479518890490
  O   2.19853864046993      2.54248007267439     -4.93799908402435
  C   7.21869947956414      1.59594767297315     -0.91633816558794
  H   6.59549981392929      1.53814067170205     -0.02203423743991
  H   7.79508472173505      0.67376536793111     -0.97972536653619
  H   7.91441368439476      2.42371967527722     -0.78336016090587
