21
Coordinates from ORCA-job Ph-N2-H-OTf-B3LYPG-6-31G_dp-scan-d09-49-n400
  C   -2.97997415056318      0.94730545859667     -5.66408761695082
  C   -1.81026141775946      1.71427502451373     -5.24977672933983
  C   -0.69826129177692      0.83424611926529     -4.76524260861085
  C   -0.75795706108683     -0.59907808558725     -4.73092648640944
  C   -1.90249723179970     -1.20414248253375     -5.15093330065176
  C   -3.01329346300735     -0.41424331962950     -5.61256244457455
  H   -3.82467410153250      1.52780668446426     -6.02018565172815
  H   3.08827565506929      1.97275702244733     -5.13504809412152
  H   0.11344596082402     -1.15134582049019     -4.39821320609408
  H   -1.98060079619212     -2.28594873487242     -5.14540485029855
  N   0.37426732509654      1.47513321555957     -4.35710938753244
  N   1.24520589575343      2.13151330822807     -4.03951434939422
  S   3.61589056277099     -0.02509571398855     -5.86313163109571
  C   2.66979607291188      0.49184750913552     -7.41765732953420
  O   3.92609983694533      1.52327812398032     -5.37804950223501
  O   -1.71312976837066      2.94008308869308     -5.27922217410228
  O   2.57235093922729     -0.65203378835104     -5.00810862348707
  F   1.68923484127898      1.35421925707963     -7.10989672718739
  F   3.51104227241028      1.07002737874412     -8.27700903232554
  F   2.13880461807751     -0.59651484527031     -7.97819037013763
  H   -3.91202669827676     -0.93314839998470     -5.93677488418916
