21
Coordinates from ORCA-job Ph-N2-H-OTf-B3LYPG-6-31G_dp-scan-d09-49-n400
  C   -2.35794490609128      1.04700132024448     -5.99641742938814
  C   -1.33406231179067      1.68529739319537     -5.17886648525893
  C   -0.56061956548451      0.69607446685376     -4.37274066811202
  C   -0.75039706454413     -0.71991694692860     -4.43248793827109
  C   -1.72755283590633     -1.20854340681123     -5.24779952134205
  C   -2.53306019378240     -0.30617694265604     -6.02170741153400
  H   -2.97099483979178      1.71340185924239     -6.59447829708626
  H   2.74126424849831      2.32272244300833     -5.77648182745286
  H   -0.11031149966930     -1.36543819665438     -3.84125084983907
  H   -1.89908633994731     -2.27724148830241     -5.31674458226078
  N   0.35816389206960      1.23293210705739     -3.58608506760169
  N   1.09562415969477      1.82957685181957     -2.96859207118955
  S   3.35310106513528      0.23027115695146     -6.02448812866128
  C   2.04917038735801      0.34518672336737     -7.39518691000027
  O   3.58678049958554      1.86915145262532     -5.96139206330839
  O   -1.10195998646745      2.89590585663557     -5.13950862972841
  O   2.59367318191648     -0.25542265183994     -4.84429031019624
  F   1.16199339887827      1.31488514098089     -7.12212503891855
  F   2.65490939076111      0.61948510521564     -8.55311770812830
  F   1.41289805192964     -0.82142848587631     -7.48728281422316
  H   -3.30985073235178     -0.72678275812877     -6.65600124749916
