21
Coordinates from ORCA-job Ph-N2-H-OTf-B3LYPG-6-31G_dp-scan-d09-49-n400
  C   -2.36129013512140      1.04975500508438     -5.99452383760003
  C   -1.33987760196790      1.69256469476965     -5.17742581409648
  C   -0.55511840833446      0.70596974130982     -4.37882931477260
  C   -0.72964497273436     -0.71156740097978     -4.44864167408960
  C   -1.70364308605976     -1.20446252752642     -5.26506258235382
  C   -2.52206897296051     -0.30497257116073     -6.02888964669449
  H   -2.98362968185994      1.71386966021735     -6.58547809124670
  H   2.73418518777476      2.30715548051558     -5.76512768955118
  H   -0.07921392296381     -1.35413527614353     -3.86564603450023
  H   -1.86295582874079     -2.27446062182993     -5.34273320202921
  N   0.36123370533013      1.24695701453758     -3.59225884547312
  N   1.09695994331358      1.84707176295170     -2.97583182632703
  S   3.34452470761668      0.21567698361504     -6.01990132615931
  C   2.02957671170583      0.33748326356502     -7.38072934637878
  O   3.57931107774113      1.85452452761037     -5.95303380090373
  O   -1.11652675259194      2.90460696360217     -5.13364873821284
  O   2.59365416298035     -0.27315222368590     -4.83556190696524
  F   1.15804230780743      1.32070622905784     -7.10434439255262
  F   2.62779462418822      0.59757764166910     -8.54570842794497
  F   1.37725168702421     -0.82101983508033     -7.46041040014185
  H   -3.29682675214739     -0.72920751209913     -6.66325810200635
