22
Coordinates from ORCA-job p-CH3O-Ph-N2-X-BF4-B3LYPG-6-31G_dp-scan-d09-49-n400
  C   -1.04606755083055      0.37153899097345      0.99838319333801
  C   0.26494858818472      0.46420905113007      0.56119069014028
  C   0.58223418170630      1.49888893762905     -0.33862311874818
  C   -0.37193433462548      2.43122961314270     -0.80571727109224
  C   -1.66522941621863      2.32313623270581     -0.35088966988894
  C   -2.01441522192758      1.29435105859719      0.55737067704822
  H   -1.30573335883198     -0.41919351356041      1.69066654880933
  H   1.04167950461854     -0.22918518034269      0.88369540339041
  H   -0.08320919815876      3.21327172396481     -1.49949648683335
  H   -2.43571458329768      3.01422336099248     -0.67186116731287
  N   1.86384866980721      1.61186029230909     -0.81294503077958
  N   2.89364953792942      1.70269051140195     -1.23633903109533
  B   3.59236136671990     -0.00046110499448      1.27789863530887
  F   2.68610878107372     -1.08906517155921      1.13360909404063
  F   4.49911862382828     -0.23194188471055      2.27970947652712
  F   4.23201196240290      0.20862734373655      0.02895929549179
  F   2.80620614175197      1.15755191510562      1.55006714117342
  O   -3.29926837128899      1.28473099094865      0.93539089041219
  C   -3.75423394963641      0.29160802125696      1.86183507627445
  H   -4.81135477083252      0.50262513636719      2.01886502851846
  H   -3.21794589950825      0.36760139187951      2.81310674488846
  H   -3.63716070286608     -0.71489771697383      1.44662388038889
