15
Coordinates from ORCA-job 2-HOOC-C6H3-N2-B3LYPG-aug-cc-pVDZ-scan-d09-49-n400
  C   -1.90496695149926     -1.50323587773969     -1.05455716479180
  C   -0.57124122585503     -1.12921702802961     -1.09660870696776
  C   -0.08792027311543      0.01384463667535     -0.93378021518004
  C   -0.80624106122995      1.17579004494609     -0.66973997859161
  C   -2.19818748272244      0.91043363432515     -0.60351773759439
  C   -2.72502790868730     -0.37762322159096     -0.78862688404184
  H   -2.31241728825828     -2.50218663303626     -1.19822865898170
  H   -2.86457179197274      1.74945608413447     -0.40088427431406
  N   4.78702803231739      0.17273357475589     -0.46512942161609
  N   5.05726823404942      0.15477094067780     -1.53576542488666
  H   -3.80490284171257     -0.52290879368562     -0.72646779920481
  C   -0.27227496190132      2.54532271747498     -0.47103582263211
  O   -0.95145390896904      3.52510030733995     -0.24240143155671
  O   1.07909849643158      2.59237748255882     -0.57279537394641
  H   1.33451093312500      3.51794213119355     -0.42976110569400
