21
Coordinates from ORCA-job Ph-N2-X-OTf-B3LYPG-6-31G_dp-scan-d09-49-n400
  C   -1.01166542405703     -0.72657566538421     -4.45480343603704
  C   -0.24113888776087      0.38145039597671     -4.79622878253083
  C   -0.90061791058569      1.51560467667184     -5.28277668567789
  C   -2.29503049814589      1.59529421965791     -5.38195406300740
  C   -3.04144429606573      0.47033390592759     -5.04890178096462
  C   -2.40153262130976     -0.68739730888675     -4.58870995046943
  H   -0.49740301956647     -1.61218734767513     -4.09742844256501
  H   0.83049682897271      0.34833911475238     -4.64059363723454
  H   -2.76228949336261      2.50634841446500     -5.73886104262603
  H   -4.12220497826789      0.49655301729458     -5.14360134689510
  N   -0.14803324089546      2.65812128589180     -5.63828658693183
  N   0.85445383476065      2.93582205000219     -6.16201149849648
  S   1.95741050037294      1.32372307951665     -7.42792198430576
  C   3.07120929075612      0.09940264789066     -6.43919672146651
  O   2.97850588975289      2.13727551342694     -8.11555000293376
  O   2.25304904875576     -1.45218793875286     -4.48890058827134
  O   1.03729970116066      0.45281166509781     -8.19212638899765
  F   4.05626491760036     -0.41865016131937     -7.13638652962125
  F   3.51091602802454      0.65940421396902     -5.33645147384543
  F   2.22670000282641     -1.01854466054198     -6.06319143268569
  H   -2.99324567296556     -1.55814111798083     -4.32341762443637
