21
Coordinates from ORCA-job Ph-N2-X-OTf-B3LYPG-6-31G_dp-scan-d09-49-n400
  C   -2.23914331130580     -1.01669928686707     -5.49714746013002
  C   -0.95767714352035     -0.52473324132505     -5.26231996970404
  C   -0.82000885087167      0.82408849993837     -4.89944250576767
  C   -1.93275586557581      1.65873412733333     -4.72844556882561
  C   -3.20115342511638      1.15465249083435     -4.99537227528411
  C   -3.35366870695355     -0.18155807175616     -5.37791514086178
  H   -2.36502452927851     -2.05847816138803     -5.77309097954494
  H   -0.09694677735979     -1.18029541819312     -5.32837778220494
  H   -1.78177943707119      2.68425479867361     -4.41023795549580
  H   -4.06973253543321      1.79643445463892     -4.89137740700467
  N   0.43661621830941      1.40484950899849     -4.60165286992567
  N   1.54502841482884      1.23486206135263     -4.99461488507477
  S   1.94806795049788     -0.04182279431517     -6.61657517171090
  C   3.70772804001585      0.64672616487134     -6.75621060178297
  O   1.22363922342873      0.36166365069095     -7.83373299980452
  O   4.26577599195505      2.98274311015139     -4.35743806618906
  O   2.08745638419575     -1.46125459172031     -6.23606074946432
  F   4.33363616386366      0.03703573504040     -7.76188203316875
  F   3.63430382023534      1.95138059417349     -6.98966906235938
  F   4.34320853561613      0.41196029327567     -5.61516562405071
  H   -4.34587016046032     -0.57774392440805     -5.57057089164549
