<?xml version="1.0" encoding="utf-8"  standalone="no"?>
<!DOCTYPE svg PUBLIC "-//W3C//DTD SVG 1.1//EN"
 "http://www.w3.org/Graphics/SVG/1.1/DTD/svg11.dtd">
<svg 
 width="1200" height="900"
 viewBox="0 0 1200 900"
 xmlns="http://www.w3.org/2000/svg"
 xmlns:xlink="http://www.w3.org/1999/xlink"
>

<title>Gnuplot</title>
<desc>Produced by GNUPLOT 5.0 patchlevel 5 </desc>

<g id="gnuplot_canvas">

<rect x="0" y="0" width="1200" height="900" fill="none"/>
<defs>

	<circle id='gpDot' r='0.5' stroke-width='0.5'/>
	<path id='gpPt0' stroke-width='0.095' stroke='currentColor' d='M-1,0 h2 M0,-1 v2'/>
	<path id='gpPt1' stroke-width='0.095' stroke='currentColor' d='M-1,-1 L1,1 M1,-1 L-1,1'/>
	<path id='gpPt2' stroke-width='0.095' stroke='currentColor' d='M-1,0 L1,0 M0,-1 L0,1 M-1,-1 L1,1 M-1,1 L1,-1'/>
	<rect id='gpPt3' stroke-width='0.095' stroke='currentColor' x='-1' y='-1' width='2' height='2'/>
	<rect id='gpPt4' stroke-width='0.095' stroke='currentColor' fill='currentColor' x='-1' y='-1' width='2' height='2'/>
	<circle id='gpPt5' stroke-width='0.095' stroke='currentColor' cx='0' cy='0' r='1'/>
	<use xlink:href='#gpPt5' id='gpPt6' fill='currentColor' stroke='none'/>
	<path id='gpPt7' stroke-width='0.095' stroke='currentColor' d='M0,-1.33 L-1.33,0.67 L1.33,0.67 z'/>
	<use xlink:href='#gpPt7' id='gpPt8' fill='currentColor' stroke='none'/>
	<use xlink:href='#gpPt7' id='gpPt9' stroke='currentColor' transform='rotate(180)'/>
	<use xlink:href='#gpPt9' id='gpPt10' fill='currentColor' stroke='none'/>
	<use xlink:href='#gpPt3' id='gpPt11' stroke='currentColor' transform='rotate(45)'/>
	<use xlink:href='#gpPt11' id='gpPt12' fill='currentColor' stroke='none'/>
	<path id='gpPt13' stroke-width='0.095' stroke='currentColor' d='M0,1.330 L1.265,0.411 L0.782,-1.067 L-0.782,-1.076 L-1.265,0.411 z'/>
	<use xlink:href='#gpPt13' id='gpPt14' fill='currentColor' stroke='none'/>
	<filter id='textbox' filterUnits='objectBoundingBox' x='0' y='0' height='1' width='1'>
	  <feFlood flood-color='white' flood-opacity='1' result='bgnd'/>
	  <feComposite in='SourceGraphic' in2='bgnd' operator='atop'/>
	</filter>
	<filter id='greybox' filterUnits='objectBoundingBox' x='0' y='0' height='1' width='1'>
	  <feFlood flood-color='lightgrey' flood-opacity='1' result='grey'/>
	  <feComposite in='SourceGraphic' in2='grey' operator='atop'/>
	</filter>
</defs>
<g fill="none" color="white" stroke="currentColor" stroke-width="1.00" stroke-linecap="butt" stroke-linejoin="miter">
</g>
<g fill="none" color="black" stroke="currentColor" stroke-width="1.00" stroke-linecap="butt" stroke-linejoin="miter">
	<path stroke='black'  d='M227.2,765.6 L248.2,765.6 M1078.4,765.6 L1057.4,765.6  '/>	<g transform="translate(207.7,774.7)" stroke="none" fill="black" font-family="Helvetica" font-size="28.00"  text-anchor="end">
		<text><tspan font-family="Helvetica" > 0</tspan></text>
	</g>
</g>
<g fill="none" color="black" stroke="currentColor" stroke-width="1.00" stroke-linecap="butt" stroke-linejoin="miter">
	<path stroke='black'  d='M227.2,637.7 L248.2,637.7 M1078.4,637.7 L1057.4,637.7  '/>	<g transform="translate(207.7,646.8)" stroke="none" fill="black" font-family="Helvetica" font-size="28.00"  text-anchor="end">
		<text><tspan font-family="Helvetica" > 50000</tspan></text>
	</g>
</g>
<g fill="none" color="black" stroke="currentColor" stroke-width="1.00" stroke-linecap="butt" stroke-linejoin="miter">
	<path stroke='black'  d='M227.2,509.8 L248.2,509.8 M1078.4,509.8 L1057.4,509.8  '/>	<g transform="translate(207.7,518.9)" stroke="none" fill="black" font-family="Helvetica" font-size="28.00"  text-anchor="end">
		<text><tspan font-family="Helvetica" > 100000</tspan></text>
	</g>
</g>
<g fill="none" color="black" stroke="currentColor" stroke-width="1.00" stroke-linecap="butt" stroke-linejoin="miter">
	<path stroke='black'  d='M227.2,381.9 L248.2,381.9 M1078.4,381.9 L1057.4,381.9  '/>	<g transform="translate(207.7,391.0)" stroke="none" fill="black" font-family="Helvetica" font-size="28.00"  text-anchor="end">
		<text><tspan font-family="Helvetica" > 150000</tspan></text>
	</g>
</g>
<g fill="none" color="black" stroke="currentColor" stroke-width="1.00" stroke-linecap="butt" stroke-linejoin="miter">
	<path stroke='black'  d='M227.2,254.0 L248.2,254.0 M1078.4,254.0 L1057.4,254.0  '/>	<g transform="translate(207.7,263.1)" stroke="none" fill="black" font-family="Helvetica" font-size="28.00"  text-anchor="end">
		<text><tspan font-family="Helvetica" > 200000</tspan></text>
	</g>
</g>
<g fill="none" color="black" stroke="currentColor" stroke-width="1.00" stroke-linecap="butt" stroke-linejoin="miter">
	<path stroke='black'  d='M227.2,126.1 L248.2,126.1 M1078.4,126.1 L1057.4,126.1  '/>	<g transform="translate(207.7,135.2)" stroke="none" fill="black" font-family="Helvetica" font-size="28.00"  text-anchor="end">
		<text><tspan font-family="Helvetica" > 250000</tspan></text>
	</g>
</g>
<g fill="none" color="black" stroke="currentColor" stroke-width="1.00" stroke-linecap="butt" stroke-linejoin="miter">
	<path stroke='black'  d='M227.2,765.6 L227.2,744.6 M227.2,126.1 L227.2,147.1  '/>	<g transform="translate(227.2,816.7)" stroke="none" fill="black" font-family="Helvetica" font-size="28.00"  text-anchor="middle">
		<text><tspan font-family="Helvetica" > 0</tspan></text>
	</g>
</g>
<g fill="none" color="black" stroke="currentColor" stroke-width="1.00" stroke-linecap="butt" stroke-linejoin="miter">
	<path stroke='black'  d='M348.8,765.6 L348.8,744.6 M348.8,126.1 L348.8,147.1  '/>	<g transform="translate(348.8,816.7)" stroke="none" fill="black" font-family="Helvetica" font-size="28.00"  text-anchor="middle">
		<text><tspan font-family="Helvetica" > 100</tspan></text>
	</g>
</g>
<g fill="none" color="black" stroke="currentColor" stroke-width="1.00" stroke-linecap="butt" stroke-linejoin="miter">
	<path stroke='black'  d='M470.4,765.6 L470.4,744.6 M470.4,126.1 L470.4,147.1  '/>	<g transform="translate(470.4,816.7)" stroke="none" fill="black" font-family="Helvetica" font-size="28.00"  text-anchor="middle">
		<text><tspan font-family="Helvetica" > 200</tspan></text>
	</g>
</g>
<g fill="none" color="black" stroke="currentColor" stroke-width="1.00" stroke-linecap="butt" stroke-linejoin="miter">
	<path stroke='black'  d='M592.0,765.6 L592.0,744.6 M592.0,126.1 L592.0,147.1  '/>	<g transform="translate(592.0,816.7)" stroke="none" fill="black" font-family="Helvetica" font-size="28.00"  text-anchor="middle">
		<text><tspan font-family="Helvetica" > 300</tspan></text>
	</g>
</g>
<g fill="none" color="black" stroke="currentColor" stroke-width="1.00" stroke-linecap="butt" stroke-linejoin="miter">
	<path stroke='black'  d='M713.6,765.6 L713.6,744.6 M713.6,126.1 L713.6,147.1  '/>	<g transform="translate(713.6,816.7)" stroke="none" fill="black" font-family="Helvetica" font-size="28.00"  text-anchor="middle">
		<text><tspan font-family="Helvetica" > 400</tspan></text>
	</g>
</g>
<g fill="none" color="black" stroke="currentColor" stroke-width="1.00" stroke-linecap="butt" stroke-linejoin="miter">
	<path stroke='black'  d='M835.2,765.6 L835.2,744.6 M835.2,126.1 L835.2,147.1  '/>	<g transform="translate(835.2,816.7)" stroke="none" fill="black" font-family="Helvetica" font-size="28.00"  text-anchor="middle">
		<text><tspan font-family="Helvetica" > 500</tspan></text>
	</g>
</g>
<g fill="none" color="black" stroke="currentColor" stroke-width="1.00" stroke-linecap="butt" stroke-linejoin="miter">
	<path stroke='black'  d='M956.8,765.6 L956.8,744.6 M956.8,126.1 L956.8,147.1  '/>	<g transform="translate(956.8,816.7)" stroke="none" fill="black" font-family="Helvetica" font-size="28.00"  text-anchor="middle">
		<text><tspan font-family="Helvetica" > 600</tspan></text>
	</g>
</g>
<g fill="none" color="black" stroke="currentColor" stroke-width="1.00" stroke-linecap="butt" stroke-linejoin="miter">
	<path stroke='black'  d='M1078.4,765.6 L1078.4,744.6 M1078.4,126.1 L1078.4,147.1  '/>	<g transform="translate(1078.4,816.7)" stroke="none" fill="black" font-family="Helvetica" font-size="28.00"  text-anchor="middle">
		<text><tspan font-family="Helvetica" > 700</tspan></text>
	</g>
</g>
<g fill="none" color="black" stroke="currentColor" stroke-width="1.00" stroke-linecap="butt" stroke-linejoin="miter">
</g>
<g fill="none" color="black" stroke="currentColor" stroke-width="1.00" stroke-linecap="butt" stroke-linejoin="miter">
	<path stroke='black'  d='M227.2,126.1 L227.2,765.6 L1078.4,765.6 L1078.4,126.1 L227.2,126.1 Z  '/></g>
<g fill="none" color="black" stroke="currentColor" stroke-width="1.00" stroke-linecap="butt" stroke-linejoin="miter">
	<g transform="translate(39.8,445.9) rotate(270)" stroke="none" fill="black" font-family="Helvetica-Bold" font-size="28.00"  text-anchor="middle">
		<text><tspan font-family="Helvetica-Bold" >Ambulanse, abs.</tspan></text>
	</g>
</g>
<g fill="none" color="black" stroke="currentColor" stroke-width="1.00" stroke-linecap="butt" stroke-linejoin="miter">
	<g transform="translate(1129.4,445.9) rotate(270)" stroke="none" fill="black" font-family="Helvetica-Bold" font-size="28.00"  text-anchor="middle">
		<text><tspan font-family="Helvetica-Bold" >Ambulanse, %</tspan></text>
	</g>
</g>
<g fill="none" color="black" stroke="currentColor" stroke-width="1.00" stroke-linecap="butt" stroke-linejoin="miter">
	<g transform="translate(652.8,879.7)" stroke="none" fill="black" font-family="Helvetica-Bold" font-size="28.00"  text-anchor="middle">
		<text><tspan font-family="Helvetica-Bold" >M/Z, a.e.m.</tspan></text>
	</g>
</g>
<g fill="none" color="black" stroke="currentColor" stroke-width="1.00" stroke-linecap="butt" stroke-linejoin="miter">
	<g transform="translate(652.8,72.2)" stroke="none" fill="black" font-family="Helvetica" font-size="28.00"  text-anchor="middle">
		<text><tspan font-family="Helvetica" >Integrate MS2 Spectr</tspan></text>
	</g>
</g>
	<g id="gnuplot_plot_1" ><title>175</title>
<g fill="none" color="white" stroke="black" stroke-width="5.00" stroke-linecap="butt" stroke-linejoin="miter">
</g>
<g fill="none" color="black" stroke="currentColor" stroke-width="5.00" stroke-linecap="butt" stroke-linejoin="miter">
	<path stroke='black'  d='M258.7,765.6 L258.7,765.2 M260.1,765.6 L260.1,765.3 M261.1,765.6 L261.1,764.9 M261.3,765.6 L261.3,765.3
		M274.7,765.6 L274.7,754.1 M274.7,765.6 L274.7,765.3 M281.9,765.6 L281.9,764.9 M288.0,765.6 L288.0,765.2
		M289.2,765.6 L289.2,705.7 M289.3,765.6 L289.3,763.6 M290.5,765.6 L290.5,761.2 M290.6,765.6 L290.6,765.3
		M291.7,765.6 L291.7,755.8 M297.5,765.6 L297.5,765.2 M303.8,765.6 L303.8,763.8 M305.1,765.6 L305.1,763.9
		M307.5,765.6 L307.5,762.2 M308.7,765.6 L308.7,764.0 M322.1,765.6 L322.1,724.0 M322.2,765.6 L322.2,765.3
		M323.3,765.6 L323.3,765.3 M324.5,765.6 L324.5,765.3 M339.1,765.6 L339.1,693.3 M340.3,765.6 L340.3,761.9
		M341.5,765.6 L341.5,684.6 M341.7,765.6 L341.7,764.4 M342.8,765.6 L342.8,761.2 M343.3,765.6 L343.3,765.1
		M352.9,765.6 L352.9,764.9 M408.4,765.6 L408.4,764.7 M409.6,765.6 L409.6,241.6 M410.9,765.6 L410.9,725.0
		M412.1,765.6 L412.1,764.0 M418.1,765.6 L418.1,764.6 M419.4,765.6 L419.4,764.0 M420.6,765.6 L420.6,765.3
		M421.9,765.6 L421.9,765.3 M424.7,765.6 L424.7,765.2 M502.1,765.6 L502.1,764.9 M512.8,765.6 L512.8,765.3
		M532.0,765.6 L532.0,764.9 M579.2,765.6 L579.2,764.9 M601.2,765.6 L601.2,764.9 M622.7,765.6 L622.7,764.9
		M650.6,765.6 L650.6,764.9 M750.3,765.6 L750.3,764.9 M961.2,765.6 L961.2,764.9 M1020.5,765.6 L1020.5,765.2
		M1059.8,765.6 L1059.8,765.2  '/></g>
	</g>
	<g id="gnuplot_plot_2" ><title>0.1</title>
<g fill="none" color="black" stroke="currentColor" stroke-width="5.00" stroke-linecap="butt" stroke-linejoin="miter">
	<path stroke='black'  d='M258.7,765.6 L258.7,765.0 M260.1,765.6 L260.1,765.0 M261.1,765.6 L261.1,765.0 M261.3,765.6 L261.3,765.0
		M274.7,765.6 L274.7,751.5 M274.7,765.6 L274.7,765.0 M281.9,765.6 L281.9,765.0 M288.0,765.6 L288.0,765.0
		M289.2,765.6 L289.2,692.7 M289.3,765.6 L289.3,763.0 M290.5,765.6 L290.5,760.5 M290.6,765.6 L290.6,765.0
		M291.7,765.6 L291.7,753.4 M297.5,765.6 L297.5,765.0 M303.8,765.6 L303.8,763.0 M305.1,765.6 L305.1,763.7
		M307.5,765.6 L307.5,761.8 M308.7,765.6 L308.7,763.7 M322.1,765.6 L322.1,715.1 M322.2,765.6 L322.2,765.0
		M323.3,765.6 L323.3,765.0 M324.5,765.6 L324.5,765.0 M339.1,765.6 L339.1,677.3 M340.3,765.6 L340.3,761.1
		M341.5,765.6 L341.5,666.5 M341.7,765.6 L341.7,764.3 M342.8,765.6 L342.8,760.5 M343.3,765.6 L343.3,765.0
		M352.9,765.6 L352.9,765.0 M408.4,765.6 L408.4,764.3 M409.6,765.6 L409.6,126.1 M410.9,765.6 L410.9,715.7
		M412.1,765.6 L412.1,763.7 M418.1,765.6 L418.1,764.3 M419.4,765.6 L419.4,763.7 M420.6,765.6 M421.9,765.6
		L421.9,765.0 M424.7,765.6 L424.7,765.0 M502.1,765.6 L502.1,765.0 M512.8,765.6 L512.8,765.0 M532.0,765.6
		L532.0,765.0 M579.2,765.6 L579.2,765.0 M601.2,765.6 L601.2,765.0 M622.7,765.6 L622.7,765.0 M650.6,765.6
		L650.6,765.0 M750.3,765.6 L750.3,765.0 M961.2,765.6 L961.2,765.0 M1020.5,765.6 L1020.5,765.0 M1059.8,765.6
		L1059.8,765.0  '/></g>
	</g>
<g fill="none" color="white" stroke="black" stroke-width="2.00" stroke-linecap="butt" stroke-linejoin="miter">
</g>
<g fill="none" color="black" stroke="currentColor" stroke-width="2.00" stroke-linecap="butt" stroke-linejoin="miter">
</g>
<g fill="none" color="black" stroke="black" stroke-width="1.00" stroke-linecap="butt" stroke-linejoin="miter">
</g>
<g fill="none" color="black" stroke="currentColor" stroke-width="1.00" stroke-linecap="butt" stroke-linejoin="miter">
	<path stroke='black'  d='M227.2,126.1 L227.2,765.6 L1078.4,765.6 L1078.4,126.1 L227.2,126.1 Z  '/></g>
<g fill="none" color="black" stroke="currentColor" stroke-width="1.00" stroke-linecap="butt" stroke-linejoin="miter">
</g>
</g>
</svg>

