-------------------------------------------------------------
----------------------- !PROPERTIES! ------------------------
-------------------------------------------------------------
------------------------ !PROPERTY! -------------------------
   name:        PAL_Flags
   comment:     The PAL Flags
   geom. index: 1
   prop. index: 1
        Diskflag:     0
------------------------ !PROPERTY! -------------------------
   name:        SCF_Energy
   comment:     The SCF energy
   geom. index: 1
   prop. index: 1
        SCF Energy:     -544.9749569923
------------------------ !PROPERTY! -------------------------
   name:        PAL_Flags
   comment:     The PAL Flags
   geom. index: 2
   prop. index: 1
        Diskflag:     0
------------------------ !PROPERTY! -------------------------
   name:        SCF_Energy
   comment:     The SCF energy
   geom. index: 2
   prop. index: 1
        SCF Energy:     -544.9714169089
------------------------ !PROPERTY! -------------------------
   name:        PAL_Flags
   comment:     The PAL Flags
   geom. index: 3
   prop. index: 1
        Diskflag:     0
------------------------ !PROPERTY! -------------------------
   name:        SCF_Energy
   comment:     The SCF energy
   geom. index: 3
   prop. index: 1
        SCF Energy:     -544.9714293696
------------------------ !PROPERTY! -------------------------
   name:        PAL_Flags
   comment:     The PAL Flags
   geom. index: 4
   prop. index: 1
        Diskflag:     0
------------------------ !PROPERTY! -------------------------
   name:        SCF_Energy
   comment:     The SCF energy
   geom. index: 4
   prop. index: 1
        SCF Energy:     -544.9714309301
------------------------ !PROPERTY! -------------------------
   name:        PAL_Flags
   comment:     The PAL Flags
   geom. index: 5
   prop. index: 1
        Diskflag:     0
------------------------ !PROPERTY! -------------------------
   name:        SCF_Energy
   comment:     The SCF energy
   geom. index: 5
   prop. index: 1
        SCF Energy:     -544.9714310214
------------------------ !PROPERTY! -------------------------
   name:        PAL_Flags
   comment:     The PAL Flags
   geom. index: 6
   prop. index: 1
        Diskflag:     0
------------------------ !PROPERTY! -------------------------
   name:        SCF_Energy
   comment:     The SCF energy
   geom. index: 6
   prop. index: 1
        SCF Energy:     -544.9714319982
------------------------ !PROPERTY! -------------------------
   name:        PAL_Flags
   comment:     The PAL Flags
   geom. index: 7
   prop. index: 1
        Diskflag:     0
------------------------ !PROPERTY! -------------------------
   name:        SCF_Energy
   comment:     The SCF energy
   geom. index: 7
   prop. index: 1
        SCF Energy:     -544.9714326379
------------------------ !PROPERTY! -------------------------
   name:        PAL_Flags
   comment:     The PAL Flags
   geom. index: 8
   prop. index: 1
        Diskflag:     0
------------------------ !PROPERTY! -------------------------
   name:        SCF_Energy
   comment:     The SCF energy
   geom. index: 8
   prop. index: 1
        SCF Energy:     -544.9714330441
------------------------ !PROPERTY! -------------------------
   name:        PAL_Flags
   comment:     The PAL Flags
   geom. index: 9
   prop. index: 1
        Diskflag:     0
------------------------ !PROPERTY! -------------------------
   name:        SCF_Energy
   comment:     The SCF energy
   geom. index: 9
   prop. index: 1
        SCF Energy:     -544.9714332929
------------------------ !PROPERTY! -------------------------
   name:        PAL_Flags
   comment:     The PAL Flags
   geom. index: 10
   prop. index: 1
        Diskflag:     0
------------------------ !PROPERTY! -------------------------
   name:        SCF_Energy
   comment:     The SCF energy
   geom. index: 10
   prop. index: 1
        SCF Energy:     -544.9714334602
------------------------ !PROPERTY! -------------------------
   name:        PAL_Flags
   comment:     The PAL Flags
   geom. index: 11
   prop. index: 1
        Diskflag:     0
------------------------ !PROPERTY! -------------------------
   name:        SCF_Energy
   comment:     The SCF energy
   geom. index: 11
   prop. index: 1
        SCF Energy:     -544.9714335447
-------------------------------------------------------------
----------------------- !GEOMETRIES! ------------------------
-------------------------------------------------------------
------------------------ !GEOMETRY! -------------------------
    Number of atoms:    14        Geometry Index:    1
    Coordinates:
            C     -1.878914923898    0.130783203570   -1.067555804026
            C     -0.449549294921    0.075236971859   -1.038685374615
            C      0.058187906816    0.892134969804   -0.029778281910
            C     -0.659318605135    1.704895401704    0.894463458558
            C     -2.036046358825    1.694575107228    0.803802268406
            C     -2.643579558874    0.893883247867   -0.189474011442
            H     -2.406996429039   -0.460883439371   -1.820951773335
            N      1.468421594629    0.843578210615    0.018222616006
            N      2.563556736099    0.677501477802   -0.092538162172
            H     -3.733676214101    0.888315720769   -0.256715944289
            H     -2.620231020446    2.300911011998    1.491600011627
            N     -0.004071724840    2.533207943485    1.909576060703
            O      1.230950246455    2.514217296025    1.926934271103
            O     -0.699842353919    3.190042876645    2.673490665385
------------------------ !GEOMETRY! -------------------------
    Number of atoms:    14        Geometry Index:    2
    Coordinates:
            C     -1.051687045309   -1.152656972243   -1.444478944789
            C      0.368615554494   -1.167149617387   -1.368188965157
            C      0.833359563680   -0.382886635305   -0.402629981282
            C      0.174258416291    0.432631536747    0.525557655969
            C     -1.214602735583    0.417246721937    0.424853501670
            C     -1.819051157946   -0.381001302530   -0.564346085084
            H     -1.568406322742   -1.749509608060   -2.202266535302
            N      2.460888651643   -0.389936928242   -0.300239382117
            N      3.500930841065   -0.677288550800   -0.559366297368
            H     -2.908342356282   -0.389894016476   -0.635046780445
            H     -1.798345582913    1.024990404250    1.112083309672
            N      0.829459062827    1.258382927357    1.541489975680
            O      2.064557595784    1.242503567221    1.570847238634
            O      0.128365514991    1.914568473531    2.301731289919
------------------------ !GEOMETRY! -------------------------
    Number of atoms:    14        Geometry Index:    3
    Coordinates:
            C     -1.050961251006   -1.152226103376   -1.442944757058
            C      0.369925550786   -1.165696630126   -1.369418412219
            C      0.834905106280   -0.380628176636   -0.404138517861
            C      0.173557894945    0.433405225711    0.524589790250
            C     -1.215435592988    0.418020664659    0.424543633948
            C     -1.819315535577   -0.380333961723   -0.564252985892
            H     -1.567380414334   -1.752423570170   -2.196968135662
            N      2.459626652361   -0.388851181236   -0.301491745999
            N      3.500724860323   -0.675035550287   -0.556663691599
            H     -2.908663058729   -0.387835040014   -0.636499545539
            H     -1.800014301951    1.024685114571    1.112038936268
            N      0.829015302051    1.256928187174    1.540261016198
            O      2.064074362092    1.236347283882    1.569230039242
            O      0.129940425747    1.913643737571    2.301714375924
------------------------ !GEOMETRY! -------------------------
    Number of atoms:    14        Geometry Index:    4
    Coordinates:
            C     -1.051628705011   -1.152169739464   -1.443156929998
            C      0.368881856522   -1.164160197252   -1.368133725763
            C      0.832836687512   -0.380547905956   -0.403981842942
            C      0.173016855979    0.432947798794    0.525352403407
            C     -1.216355334200    0.417663478229    0.424726531772
            C     -1.820088504251   -0.380119967741   -0.564358805264
            H     -1.567594053503   -1.752614538374   -2.197278747300
            N      2.465446398809   -0.388810935336   -0.299262097051
            N      3.504537007321   -0.676908246631   -0.560203197851
            H     -2.909364661893   -0.387291221842   -0.637093504691
            H     -1.801128608301    1.023959276792    1.112380622260
            N      0.828399078165    1.255440539968    1.541661478992
            O      2.063575081836    1.237175709447    1.568914561355
            O      0.129466901015    1.915435949364    2.300433253073
------------------------ !GEOMETRY! -------------------------
    Number of atoms:    14        Geometry Index:    5
    Coordinates:
            C     -1.051118899413   -1.152712063082   -1.441975950053
            C      0.369723233396   -1.165500518091   -1.368637426428
            C      0.834306975731   -0.380307064993   -0.404211580691
            C      0.173005101759    0.433329520802    0.524884300316
            C     -1.216119271239    0.418572748473    0.424238082522
            C     -1.819784535412   -0.379684134151   -0.564592080190
            H     -1.567376309424   -1.754823406973   -2.194560171042
            N      2.462142520083   -0.387639413648   -0.302006614463
            N      3.502985907268   -0.672881131669   -0.559549639068
            H     -2.908974981886   -0.385844746550   -0.638192029775
            H     -1.801237726609    1.024906515726    1.111521962009
            N      0.828420518782    1.255312359370    1.541041016778
            O      2.063644006020    1.231599107667    1.571780410476
            O      0.130383460944    1.915672227118    2.300259719609
------------------------ !GEOMETRY! -------------------------
    Number of atoms:    14        Geometry Index:    6
    Coordinates:
            C     -1.051265409761   -1.153184485499   -1.441443047446
            C      0.369614583177   -1.165906739370   -1.368230228902
            C      0.834208208507   -0.380715982980   -0.403937502880
            C      0.172989110580    0.433195911588    0.525008481649
            C     -1.216137356404    0.419062101597    0.423863673886
            C     -1.819910232675   -0.379306224470   -0.564848750134
            H     -1.567559660119   -1.756130873075   -2.193374171733
            N      2.462817039758   -0.386874361311   -0.302987212272
            N      3.503793085558   -0.670661468285   -0.561484808459
            H     -2.909084991954   -0.384963336123   -0.638808298342
            H     -1.801411224226    1.025545817808    1.110893471980
            N      0.828215343145    1.254594437290    1.541574133933
            O      2.063412672073    1.228100108383    1.574856755640
            O      0.130318832342    1.917245094447    2.298917503082
------------------------ !GEOMETRY! -------------------------
    Number of atoms:    14        Geometry Index:    7
    Coordinates:
            C     -1.051374720122   -1.153460851536   -1.441146159790
            C      0.369532458527   -1.166002448716   -1.368021959651
            C      0.834107539170   -0.380993536295   -0.403694234115
            C      0.172986127015    0.432996353140    0.525209343493
            C     -1.216142955677    0.419256843414    0.423703354437
            C     -1.819997269374   -0.379074822380   -0.565010524852
            H     -1.567649225609   -1.756867804983   -2.192729269748
            N      2.463291374213   -0.386445145969   -0.303612384270
            N      3.504362246701   -0.669324969381   -0.562805069532
            H     -2.909158311510   -0.384404017995   -0.639198324857
            H     -1.801513978299    1.025783475224    1.110611702330
            N      0.828074869904    1.253824442205    1.542242590351
            O      2.063227284949    1.225941116750    1.576804913886
            O      0.130254560112    1.918771366520    2.297646022316
------------------------ !GEOMETRY! -------------------------
    Number of atoms:    14        Geometry Index:    8
    Coordinates:
            C     -1.051382217922   -1.153861716759   -1.440730976736
            C      0.369581743350   -1.166512445064   -1.367843781507
            C      0.834283768474   -0.381345026409   -0.403441510020
            C      0.173046908726    0.433010900020    0.525193526569
            C     -1.216029340982    0.419641688448    0.423410276097
            C     -1.819963615360   -0.378853557332   -0.565169738112
            H     -1.567704160782   -1.757621046355   -2.192020242157
            N      2.462971769131   -0.385973839255   -0.304626659927
            N      3.504414922541   -0.667541726932   -0.563813329717
            H     -2.909126165567   -0.383992978381   -0.639450566124
            H     -1.801455815642    1.026403589146    1.110067852695
            N      0.828031280771    1.253586340555    1.542471289364
            O      2.063087342710    1.223350735084    1.579087952371
            O      0.130243580553    1.919709083235    2.296865907206
------------------------ !GEOMETRY! -------------------------
    Number of atoms:    14        Geometry Index:    9
    Coordinates:
            C     -1.051458830207   -1.154001023765   -1.440607204316
            C      0.369511700630   -1.166544310765   -1.367696693901
            C      0.834211675835   -0.381487012325   -0.403297971799
            C      0.173044606209    0.432913996013    0.525304570645
            C     -1.216039175138    0.419737499713    0.423315424347
            C     -1.820017460630   -0.378728514980   -0.565262882770
            H     -1.567757387410   -1.758040715943   -2.191688478802
            N      2.463293406951   -0.385753483931   -0.304983764473
            N      3.504776282562   -0.666804880912   -0.564610119370
            H     -2.909175346241   -0.383722259471   -0.639631491441
            H     -1.801499605733    1.026533743379    1.109915745152
            N      0.827960598605    1.253152415342    1.542896240739
            O      2.062959827727    1.222083752639    1.580259536612
            O      0.130189706839    1.920660795006    2.296087089377
------------------------ !GEOMETRY! -------------------------
    Number of atoms:    14        Geometry Index:    10
    Coordinates:
            C     -1.051462094624   -1.154245419545   -1.440364841213
            C      0.369534264992   -1.166809974129   -1.367596447102
            C      0.834315967119   -0.381668568369   -0.403156535052
            C      0.173078048659    0.432934762341    0.525294060259
            C     -1.215975542214    0.419953889535    0.423144242208
            C     -1.819995074691   -0.378613259815   -0.565346765432
            H     -1.567779200370   -1.758472480860   -2.191292090184
            N      2.463108555998   -0.385507990665   -0.305590980627
            N      3.504811237422   -0.665790745008   -0.565212552799
            H     -2.909154517478   -0.383503955849   -0.639763176970
            H     -1.801456878871    1.026893440905    1.109602660281
            N      0.827938578904    1.253034570879    1.543039023438
            O      2.062863718129    1.220555126955    1.581628096929
            O      0.130172937026    1.921240603626    2.295615306262
------------------------ !GEOMETRY! -------------------------
    Number of atoms:    14        Geometry Index:    11
    Coordinates:
            C     -1.051504041483   -1.154260466741   -1.440366986446
            C      0.369487299358   -1.166751456170   -1.367571924309
            C      0.834288389008   -0.381711421829   -0.403107568024
            C      0.173100332862    0.432880369652    0.525360041510
            C     -1.215968515565    0.419949236994    0.423141591513
            C     -1.820024031466   -0.378570790942   -0.565377220711
            H     -1.567804678760   -1.758609240354   -2.191203448064
            N      2.463276293544   -0.385519812527   -0.305729444569
            N      3.504992866718   -0.665615282220   -0.565509666401
            H     -2.909179266771   -0.383410864090   -0.639807923045
            H     -1.801453826929    1.026875502912    1.109601412151
            N      0.827900976844    1.252827873965    1.543279764483
            O      2.062798672567    1.220242312496    1.582040321098
            O      0.130089530075    1.921674038855    2.295251050813
