14
Coordinates from ORCA-job 2-NO2-C6H3-N2-source-RB3LYPG-aug-cc-pVDZ
  C   -1.87891492389776      0.13078320356983     -1.06755580402633
  C   -0.44954929492119      0.07523697185879     -1.03868537461529
  C   0.05818790681579      0.89213496980402     -0.02977828191003
  C   -0.65931860513487      1.70489540170362      0.89446345855849
  C   -2.03604635882493      1.69457510722839      0.80380226840572
  C   -2.64357955887436      0.89388324786693     -0.18947401144159
  H   -2.40699642903888     -0.46088343937062     -1.82095177333547
  N   1.46842159462918      0.84357821061546      0.01822261600646
  N   2.56355673609861      0.67750147780176     -0.09253816217162
  H   -3.73367621410136      0.88831572076884     -0.25671594428856
  H   -2.62023102044623      2.30091101199836      1.49160001162749
  N   -0.00407172483980      2.53320794348483      1.90957606070311
  O   1.23095024645507      2.51421729602452      1.92693427110296
  O   -0.69984235391928      3.19004287664528      2.67349066538466
