16
Coordinates from ORCA-job 4-CH3O-C6H3-N2-B3LYPG-aug-cc-pVDZ-scan-d09-49-n400
  C   -2.02761978665590      0.12593355829160      0.24344761742718
  C   -0.68056385768742      0.28877210268409     -0.15397839783178
  C   -0.32100768861530      1.62640110390804     -0.13830930679569
  C   -1.04498947943535      2.60031096524915      0.17515776129490
  C   -2.36581905793541      2.56595237323516      0.57662235539630
  C   -2.84807612245720      1.22689071401923      0.59840885529772
  H   -2.43311587109743     -0.88312755080631      0.27275290069706
  H   -0.05454719521319     -0.55897584268288     -0.42552923503700
  H   -3.01088130331028      3.39738141664887      0.85249048989561
  N   3.10132498768439     -0.55687494513915     -1.39114628845017
  N   4.02662509086633     -0.00170835533259     -1.62519689360481
  O   -4.15397512187278      1.10310979457050      0.98689226215932
  C   -4.73361582156969     -0.19602430141312      1.04212815388971
  H   -5.76620656794125     -0.04637129819689      1.37257761596044
  H   -4.20667127789627     -0.83735817239941      1.76546132464290
  H   -4.73186092686318     -0.67591156263627      0.05122078505828
