16
Coordinates from ORCA-job 4-CH3O-C6H3-N2-B3LYPG-aug-cc-pVDZ-scan-d09-49-n400
  C   -2.02670819120299      0.13062840780371      0.24363566803267
  C   -0.68009554762039      0.29799581145390     -0.15319949814336
  C   -0.32434755959394      1.63658449457241     -0.13627591251637
  C   -1.05129213091023      2.60809403573097      0.17785175728195
  C   -2.37212546385747      2.56942398213362      0.57888491572212
  C   -2.85045273058695      1.22889837448851      0.59932863740763
  H   -2.42919604722328     -0.87966119414909      0.27190188723670
  H   -0.05019600393425     -0.54651599407760     -0.42561481382273
  H   -3.01973768589498      3.39868642162535      0.85531184147650
  N   3.10504012352312     -0.57201147886678     -1.39358347482536
  N   4.03293809906621     -0.02189880881706     -1.62926906618047
  O   -4.15608990000784      1.10096145528225      0.98731648453559
  C   -4.73192335471717     -0.19992090509759      1.04121496049071
  H   -5.76505014577047     -0.05360271834726      1.37148821160825
  H   -4.20330642111529     -0.84034982838706      1.76413055486041
  H   -4.72845704015401     -0.67891205534826      0.04987784683576
