31
Coordinates from ORCA-job Ph-N2-X-OTs-B3LYPG-6-31G_dp-scan-d09-49-n400
  C   -0.24361549298074      0.32831436245474     -1.35360952047060
  C   0.69154378074162      0.97459740527454     -2.15774774974307
  C   0.30118811036776      2.18583177689475     -2.75059695800704
  C   -0.96983267004095      2.74823451935943     -2.56927404957780
  C   -1.87656312782466      2.08592497253186     -1.75037913690634
  C   -1.51240330977856      0.87798085262481     -1.14600776452920
  H   0.02624369585028     -0.61425939038351     -0.88963856181019
  H   1.67734453074680      0.56060970033281     -2.33529717472301
  H   -1.22072971830643      3.68222289948652     -3.05932896970118
  H   -2.86374658572617      2.50491511289454     -1.58780407587527
  N   1.18169525110505      2.88760250082397     -3.58710735511256
  N   2.22936438897360      3.04593095018118     -4.02095741975136
  C   6.22412804689182      1.36950558345403     -5.25426008728707
  C   7.61314857960167      1.44371537959409     -5.34823836060419
  C   8.43845077476290      0.83298911929186     -4.39378816581440
  C   7.83305233632494      0.13996511814484     -3.33552815454985
  C   6.44622862881900      0.05589766221091     -3.22840023790137
  C   5.64742148075344      0.67627145633922     -4.18995742930476
  H   5.58640554599703      1.82946437204961     -6.00121369343939
  H   8.06404918489526      1.98066235003862     -6.17943915226021
  H   8.45635489589962     -0.34294535978202     -2.58695198564180
  H   5.97944221194189     -0.49252975274955     -2.41733506791339
  S   3.86176623173018      0.60875522688017     -4.03886192843300
  O   3.53106526821021     -0.64408427518339     -3.32891906373321
  O   3.28614050263710      0.80832689137137     -5.38281502431798
  O   3.51433116461664      1.81127893664178     -3.11662967720108
  C   9.94260484932749      0.88994238933459     -4.51968687393557
  H   10.32568288744011      0.02409203052875     -5.07509398414041
  H   10.26661541496647      1.78757556541440     -5.05483151475982
  H   10.42785503350912      0.88536378179461     -3.53920470233944
  H   -2.22583189145276      0.35874786215045     -0.51309616021541
