31
Coordinates from ORCA-job Ph-N2-X-OTs-B3LYPG-6-31G_dp-scan-d09-49-n400
  C   -0.32156202154427      0.34901311978440     -1.36834390398966
  C   0.69404709687070      1.01018815361144     -2.05336027331309
  C   0.36156409579429      2.21609574761403     -2.69182029339539
  C   -0.92924288654794      2.76162609599114     -2.66252323667507
  C   -1.91967849230036      2.08340424108236     -1.96219364752727
  C   -1.61462230207401      0.87917078804232     -1.31885310239153
  H   -0.09654802936653     -0.58978563371495     -0.87382939565949
  H   1.70291047083649      0.61835657631718     -2.10865021349929
  H   -1.13187460223844      3.69340697058207     -3.17836103647219
  H   -2.92544530449042      2.48794717727199     -1.92095886085421
  N   1.32600394198762      2.93046465742076     -3.41657652440828
  N   2.40948740139150      3.06906505893766     -3.76074537879588
  C   6.15916835481420      1.35545561364176     -5.17912475439362
  C   7.53855825400772      1.45367240675652     -5.35591841535183
  C   8.42957698590772      0.84523495968447     -4.46095644660239
  C   7.90030219281740      0.12997904006187     -3.37703510269908
  C   6.52398747960931      0.02190025664145     -3.18736105801669
  C   5.65877851307157      0.64060448167127     -4.09077674675827
  H   5.47027819348550      1.81364379937573     -5.88026006002230
  H   7.92987190486215      2.00769791552954     -6.20589552152040
  H   8.57538796062909     -0.35149786259410     -2.67390410361526
  H   6.11601803762465     -0.54364520942916     -2.35643936139394
  S   3.88689759060198      0.54179465881133     -3.83180376327896
  O   3.61581871485119     -0.72894338399583     -3.13294130361365
  O   3.22903991455943      0.76835919630874     -5.13390113125261
  O   3.57220311435096      1.71627091151803     -2.86166417757155
  C   9.92224716522384      0.92849436076495     -4.67673169933659
  H   10.28007505521176      0.09142636457742     -5.29006096688671
  H   10.20198814971821      1.85140038036816     -5.19382421279758
  H   10.46658908451463      0.89184954620794     -3.72863790692016
  H   -2.39242603418019      0.34824961115946     -0.77854740098702
