31
Coordinates from ORCA-job Ph-N2-X-OTs-B3LYPG-6-31G_dp-scan-d09-49-n400
  C   -0.53225637761749      0.74160723687845     -1.10876605140989
  C   0.61130153617653      0.94245865062731     -1.87677102725747
  C   0.62753494622207      2.04169743438185     -2.75171732044429
  C   -0.45516713228299      2.92573949672631     -2.86078548828337
  C   -1.58577330990033      2.70272674593248     -2.08301431417007
  C   -1.62263717222047      1.61165401414930     -1.20942631191125
  H   -0.57107649561852     -0.10315874608672     -0.42839035844725
  H   1.47085161294377      0.28698217648282     -1.82657291177670
  H   -0.39383366353222      3.76085337194125     -3.55010615189654
  H   -2.43496021513432      3.37427841051157     -2.15771416900967
  N   1.72962464124055      2.32187709730724     -3.57601636608496
  N   2.77365597544824      1.95311786531250     -3.92050850556255
  C   5.94935203568081      0.94748812223505     -5.24119371239129
  C   7.22968376608034      1.49197820976016     -5.33994556746285
  C   8.21702169355272      1.20033215611853     -4.38940045948982
  C   7.88848620024090      0.34324664897521     -3.32791255599054
  C   6.61475388704006     -0.20852284135442     -3.21523880503230
  C   5.64781151824481      0.10201211020342     -4.17378181672318
  H   5.19023492585588      1.16026600353197     -5.98577350980070
  H   7.46793009218878      2.14912786832122     -6.17267805266183
  H   8.64314415923737      0.10106549358986     -2.58349837381374
  H   6.36794892236331     -0.88474625438637     -2.40391234849794
  S   4.00036223189864     -0.58958610716137     -4.02327782652320
  O   4.12490310255014     -1.88960356440234     -3.35451521007327
  O   3.36302691295549     -0.50430946710485     -5.34366225492452
  O   3.26779425548905      0.38408664119310     -3.01237476137010
  C   9.61172077172826      1.76538394382757     -4.52039573519152
  H   10.28090789627409      1.05149024401892     -5.01713838886523
  H   9.61733237285391      2.68478819575338     -5.11287125768320
  H   10.04652852853576      1.98845659911832     -3.54144574604862
  H   -2.50680761849543      1.43811224359822     -0.60319464120211
