31
Coordinates from ORCA-job Ph-N2-X-OTs-B3LYPG-6-31G_dp-scan-d09-49-n400
  C   -0.56764726518471      0.46836685038804     -1.41547169643859
  C   0.64903310606373      1.00248710469567     -1.82821182985416
  C   0.61698180400370      2.20254118315178     -2.55720402848977
  C   -0.57623455918598      2.86802508610410     -2.86871401173002
  C   -1.77718476037322      2.30989017898296     -2.44625840045987
  C   -1.77044461562826      1.11315989371431     -1.72229969890557
  H   -0.57444145467657     -0.46111023819176     -0.85612396165816
  H   1.60168122760386      0.53435497629394     -1.61360296899749
  H   -0.54422160491488      3.79382701857628     -3.43203958791604
  H   -2.71418425297599      2.80341328646653     -2.68047962288596
  N   1.80208067222912      2.79712730028895     -3.01075755506293
  N   2.94261616943668      2.73235559409273     -3.13299546310939
  C   5.91082073254628      1.17040848572506     -5.02971036007445
  C   7.23315896916330      1.46445256996734     -5.36320055257688
  C   8.29829821504168      0.99997734127082     -4.58091360470618
  C   8.00503935689303      0.22663634884739     -3.44712927260248
  C   6.69048295656865     -0.07709004195717     -3.10258352201795
  C   5.64629660145706      0.40276939383982     -3.89634310851340
  H   5.08684341741945      1.51752322521541     -5.64290009192610
  H   7.44118180385739      2.05957790876196     -6.24907515107100
  H   8.81827253172301     -0.14562864012703     -2.82921065035676
  H   6.46843093882223     -0.68841303728095     -2.23429315739802
  S   3.95035571580620      0.04126788393711     -3.43766590428822
  O   3.93004694410576     -1.30637304593139     -2.85123589111772
  O   3.10643164381894      0.31753223660393     -4.61581913143281
  O   3.62388910251748      1.07158605845968     -2.30672819160475
  C   9.72931373225299      1.29444489894764     -4.96401182092732
  H   10.16233867430259      0.46668195524682     -5.54028631925034
  H   9.80129244568730      2.19451170090173     -5.58180249849368
  H   10.35912076803411      1.43678807806684     -4.08043800484664
  H   -2.71024901641524      0.67980844494140     -1.39449394128732
