16
Coordinates from ORCA-job p-NO2-Ph-N2-X-Cl-B3LYPG-6-31G_dp-scan-d09-49-n400
  C   -1.42414291467981     -1.47701169037202     -0.93408410118716
  C   -0.06887899034317     -1.26734570150686     -1.16531412578520
  C   0.41094944960995      0.04457821067645     -1.19260943576104
  C   -0.42696920356957      1.15151127974403     -1.03468407634617
  C   -1.78129423425234      0.93561798526798     -0.80387734566036
  C   -2.25634107419619     -0.37340262924749     -0.75802548716253
  H   -1.84305173944673     -2.47429819273519     -0.88892602783859
  H   0.60871651458296     -2.10061812992923     -1.30916565138654
  H   -0.02052329599682      2.15534209876069     -1.07833324041060
  H   -2.46947677628601      1.75864442525271     -0.65990500810704
  N   -3.69386845422209     -0.59882967197824     -0.51988001269731
  O   -4.40466005212726      0.39272801640703     -0.37055785825699
  O   -4.08729634398239     -1.76277849002789     -0.49338721584043
  N   1.78696495289862      0.26411789569364     -1.48395955123704
  N   2.74343924904114      0.37265528566598     -0.79704602489619
  Cl  2.40763291296972      0.22698930832836      1.18595516257319
