16
Coordinates from ORCA-job p-NO2-Ph-N2-X-Cl-B3LYPG-6-31G_dp-scan-d09-49-n400
  C   -1.35716679336651     -1.35273639620964     -0.67550211520550
  C   -0.00387156619100     -1.04464031684298     -0.77564773627096
  C   0.36163145929775      0.29441299793706     -0.97708503863767
  C   -0.59213104929380      1.31433677286244     -1.10018951320120
  C   -1.94037515027126      1.00383719169682     -0.97740088918923
  C   -2.29621682677930     -0.32757967648776     -0.76896312797605
  H   -1.69208508039390     -2.37048517320946     -0.51980176754021
  H   0.75579072342051     -1.81006146842857     -0.69198397195333
  H   -0.26414574802880      2.33148187766101     -1.28262619266979
  H   -2.71097940231651      1.76009931682757     -1.05077350603453
  N   -3.73094035331024     -0.66604930547836     -0.65141483302329
  O   -4.53596704445982      0.25784771257627     -0.73833211360481
  O   -4.01933479358873     -1.84654126090826     -0.47572100669734
  N   1.70636484835445      0.69807213987325     -1.13262532594782
  N   2.79240264015807      0.35889264950574     -0.83706396319983
  Cl  3.00822413676907     -1.35298706137518      0.35133110115159
