12
Coordinates from ORCA-job C6H4-N2-B3LYPG-aug-cc-pVDZ-scan-d09-49-n400
  C   -2.88206303090311      0.07799748718299     -1.23375645254086
  C   -1.52686960511661     -0.20044760975837     -1.35022058997844
  C   -0.59627621124595      0.29603951533247     -0.67327725634697
  C   -0.69689903200316      1.23363942747445      0.34462163488291
  C   -2.05290483816458      1.58782804540797      0.54432649784587
  C   -3.10290014643356      1.03306898366618     -0.21351341648143
  H   -3.69253586092898     -0.35135265578046     -1.81995856309424
  N   3.59550811093065      1.68682237604532      1.44914292127550
  N   4.58456642511941      1.29081640377665      1.15874085238379
  H   -4.12727307612512      1.35033833299900     -0.00794114709141
  H   -2.29094982430165      2.32093985841085      1.31786950039931
  H   0.10949708917272      1.66610983524296      0.93376601874598
