35
Coordinates from ORCA-job x2-4-NO2-Ph-N2-BF4-v2-B3LYPG-aug-cc-pVDZ
  C   3.16027048103594      0.11865454358067      0.08954778953021
  C   3.73751485700212      1.21827417351207      0.74642400728174
  C   5.05880985570738      1.66361525016170      0.54886575387241
  C   5.84040888919376      0.96257175360337     -0.36067781808397
  C   5.27680627351943     -0.13173239702782     -1.02247583478280
  C   3.96608544720486     -0.56380243068915     -0.81784777138126
  H   2.13684552230509     -0.18388799781127      0.29263666120957
  H   5.45000124921588      2.52317659687332      1.08960310735301
  H   6.86990441396396      1.24842685512395     -0.56291246624836
  H   3.58848403327272     -1.42566246655745     -1.36277596246756
  N   2.96719277150734      1.93871988209125      1.65702135562957
  N   2.37829298985687      2.53724975118679      2.38140431554130
  H   -2.04578605890931      0.84896360086206      0.40282703450551
  C   -3.06790338170457      0.59164078192744      0.13974439467318
  C   -3.64247575831059     -0.62106492060062      0.55576300069802
  C   -3.87459194695046      1.44340157588053     -0.61005800215323
  C   -4.96195420422542     -1.02031623268209      0.26805888400714
  C   -5.18353090306080      1.05863417489870     -0.90190469499128
  H   -3.49903132025517      2.39985778710348     -0.96569478600113
  C   -5.74446312972761     -0.14988598153126     -0.48003990092485
  H   -5.35111421473029     -1.97369896019938      0.62005179756229
  N   -2.87130730991219     -1.51069487529789      1.30108324644055
  N   -2.28187958244545     -2.24340444252456      1.88886274463566
  N   6.12509713505109     -0.87739427137033     -2.00107455853472
  O   5.60463463358932     -1.82458042953199     -2.57182815422819
  O   7.27073484136707     -0.47873355981307     -2.15221357341213
  F   1.20466138966659     -0.01502128350699      2.46589750531502
  F   -1.11112527527219      0.23949969003919      2.49088609974030
  F   -0.08950464484268     -0.85734819458335      0.73644183941393
  F   0.18491328969529      1.41785320022231      0.97195498289919
  B   0.04726743547324      0.19367406773670      1.69145941840240
  H   -6.77266435608730     -0.39123726774664     -0.73893883740569
  N   -6.03280725174298      1.98674533301975     -1.70850992446085
  O   -7.17678009696445      1.62407006324454     -1.94099144042042
  O   -5.51470607348651      3.03253663040606     -2.07139021321457
