14
Coordinates from ORCA-job 3-NO2-C6H3-N2-v2-B3LYPG-aug-cc-pVDZ-scan-d09-49-n400
  C   -1.63467135905167      0.39546552390169     -0.72212744823427
  C   -0.41128276924822      0.46544052713491     -0.00630724041490
  C   -0.47095060145651      1.51899404358515      0.87981916701548
  C   -1.35851391086910      2.36461205428413      1.14163322249850
  C   -2.56426517057963      2.32355315614478      0.46039050010118
  C   -2.68732771231571      1.29849041847422     -0.49863385830283
  H   -1.75530254329781     -0.38937387128767     -1.47062628268928
  N   3.01007694585432     -1.70726847399748     -0.06771535370039
  N   4.01368154890770     -2.13781683442583      0.09463575131986
  H   -3.61406545946794      1.21892148266539     -1.06407314853550
  N   -3.66205294471998      3.27680225735596      0.70319163067701
  O   -4.68966643732765      3.13720144913520      0.04205220499916
  O   -3.47878754501661      4.13394253630642      1.55861381287167
  H   0.40822795858882     -0.22936426927685     -0.17305295760567
