14
Coordinates from ORCA-job 3-NO2-C6H3-N2-v2-B3LYPG-aug-cc-pVDZ-scan-d09-49-n400
  C   -1.73729830024627      0.35960355721619     -0.80784486343853
  C   -0.48396956089394      0.35317110107664     -0.14217879664426
  C   -0.45713617850846      1.38347796552073      0.77231652483052
  C   -1.29231984544147      2.26180449626051      1.09234278008464
  C   -2.52535640300097      2.29559336218748      0.46151157848926
  C   -2.73582581228052      1.30412560811934     -0.51748564024714
  H   -1.92547343475898     -0.39791216349306     -1.57042880386400
  N   3.06051904701940     -1.57501789890499      0.07226141899237
  N   4.08412630361731     -1.86456747555316      0.36785292900954
  H   -3.68754521180428      1.28325219595363     -1.04542839509545
  N   -3.56584961065602      3.29160707249899      0.77460757556449
  O   -4.62049065769504      3.22550965203112      0.14539098578226
  O   -3.30294762380122      4.12261491424347      1.63503351661312
  H   0.29466728845047     -0.37366238715688     -0.36015081007682
