14
Coordinates from ORCA-job 3-NO2-C6H3-N2-v2-B3LYPG-aug-cc-pVDZ-scan-d09-49-n400
  C   -1.95723904150082      0.26108416300605     -1.01179247863562
  C   -0.65188324276192      0.05392688860488     -0.49412229148291
  C   -0.40050884219501      1.00471818353301      0.46971558198862
  C   -1.07358398812644      1.95340785448824      0.93715566613186
  C   -2.35164392357697      2.18052136248615      0.45146608540718
  C   -2.78980860557784      1.29610727427765     -0.55437885563298
  H   -2.32068566956485     -0.41008537329510     -1.79171286809313
  N   2.90162763207765     -1.02763039397125      0.46494347012351
  N   3.84909367143099     -0.96717230558779      1.02850625690857
  H   -3.78643344772596      1.42919897008823     -0.97148573951495
  N   -3.21758138200747      3.26991908516413      0.93839266676974
  O   -4.33457240403138      3.37356035393416      0.43421232455232
  O   -2.76422549971471      3.99447355257555      1.81553510413276
  H   0.00254474327475     -0.74242961530387     -0.83863492265494
