14
Coordinates from ORCA-job 3-NO2-C6H3-N2-v2-B3LYPG-aug-cc-pVDZ-scan-d09-49-n400
  C   -1.85359125719284      0.31670361679472     -0.90773131967717
  C   -0.57085429726931      0.21539532412772     -0.30901529362487
  C   -0.43814336643798      1.21201055127406      0.63353292078535
  C   -1.20228421732047      2.12602108583770      1.02328824964017
  C   -2.46125495366949      2.25158087264805      0.45858668698595
  C   -2.77874601900088      1.30696566022661     -0.53760172259089
  H   -2.12467822754910     -0.40282878121977     -1.68211661082838
  N   3.06621218778904     -1.36900139429983      0.25516591530331
  N   4.07385100369898     -1.48781829806034      0.69055092305050
  H   -3.75521998171894      1.35818297914875     -1.01597136781174
  N   -3.42405085808336      3.29490450803322      0.85525667992115
  O   -4.50987695097440      3.31218326932481      0.27801227449676
  O   -3.06864833275137      4.08198081256529      1.72370566943248
  H   0.15238527048012     -0.54668020640100     -0.58786300508262
