14
Coordinates from ORCA-job 3-NO2-C6H3-N2-v2-B3LYPG-aug-cc-pVDZ-scan-d09-49-n400
  C   -1.93203468237694      0.27663131773807     -0.98472226472131
  C   -0.63205968168010      0.09934054450296     -0.44369917875379
  C   -0.41193828955808      1.06291389063675      0.51508994226981
  C   -1.11118691291815      2.00299005349048      0.96130018811389
  C   -2.38513931398923      2.20208900720683      0.45326479912987
  C   -2.79071691543691      1.30031463243299     -0.55082769767141
  H   -2.27004341262218     -0.40862728507652     -1.76378382723435
  N   2.96388471131201     -1.13155486575359      0.40805760115313
  N   3.93206187108097     -1.11970886999290      0.93858896496709
  H   -3.78270995818516      1.41118437852149     -0.98507148749913
  N   -3.27847857317550      3.27988090588249      0.91574591339620
  O   -4.38808847200809      3.35957819368875      0.39133769070694
  O   -2.85179680247977      4.02210900950485      1.79150293700474
  H   0.04334643203712     -0.68754091278265     -0.76898358086168
