14
Coordinates from ORCA-job 3-NO2-C6H3-N2-v2-B3LYPG-aug-cc-pVDZ-scan-d09-49-n400
  C   -1.94120061812864      0.27135528258713     -0.99418576332163
  C   -0.63920860292938      0.08365175003336     -0.46129469251949
  C   -0.40830541884626      1.04286293378490      0.49942028072800
  C   -1.09853098220926      1.98593496309917      0.95317307007905
  C   -2.37391592943613      2.19475909051342      0.45276168788808
  C   -2.79086180949234      1.29907229245610     -0.55207105068479
  H   -2.28809624083384     -0.40901398370556     -1.77363737896704
  N   2.94439773997784     -1.09637358536240      0.42800680203335
  N   3.90575273458311     -1.06783882067209      0.97017480424773
  H   -3.78457850151833      1.41767687678510     -0.98035338381943
  N   -3.25781788805273      3.27648641148386      0.92372526610452
  O   -4.36978521342666      3.36474922148079      0.40579406497497
  O   -2.82172288627859      4.01288993605319      1.79970980455341
  H   0.02897361659121     -0.70661236853697     -0.79342351129672
