14
Coordinates from ORCA-job 3-NO2-C6H3-N2-v2-B3LYPG-aug-cc-pVDZ-scan-d09-49-n400
  C   -1.99870337393589      0.22711724563494     -1.06371923147538
  C   -0.68625776095680     -0.03756573337901     -0.59240083964574
  C   -0.36845460172631      0.88244421401840      0.38074398508903
  C   -0.98975950779461      1.84553417864386      0.88893564097530
  C   -2.27334623738644      2.12870678886885      0.44908444294125
  C   -2.77670915600657      1.28239280207658     -0.55904230326614
  H   -2.41121017099658     -0.41419380340758     -1.84428192815591
  N   2.71738310416808     -0.79321072084314      0.57008277487403
  N   3.60995873184497     -0.62614044718468      1.19800681068512
  H   -3.78053162113494      1.46103922787994     -0.94034373871683
  N   -3.08191609135817      3.23894218483749      0.98536753365306
  O   -4.20903044099821      3.39533353666305      0.51870740743886
  O   -2.57333491703567      3.92907735847428      1.85995226521503
  H   -0.07298795668286     -0.84987683228295     -0.97329281961170
