14
Coordinates from ORCA-job 3-NO2-C6H3-N2-v2-B3LYPG-aug-cc-pVDZ-scan-d09-49-n400
  C   -1.99507652393226      0.23075089038994     -1.05870181496653
  C   -0.68321518622936     -0.02800391223956     -0.58247243602746
  C   -0.37212302962670      0.89520851156885      0.38986603123168
  C   -0.99887313417534      1.85696865515345      0.89387889532103
  C   -2.28210078819054      2.13432983036165      0.44931750042463
  C   -2.77884961879383      1.28400625842832     -0.55871781282859
  H   -2.40254698815462     -0.41371455585855     -1.83931404275442
  N   2.73974134075354     -0.81857923306294      0.55995746378351
  N   3.63899770631242     -0.66317133227865      1.18131902056692
  H   -3.78206863418322      1.45802138206899     -0.94372969170810
  N   -3.09669648954438      3.24250713363839      0.98067490998361
  O   -4.22284551014297      3.39362418216641      0.50997215180624
  O   -2.59359786219130      3.93644185126421      1.85542492477242
  H   -0.06564528190146     -0.83878966160049     -0.95967509960495
