14
Coordinates from ORCA-job 3-NO2-C6H3-N2-v2-B3LYPG-aug-cc-pVDZ-scan-d09-49-n400
  C   -1.90157196370956      0.29339455585740     -0.95376110871107
  C   -0.60795279147501      0.14736469835293     -0.38862564597457
  C   -0.42330470681102      1.12521562714201      0.56370297704039
  C   -1.14984877056148      2.05526589865468      0.98642680291876
  C   -2.41830084948731      2.22437637723019      0.45490888747133
  C   -2.78804390437980      1.30412459806703     -0.54622300537318
  H   -2.21225750227142     -0.40663218802611     -1.73109640676044
  N   3.01659656440961     -1.23631045581449      0.34554904619137
  N   4.00333671949727     -1.27596315633870      0.83926934359004
  H   -3.77421858278097      1.39043378703188     -0.99891146040325
  N   -3.34045285157244      3.28892612070329      0.89030142576626
  O   -4.44208049923576      3.34119791720287      0.34602081568714
  O   -2.94377836887052      4.04837360208119      1.76542584208217
  H   0.08697750724841     -0.63016738214416     -0.69518751352494
