22
Coordinates from ORCA-job p-CH3O-Ph-N2-X-BF4-B3LYPG-6-31G_dp-scan-d09-49-n400
  C   -0.88719414696442      0.62222805211293      1.15105991889902
  C   0.31376552678862      0.43783782381622      0.48765675895727
  C   0.39138887260939      0.87506278565580     -0.84821925842265
  C   -0.69379921638848      1.48318171290272     -1.52830984098380
  C   -1.87046053767869      1.65958085391027     -0.84294193171580
  C   -1.97886758897148      1.23473334359273      0.50625167462159
  H   -0.95401376771155      0.29679785890818      2.18108861489869
  H   1.17123193079194     -0.02179784193063      0.98850955534813
  H   -0.58849216496058      1.80589561677457     -2.55799431956480
  H   -2.73013480210184      2.12615673885544     -1.30978580476079
  N   1.55042658038116      0.70723358980319     -1.55446055476914
  N   2.45148750252721      0.58650740608359     -2.20099520107211
  B   3.54354783948371      0.34066488223234      1.62074698582383
  F   4.73603859030448     -0.34598402894413      1.54895939948101
  F   3.15598914445210      0.76293269389459      0.29340388947994
  F   2.49694438743430     -0.53495101474207      2.06338453419858
  F   3.59629357307330      1.45093929231311      2.44433107722348
  O   -3.16562368263781      1.46266732147426      1.07639447986604
  C   -3.37493935960003      1.08961215007804      2.44629236083224
  H   -4.39747753681247      1.38712132960433      2.67382657344524
  H   -2.68011726964258      1.61876327644703      3.10507624348004
  H   -3.26609387437632      0.00821615715745      2.57722484473400
