13
Coordinates from ORCA-job o-NO2-Ph+-B3LYPG-aug-cc-pVDZ-scan-d09-49-n400
  C   -1.46809435892641      0.99236579134158     -0.83318542949729
  C   -0.74661197319187      0.99958993966637      0.35172739535262
  C   -1.24223048638307      1.06579308864199      1.78691138452990
  C   -2.57439869348947      0.96145195458640      1.45930090790444
  C   -3.47216357490531      0.97651030827641      0.46739405888957
  C   -2.86386744365784      0.96920930808593     -0.81998803302468
  H   -0.92183512305904      0.96863422538697     -1.77662902380288
  H   0.32220680786661      0.76969830185994      0.37969565785638
  H   -3.48400374269619      1.00058736028701     -1.71412481490563
  H   -4.54631320710574      1.08080794276916      0.62976248171884
  N   1.19977798248335      3.38708461320457      2.14872443716615
  O   -0.48571386032388      1.06363737066654      2.76896540130803
  O   0.81604767338887      2.88792979522717      3.04744557650458
