13
Coordinates from ORCA-job o-NO2-Ph+-B3LYPG-aug-cc-pVDZ-scan-d09-49-n400
  C   -1.29063248240799      1.21227274968935     -0.64731961377534
  C   -0.65190103829020      1.06011900865139      0.61370454403283
  C   -1.27846754363738      0.87655000246728      2.04379912104017
  C   -2.56735957024762      0.82589317720386      1.56015655024913
  C   -3.35318560966800      0.99483024353977      0.49852043594328
  C   -2.65800073717499      1.18009020330545     -0.75147047730225
  H   -0.65781370500958      1.32482339901624     -1.52962121676545
  H   0.30967525228912      0.53481390853922      0.65645971133785
  H   -3.21348669486862      1.33138407981258     -1.67483850095975
  H   -4.43944015836395      1.07511114460756      0.59163353486594
  N   0.34836908003044      2.93702651920057      1.20969034043564
  O   -0.57565107012310      0.81662832133544      3.02388171230489
  O   0.56069427747187      2.95375724263132      2.30140385859306
