20
Coordinates from ORCA-job p-NO2-Ph-N2-BF4-B3LYPG-aug-cc-pVDZ-scan-d09-49-n400
  C   -1.40274706928022     -0.63014884791543      0.19498109449841
  C   -0.00874274230510     -0.65463123735694      0.18849147637346
  C   0.67107168021827      0.53667877638440      0.42198991888708
  C   0.03301082303712      1.75000758168629      0.66036102524956
  C   -1.36127629792976      1.76951479683778      0.66666393692228
  C   -2.05678317547442      0.58069600308820      0.43427441065244
  H   -1.98483572857405     -1.53083758984120      0.01819397448697
  H   0.54577174710880     -1.57278972168738      0.00482873282796
  H   0.61831201709918      2.65004074234320      0.83682107514577
  H   -1.91222879573064      2.68881983562178      0.84761010524884
  N   -3.53095535662554      0.60470719094681      0.43996340800395
  O   -4.12002191015086     -0.45440641323224      0.23783753536220
  O   -4.08373262106534      1.67997446620923      0.65801496794655
  N   2.24515234538727      1.45810295924587     -3.55874272082750
  N   2.76821098966708      1.46606099367035     -4.53151134963213
  B   3.69037303678565      1.55843340945657      2.16640679275705
  F   2.03331739015943      0.51214329690293      0.40582427629248
  F   3.25858151625819      0.72473851154209      3.10451445495993
  F   4.72085675620574      1.22836315245869      1.40088278579428
  F   3.11996539520911      2.75343209363902      2.03579409905041
