15
Coordinates from ORCA-job o-NO2-Ph-N2+-B3LYPG-aug-cc-pVDZ-scan-d09-49-n400
  C   -1.67124469897623      0.22769777040512     -0.76792170219930
  C   -0.50667495976267      0.15680935471781     -0.07102675885715
  C   -0.21902234890854      0.98924512263517      1.07994506127619
  C   -1.52403523502639      2.02146235453122      1.37980323251416
  C   -2.70984754493757      2.00601557658979      0.56743458135505
  C   -2.76616737907306      1.13304333371668     -0.46550259220364
  H   -1.79467107401509     -0.44336582829416     -1.61939131444007
  H   0.29898474810867     -0.52957892603655     -0.33431123193625
  N   3.02575795749962      0.55884814919530     -1.41894555967240
  N   4.04887257953440      0.69156208546911     -1.81207379443886
  H   -3.65414033215796      1.10143097223114     -1.09511683891652
  H   -3.51519396330924      2.69579526924031      0.81541664381960
  N   -1.15677572015397      2.67711806720739      2.37790189575602
  O   0.72059134720342      1.06413106991137      1.80430549018113
  O   -0.34213337602541      2.89408562848029      3.17888288776204
