<?xml version="1.0" encoding="utf-8"  standalone="no"?>
<!DOCTYPE svg PUBLIC "-//W3C//DTD SVG 1.1//EN"
 "http://www.w3.org/Graphics/SVG/1.1/DTD/svg11.dtd">
<svg 
 width="1200" height="900"
 viewBox="0 0 1200 900"
 xmlns="http://www.w3.org/2000/svg"
 xmlns:xlink="http://www.w3.org/1999/xlink"
>

<title>Gnuplot</title>
<desc>Produced by GNUPLOT 5.0 patchlevel 5 </desc>

<g id="gnuplot_canvas">

<rect x="0" y="0" width="1200" height="900" fill="none"/>
<defs>

	<circle id='gpDot' r='0.5' stroke-width='0.5'/>
	<path id='gpPt0' stroke-width='0.095' stroke='currentColor' d='M-1,0 h2 M0,-1 v2'/>
	<path id='gpPt1' stroke-width='0.095' stroke='currentColor' d='M-1,-1 L1,1 M1,-1 L-1,1'/>
	<path id='gpPt2' stroke-width='0.095' stroke='currentColor' d='M-1,0 L1,0 M0,-1 L0,1 M-1,-1 L1,1 M-1,1 L1,-1'/>
	<rect id='gpPt3' stroke-width='0.095' stroke='currentColor' x='-1' y='-1' width='2' height='2'/>
	<rect id='gpPt4' stroke-width='0.095' stroke='currentColor' fill='currentColor' x='-1' y='-1' width='2' height='2'/>
	<circle id='gpPt5' stroke-width='0.095' stroke='currentColor' cx='0' cy='0' r='1'/>
	<use xlink:href='#gpPt5' id='gpPt6' fill='currentColor' stroke='none'/>
	<path id='gpPt7' stroke-width='0.095' stroke='currentColor' d='M0,-1.33 L-1.33,0.67 L1.33,0.67 z'/>
	<use xlink:href='#gpPt7' id='gpPt8' fill='currentColor' stroke='none'/>
	<use xlink:href='#gpPt7' id='gpPt9' stroke='currentColor' transform='rotate(180)'/>
	<use xlink:href='#gpPt9' id='gpPt10' fill='currentColor' stroke='none'/>
	<use xlink:href='#gpPt3' id='gpPt11' stroke='currentColor' transform='rotate(45)'/>
	<use xlink:href='#gpPt11' id='gpPt12' fill='currentColor' stroke='none'/>
	<path id='gpPt13' stroke-width='0.095' stroke='currentColor' d='M0,1.330 L1.265,0.411 L0.782,-1.067 L-0.782,-1.076 L-1.265,0.411 z'/>
	<use xlink:href='#gpPt13' id='gpPt14' fill='currentColor' stroke='none'/>
	<filter id='textbox' filterUnits='objectBoundingBox' x='0' y='0' height='1' width='1'>
	  <feFlood flood-color='white' flood-opacity='1' result='bgnd'/>
	  <feComposite in='SourceGraphic' in2='bgnd' operator='atop'/>
	</filter>
	<filter id='greybox' filterUnits='objectBoundingBox' x='0' y='0' height='1' width='1'>
	  <feFlood flood-color='lightgrey' flood-opacity='1' result='grey'/>
	  <feComposite in='SourceGraphic' in2='grey' operator='atop'/>
	</filter>
</defs>
<g fill="none" color="white" stroke="currentColor" stroke-width="1.00" stroke-linecap="butt" stroke-linejoin="miter">
</g>
<g fill="none" color="black" stroke="currentColor" stroke-width="1.00" stroke-linecap="butt" stroke-linejoin="miter">
	<path stroke='black'  d='M207.7,765.6 L228.7,765.6 M1078.4,765.6 L1057.4,765.6  '/>	<g transform="translate(188.2,774.7)" stroke="none" fill="black" font-family="Helvetica" font-size="28.00"  text-anchor="end">
		<text><tspan font-family="Helvetica" > 0</tspan></text>
	</g>
</g>
<g fill="none" color="black" stroke="currentColor" stroke-width="1.00" stroke-linecap="butt" stroke-linejoin="miter">
	<path stroke='black'  d='M207.7,701.6 L228.7,701.6 M1078.4,701.6 L1057.4,701.6  '/>	<g transform="translate(188.2,710.7)" stroke="none" fill="black" font-family="Helvetica" font-size="28.00"  text-anchor="end">
		<text><tspan font-family="Helvetica" > 5000</tspan></text>
	</g>
</g>
<g fill="none" color="black" stroke="currentColor" stroke-width="1.00" stroke-linecap="butt" stroke-linejoin="miter">
	<path stroke='black'  d='M207.7,637.7 L228.7,637.7 M1078.4,637.7 L1057.4,637.7  '/>	<g transform="translate(188.2,646.8)" stroke="none" fill="black" font-family="Helvetica" font-size="28.00"  text-anchor="end">
		<text><tspan font-family="Helvetica" > 10000</tspan></text>
	</g>
</g>
<g fill="none" color="black" stroke="currentColor" stroke-width="1.00" stroke-linecap="butt" stroke-linejoin="miter">
	<path stroke='black'  d='M207.7,573.7 L228.7,573.7 M1078.4,573.7 L1057.4,573.7  '/>	<g transform="translate(188.2,582.8)" stroke="none" fill="black" font-family="Helvetica" font-size="28.00"  text-anchor="end">
		<text><tspan font-family="Helvetica" > 15000</tspan></text>
	</g>
</g>
<g fill="none" color="black" stroke="currentColor" stroke-width="1.00" stroke-linecap="butt" stroke-linejoin="miter">
	<path stroke='black'  d='M207.7,509.8 L228.7,509.8 M1078.4,509.8 L1057.4,509.8  '/>	<g transform="translate(188.2,518.9)" stroke="none" fill="black" font-family="Helvetica" font-size="28.00"  text-anchor="end">
		<text><tspan font-family="Helvetica" > 20000</tspan></text>
	</g>
</g>
<g fill="none" color="black" stroke="currentColor" stroke-width="1.00" stroke-linecap="butt" stroke-linejoin="miter">
	<path stroke='black'  d='M207.7,445.8 L228.7,445.8 M1078.4,445.8 L1057.4,445.8  '/>	<g transform="translate(188.2,454.9)" stroke="none" fill="black" font-family="Helvetica" font-size="28.00"  text-anchor="end">
		<text><tspan font-family="Helvetica" > 25000</tspan></text>
	</g>
</g>
<g fill="none" color="black" stroke="currentColor" stroke-width="1.00" stroke-linecap="butt" stroke-linejoin="miter">
	<path stroke='black'  d='M207.7,381.9 L228.7,381.9 M1078.4,381.9 L1057.4,381.9  '/>	<g transform="translate(188.2,391.0)" stroke="none" fill="black" font-family="Helvetica" font-size="28.00"  text-anchor="end">
		<text><tspan font-family="Helvetica" > 30000</tspan></text>
	</g>
</g>
<g fill="none" color="black" stroke="currentColor" stroke-width="1.00" stroke-linecap="butt" stroke-linejoin="miter">
	<path stroke='black'  d='M207.7,317.9 L228.7,317.9 M1078.4,317.9 L1057.4,317.9  '/>	<g transform="translate(188.2,327.0)" stroke="none" fill="black" font-family="Helvetica" font-size="28.00"  text-anchor="end">
		<text><tspan font-family="Helvetica" > 35000</tspan></text>
	</g>
</g>
<g fill="none" color="black" stroke="currentColor" stroke-width="1.00" stroke-linecap="butt" stroke-linejoin="miter">
	<path stroke='black'  d='M207.7,254.0 L228.7,254.0 M1078.4,254.0 L1057.4,254.0  '/>	<g transform="translate(188.2,263.1)" stroke="none" fill="black" font-family="Helvetica" font-size="28.00"  text-anchor="end">
		<text><tspan font-family="Helvetica" > 40000</tspan></text>
	</g>
</g>
<g fill="none" color="black" stroke="currentColor" stroke-width="1.00" stroke-linecap="butt" stroke-linejoin="miter">
	<path stroke='black'  d='M207.7,190.0 L228.7,190.0 M1078.4,190.0 L1057.4,190.0  '/>	<g transform="translate(188.2,199.1)" stroke="none" fill="black" font-family="Helvetica" font-size="28.00"  text-anchor="end">
		<text><tspan font-family="Helvetica" > 45000</tspan></text>
	</g>
</g>
<g fill="none" color="black" stroke="currentColor" stroke-width="1.00" stroke-linecap="butt" stroke-linejoin="miter">
	<path stroke='black'  d='M207.7,126.1 L228.7,126.1 M1078.4,126.1 L1057.4,126.1  '/>	<g transform="translate(188.2,135.2)" stroke="none" fill="black" font-family="Helvetica" font-size="28.00"  text-anchor="end">
		<text><tspan font-family="Helvetica" > 50000</tspan></text>
	</g>
</g>
<g fill="none" color="black" stroke="currentColor" stroke-width="1.00" stroke-linecap="butt" stroke-linejoin="miter">
	<path stroke='black'  d='M207.7,765.6 L207.7,744.6 M207.7,126.1 L207.7,147.1  '/>	<g transform="translate(207.7,816.7)" stroke="none" fill="black" font-family="Helvetica" font-size="28.00"  text-anchor="middle">
		<text><tspan font-family="Helvetica" > 0</tspan></text>
	</g>
</g>
<g fill="none" color="black" stroke="currentColor" stroke-width="1.00" stroke-linecap="butt" stroke-linejoin="miter">
	<path stroke='black'  d='M294.8,765.6 L294.8,744.6 M294.8,126.1 L294.8,147.1  '/>	<g transform="translate(294.8,816.7)" stroke="none" fill="black" font-family="Helvetica" font-size="28.00"  text-anchor="middle">
		<text><tspan font-family="Helvetica" > 50</tspan></text>
	</g>
</g>
<g fill="none" color="black" stroke="currentColor" stroke-width="1.00" stroke-linecap="butt" stroke-linejoin="miter">
	<path stroke='black'  d='M381.8,765.6 L381.8,744.6 M381.8,126.1 L381.8,147.1  '/>	<g transform="translate(381.8,816.7)" stroke="none" fill="black" font-family="Helvetica" font-size="28.00"  text-anchor="middle">
		<text><tspan font-family="Helvetica" > 100</tspan></text>
	</g>
</g>
<g fill="none" color="black" stroke="currentColor" stroke-width="1.00" stroke-linecap="butt" stroke-linejoin="miter">
	<path stroke='black'  d='M468.9,765.6 L468.9,744.6 M468.9,126.1 L468.9,147.1  '/>	<g transform="translate(468.9,816.7)" stroke="none" fill="black" font-family="Helvetica" font-size="28.00"  text-anchor="middle">
		<text><tspan font-family="Helvetica" > 150</tspan></text>
	</g>
</g>
<g fill="none" color="black" stroke="currentColor" stroke-width="1.00" stroke-linecap="butt" stroke-linejoin="miter">
	<path stroke='black'  d='M556.0,765.6 L556.0,744.6 M556.0,126.1 L556.0,147.1  '/>	<g transform="translate(556.0,816.7)" stroke="none" fill="black" font-family="Helvetica" font-size="28.00"  text-anchor="middle">
		<text><tspan font-family="Helvetica" > 200</tspan></text>
	</g>
</g>
<g fill="none" color="black" stroke="currentColor" stroke-width="1.00" stroke-linecap="butt" stroke-linejoin="miter">
	<path stroke='black'  d='M643.1,765.6 L643.1,744.6 M643.1,126.1 L643.1,147.1  '/>	<g transform="translate(643.1,816.7)" stroke="none" fill="black" font-family="Helvetica" font-size="28.00"  text-anchor="middle">
		<text><tspan font-family="Helvetica" > 250</tspan></text>
	</g>
</g>
<g fill="none" color="black" stroke="currentColor" stroke-width="1.00" stroke-linecap="butt" stroke-linejoin="miter">
	<path stroke='black'  d='M730.1,765.6 L730.1,744.6 M730.1,126.1 L730.1,147.1  '/>	<g transform="translate(730.1,816.7)" stroke="none" fill="black" font-family="Helvetica" font-size="28.00"  text-anchor="middle">
		<text><tspan font-family="Helvetica" > 300</tspan></text>
	</g>
</g>
<g fill="none" color="black" stroke="currentColor" stroke-width="1.00" stroke-linecap="butt" stroke-linejoin="miter">
	<path stroke='black'  d='M817.2,765.6 L817.2,744.6 M817.2,126.1 L817.2,147.1  '/>	<g transform="translate(817.2,816.7)" stroke="none" fill="black" font-family="Helvetica" font-size="28.00"  text-anchor="middle">
		<text><tspan font-family="Helvetica" > 350</tspan></text>
	</g>
</g>
<g fill="none" color="black" stroke="currentColor" stroke-width="1.00" stroke-linecap="butt" stroke-linejoin="miter">
	<path stroke='black'  d='M904.3,765.6 L904.3,744.6 M904.3,126.1 L904.3,147.1  '/>	<g transform="translate(904.3,816.7)" stroke="none" fill="black" font-family="Helvetica" font-size="28.00"  text-anchor="middle">
		<text><tspan font-family="Helvetica" > 400</tspan></text>
	</g>
</g>
<g fill="none" color="black" stroke="currentColor" stroke-width="1.00" stroke-linecap="butt" stroke-linejoin="miter">
	<path stroke='black'  d='M991.3,765.6 L991.3,744.6 M991.3,126.1 L991.3,147.1  '/>	<g transform="translate(991.3,816.7)" stroke="none" fill="black" font-family="Helvetica" font-size="28.00"  text-anchor="middle">
		<text><tspan font-family="Helvetica" > 450</tspan></text>
	</g>
</g>
<g fill="none" color="black" stroke="currentColor" stroke-width="1.00" stroke-linecap="butt" stroke-linejoin="miter">
	<path stroke='black'  d='M1078.4,765.6 L1078.4,744.6 M1078.4,126.1 L1078.4,147.1  '/>	<g transform="translate(1078.4,816.7)" stroke="none" fill="black" font-family="Helvetica" font-size="28.00"  text-anchor="middle">
		<text><tspan font-family="Helvetica" > 500</tspan></text>
	</g>
</g>
<g fill="none" color="black" stroke="currentColor" stroke-width="1.00" stroke-linecap="butt" stroke-linejoin="miter">
</g>
<g fill="none" color="black" stroke="currentColor" stroke-width="1.00" stroke-linecap="butt" stroke-linejoin="miter">
	<path stroke='black'  d='M207.7,126.1 L207.7,765.6 L1078.4,765.6 L1078.4,126.1 L207.7,126.1 Z  '/></g>
<g fill="none" color="black" stroke="currentColor" stroke-width="1.00" stroke-linecap="butt" stroke-linejoin="miter">
	<g transform="translate(39.8,445.9) rotate(270)" stroke="none" fill="black" font-family="Helvetica-Bold" font-size="28.00"  text-anchor="middle">
		<text><tspan font-family="Helvetica-Bold" >Ambulanse, abs.</tspan></text>
	</g>
</g>
<g fill="none" color="black" stroke="currentColor" stroke-width="1.00" stroke-linecap="butt" stroke-linejoin="miter">
	<g transform="translate(1129.4,445.9) rotate(270)" stroke="none" fill="black" font-family="Helvetica-Bold" font-size="28.00"  text-anchor="middle">
		<text><tspan font-family="Helvetica-Bold" >Ambulanse, %</tspan></text>
	</g>
</g>
<g fill="none" color="black" stroke="currentColor" stroke-width="1.00" stroke-linecap="butt" stroke-linejoin="miter">
	<g transform="translate(643.0,879.7)" stroke="none" fill="black" font-family="Helvetica-Bold" font-size="28.00"  text-anchor="middle">
		<text><tspan font-family="Helvetica-Bold" >M/Z, a.e.m.</tspan></text>
	</g>
</g>
<g fill="none" color="black" stroke="currentColor" stroke-width="1.00" stroke-linecap="butt" stroke-linejoin="miter">
	<g transform="translate(643.0,72.2)" stroke="none" fill="black" font-family="Helvetica" font-size="28.00"  text-anchor="middle">
		<text><tspan font-family="Helvetica" >Integrate MS2 Spectr</tspan></text>
	</g>
</g>
	<g id="gnuplot_plot_1" ><title>261</title>
<g fill="none" color="white" stroke="black" stroke-width="5.00" stroke-linecap="butt" stroke-linejoin="miter">
</g>
<g fill="none" color="black" stroke="currentColor" stroke-width="5.00" stroke-linecap="butt" stroke-linejoin="miter">
	<path stroke='black'  d='M275.7,765.6 L275.7,764.2 M296.5,765.6 L296.5,764.2 M331.4,765.6 L331.4,764.3 M336.7,765.6 L336.7,751.0
		M338.3,765.6 L338.3,725.8 M340.1,765.6 L340.1,760.9 M368.0,765.6 L368.0,701.2 M387.6,765.6 L387.6,762.2
		M420.2,765.6 L420.2,135.9 M420.5,765.6 L420.5,763.1 M422.1,765.6 L422.1,715.4 M423.7,765.6 L423.7,764.3
		M469.0,765.6 L469.0,699.2 M585.6,765.6 L585.6,754.0 M589.0,765.6 L589.0,764.0 M629.6,765.6 L629.6,764.0
		M912.9,765.6 L912.9,764.1 M940.8,765.6 L940.8,764.1 M1019.5,765.6 L1019.5,764.0 M1047.5,765.6 L1047.5,764.3
		 '/></g>
	</g>
	<g id="gnuplot_plot_2" ><title>0.5</title>
<g fill="none" color="black" stroke="currentColor" stroke-width="5.00" stroke-linecap="butt" stroke-linejoin="miter">
	<path stroke='black'  d='M275.7,765.6 L275.7,764.3 M296.5,765.6 L296.5,764.3 M331.4,765.6 L331.4,764.3 M336.7,765.6 L336.7,750.9
		M338.3,765.6 L338.3,725.3 M340.1,765.6 L340.1,760.5 M368.0,765.6 L368.0,700.4 M387.6,765.6 L387.6,762.4
		M420.2,765.6 L420.2,126.1 M420.5,765.6 L420.5,763.0 M422.1,765.6 L422.1,714.4 M423.7,765.6 L423.7,764.3
		M469.0,765.6 L469.0,698.5 M585.6,765.6 L585.6,754.1 M589.0,765.6 L589.0,764.3 M629.6,765.6 L629.6,763.7
		M912.9,765.6 L912.9,764.3 M940.8,765.6 L940.8,764.3 M1019.5,765.6 L1019.5,763.7 M1047.5,765.6 L1047.5,764.3
		 '/></g>
	</g>
<g fill="none" color="white" stroke="black" stroke-width="2.00" stroke-linecap="butt" stroke-linejoin="miter">
</g>
<g fill="none" color="black" stroke="currentColor" stroke-width="2.00" stroke-linecap="butt" stroke-linejoin="miter">
</g>
<g fill="none" color="black" stroke="black" stroke-width="1.00" stroke-linecap="butt" stroke-linejoin="miter">
</g>
<g fill="none" color="black" stroke="currentColor" stroke-width="1.00" stroke-linecap="butt" stroke-linejoin="miter">
	<path stroke='black'  d='M207.7,126.1 L207.7,765.6 L1078.4,765.6 L1078.4,126.1 L207.7,126.1 Z  '/></g>
<g fill="none" color="black" stroke="currentColor" stroke-width="1.00" stroke-linecap="butt" stroke-linejoin="miter">
</g>
</g>
</svg>

